{
    "_id": "98rS64gLzy1ReXoR",
    "data": {
        "attributes": {
            "ac": {
                "value": 19
            },
            "hardness": 0,
            "hasHealth": true,
            "hp": {
                "details": "",
                "max": 26,
                "temp": 0,
                "tempmax": 0,
                "value": 26
            },
            "stealth": {
                "details": "(expert)",
                "value": 8
            }
        },
        "creatureType": "",
        "details": {
            "description": "Semitransparent sheets of webbing span the entryway, ready to capture small insects or hamper larger creatures that pass through.",
            "disable": "DC 17 Survival (trained) to dislodge it",
            "isComplex": false,
            "level": {
                "value": 1
            },
            "reset": "",
            "routine": ""
        },
        "saves": {
            "fortitude": {
                "saveDetail": "",
                "value": 10
            },
            "reflex": {
                "saveDetail": "",
                "value": 11
            },
            "will": {
                "saveDetail": "",
                "value": 0
            }
        },
        "source": {
            "value": "Pathfinder Gamemastery Guide"
        },
        "statusEffects": [],
        "traits": {
            "ci": [],
            "di": {
                "custom": "",
                "selected": {},
                "value": [
                    "critical-hits",
                    "object-immunities",
                    "precision"
                ]
            },
            "dr": [],
            "dv": [],
            "rarity": {
                "value": "common"
            },
            "size": {
                "value": "med"
            },
            "traits": {
                "custom": "",
                "value": [
                    "environmental"
                ]
            }
        }
    },
    "effects": [],
    "flags": {},
    "img": "systems/pf2e/icons/default-icons/hazard.svg",
    "items": [
        {
            "_id": "CHZ0RRKgpq6eI2AS",
            "data": {
                "actionCategory": {
                    "value": ""
                },
                "actionType": {
                    "value": "reaction"
                },
                "actions": {
                    "value": null
                },
                "description": {
                    "value": "<p data-visibility=\"gm\"><strong>Trigger</strong> A creature that isn't a spider walks into the web.</p>\n<p><strong>Effect</strong> The web wraps around the triggering creature's body, clinging to their limbs. The triggering creature must succeed at a <span data-pf2-check=\"reflex\" data-pf2-dc=\"20\" data-pf2-label=\"Ensnare DC\" data-pf2-show-dc=\"gm\">Reflex</span> save or take a -10-foot circumstance penalty to all their Speeds until they Escape the web (DC 20). On a critical failure, the webbing also clings to the creature's face, making them sickened 1, and they can't attempt to reduce this condition until they Escape the web.</p>"
                },
                "requirements": {
                    "value": ""
                },
                "rules": [],
                "slug": null,
                "source": {
                    "value": ""
                },
                "traits": {
                    "custom": "",
                    "rarity": {
                        "value": "common"
                    },
                    "value": []
                },
                "trigger": {
                    "value": ""
                },
                "weapon": {
                    "value": ""
                }
            },
            "effects": [],
            "flags": {},
            "img": "systems/pf2e/icons/actions/Reaction.webp",
            "name": "Ensnare",
            "sort": 100000,
            "type": "action"
        }
    ],
    "name": "Hampering Web",
    "token": {
        "disposition": 0,
        "height": 1,
        "img": "systems/pf2e/icons/default-icons/hazard.svg",
        "name": "Hampering Web",
        "width": 1
    },
    "type": "hazard"
}
