{
    "_id": "v2xIxZ9ZZ6fJyATF",
    "data": {
        "attributes": {
            "ac": {
                "value": 15
            },
            "hardness": 6,
            "hasHealth": true,
            "hp": {
                "details": "",
                "max": 24,
                "temp": 0,
                "tempmax": 0,
                "value": 24
            },
            "stealth": {
                "details": "(trained)",
                "value": 7
            }
        },
        "creatureType": "",
        "details": {
            "description": "A spring-loaded, poisoned spine is hidden near the keyhole of a lock. Disabling or breaking the trap does not disable or break the lock.",
            "disable": "<p><span data-pf2-check=\"thievery\" data-pf2-traits=\"mechanical,trap\" data-pf2-label=\"Disarm Lock Trap DC\" data-pf2-dc=\"17\" data-pf2-show-dc=\"gm\">Thievery</span> (trained) on the spring mechanism</p>",
            "isComplex": false,
            "level": {
                "value": 1
            },
            "reset": "",
            "routine": ""
        },
        "saves": {
            "fortitude": {
                "saveDetail": "",
                "value": 8
            },
            "reflex": {
                "saveDetail": "",
                "value": 4
            },
            "will": {
                "saveDetail": "",
                "value": 0
            }
        },
        "source": {
            "value": "Pathfinder Core Rulebook"
        },
        "statusEffects": [],
        "traits": {
            "ci": [],
            "di": {
                "custom": "",
                "selected": {},
                "value": [
                    "critical-hits",
                    "object-immunities",
                    "precision"
                ]
            },
            "dr": [],
            "dv": [],
            "rarity": {
                "value": "common"
            },
            "size": {
                "value": "med"
            },
            "traits": {
                "custom": "",
                "value": [
                    "mechanical",
                    "trap"
                ]
            }
        }
    },
    "effects": [],
    "flags": {},
    "img": "systems/pf2e/icons/default-icons/hazard.svg",
    "items": [
        {
            "_id": "1bvXbELRBoJTBqsR",
            "data": {
                "actionCategory": {
                    "value": ""
                },
                "actionType": {
                    "value": "reaction"
                },
                "actions": {
                    "value": null
                },
                "description": {
                    "value": "<p data-visibility=\"gm\"><strong>Trigger</strong> A creature tries to unlock or Pick the Lock.</p>\n<p><strong>Effect</strong> A spine extends to attack the triggering creature.</p>"
                },
                "requirements": {
                    "value": ""
                },
                "rules": [],
                "slug": null,
                "source": {
                    "value": ""
                },
                "traits": {
                    "custom": "",
                    "rarity": {
                        "value": "common"
                    },
                    "value": [
                        "attack"
                    ]
                },
                "trigger": {
                    "value": ""
                },
                "weapon": {
                    "value": ""
                }
            },
            "effects": [],
            "flags": {},
            "img": "systems/pf2e/icons/actions/Reaction.webp",
            "name": "Spring",
            "sort": 100000,
            "type": "action"
        },
        {
            "_id": "vFBoAHwlrVTu9wKm",
            "data": {
                "attack": {
                    "value": ""
                },
                "attackEffects": {
                    "custom": "",
                    "value": [
                        "cladis-poison"
                    ]
                },
                "bonus": {
                    "value": 13
                },
                "damageRolls": {
                    "3tqq8q1ujv3fog51d6br": {
                        "damage": "1",
                        "damageType": "piercing"
                    }
                },
                "description": {
                    "value": ""
                },
                "rules": [],
                "slug": null,
                "source": {
                    "value": ""
                },
                "traits": {
                    "custom": "",
                    "rarity": {
                        "value": "common"
                    },
                    "value": []
                },
                "weaponType": {
                    "value": "melee"
                }
            },
            "effects": [],
            "flags": {},
            "img": "systems/pf2e/icons/default-icons/melee.svg",
            "name": "Spine",
            "sort": 200000,
            "type": "melee"
        },
        {
            "_id": "HoWRGPkBlJjsL9zl",
            "data": {
                "actionCategory": {
                    "value": ""
                },
                "actionType": {
                    "value": "passive"
                },
                "actions": {
                    "value": null
                },
                "description": {
                    "value": "<p><strong>Saving Throw</strong> <span data-pf2-check=\"fortitude\" data-pf2-dc=\"19\" data-pf2-traits=\"poison\" data-pf2-label=\"Cladis Poison DC\" data-pf2-show-dc=\"gm\">Fortitude</span>;</p>\n<div data-visibility=\"gm\">\n<p><strong>Maximum Duration</strong> 4 hours;</p>\n<p><strong>Stage 1</strong> [[/r {1d6}[poison]]]{1d6 poison damage} and @Compendium[pf2e.conditionitems.Drained]{Drained 1} (1 hour);</p>\n<p><strong>Stage 2</strong> [[/r {2d6}[poison]]]{2d6 poison damage} and @Compendium[pf2e.conditionitems.Drained]{Drained 2} (1 hour);</p>\n<p><strong>Stage 3</strong> [[/r {3d6}[poison]]]{3d6 poison damage} and drained 2 (1 hour)</p>\n</div>"
                },
                "requirements": {
                    "value": ""
                },
                "rules": [],
                "slug": null,
                "source": {
                    "value": ""
                },
                "traits": {
                    "custom": "",
                    "rarity": {
                        "value": "common"
                    },
                    "value": [
                        "poison"
                    ]
                },
                "trigger": {
                    "value": ""
                },
                "weapon": {
                    "value": ""
                }
            },
            "effects": [],
            "flags": {},
            "img": "systems/pf2e/icons/actions/Passive.webp",
            "name": "Cladis Poison",
            "sort": 300000,
            "type": "action"
        }
    ],
    "name": "Poisoned Lock",
    "token": {
        "disposition": 0,
        "height": 1,
        "img": "systems/pf2e/icons/default-icons/hazard.svg",
        "name": "Poisoned Lock",
        "width": 1
    },
    "type": "hazard"
}
