{
    "_id": "Or0jjL8xS3GyiMq0",
    "data": {
        "attributes": {
            "ac": {
                "value": 18
            },
            "hardness": 0,
            "hasHealth": true,
            "hp": {
                "details": "",
                "max": 10,
                "temp": 0,
                "tempmax": 0,
                "value": 10
            },
            "stealth": {
                "details": "",
                "value": 12
            }
        },
        "creatureType": "",
        "details": {
            "description": "<p>Discreet webbing at throat level snags a creature that walks into it.</p>",
            "disable": "<p><span data-pf2-check=\"survival\" data-pf2-dc=\"18\" data-pf2-traits=\"mechanical,trap\" data-pf2-label=\"Rearrange the Webbing DC\" data-pf2-show-dc=\"gm\">Survival</span> (trained) or <span data-pf2-check=\"thievery\" data-pf2-dc=\"18\" data-pf2-traits=\"mechanical,trap\" data-pf2-label=\"Rearrange the Webbing DC\" data-pf2-show-dc=\"gm\">Thievery</span> (expert) to rearrange the webbing.</p>",
            "isComplex": false,
            "level": {
                "value": 2
            },
            "reset": "",
            "routine": ""
        },
        "saves": {
            "fortitude": {
                "saveDetail": "",
                "value": 11
            },
            "reflex": {
                "saveDetail": "",
                "value": 5
            },
            "will": {
                "saveDetail": "",
                "value": 0
            }
        },
        "source": {
            "value": "Pathfinder Bestiary"
        },
        "statusEffects": [],
        "traits": {
            "ci": [],
            "di": {
                "custom": "",
                "selected": {},
                "value": []
            },
            "dr": [],
            "dv": [],
            "rarity": {
                "value": "common"
            },
            "size": {
                "value": "med"
            },
            "traits": {
                "custom": "",
                "value": []
            }
        }
    },
    "effects": [],
    "flags": {},
    "img": "systems/pf2e/icons/default-icons/hazard.svg",
    "items": [
        {
            "_id": "LZTjCUaLv54zwB8W",
            "data": {
                "actionCategory": {
                    "value": ""
                },
                "actionType": {
                    "value": "reaction"
                },
                "actions": {
                    "value": null
                },
                "description": {
                    "value": "<p data-visibility=\"gm\"><strong>Trigger</strong> A creature steps into the square with the web tripwire.</p>\n<p><strong>Effect</strong> The web lurker noose makes a noose Strike against the triggering creature.</p>"
                },
                "requirements": {
                    "value": ""
                },
                "rules": [],
                "slug": null,
                "source": {
                    "value": ""
                },
                "traits": {
                    "custom": "",
                    "rarity": {
                        "value": "common"
                    },
                    "value": [
                        "attack"
                    ]
                },
                "trigger": {
                    "value": ""
                },
                "weapon": {
                    "value": ""
                }
            },
            "effects": [],
            "flags": {},
            "img": "systems/pf2e/icons/actions/Reaction.webp",
            "name": "Web Noose",
            "sort": 100000,
            "type": "action"
        },
        {
            "_id": "VNaaW87S24zzxXZh",
            "data": {
                "attack": {
                    "value": ""
                },
                "attackEffects": {
                    "custom": "",
                    "value": []
                },
                "bonus": {
                    "value": 13
                },
                "damageRolls": {
                    "mwdx5rvny9h800405t75e": {
                        "damage": "3d6",
                        "damageType": "bludgeoning"
                    }
                },
                "description": {
                    "value": "<p>On a successful strike, the target is @Compendium[pf2e.conditionitems.Grabbed]{Grabbed} and pulled off the ground (@Compendium[pf2e.actionspf2e.Escape]{Escape} DC 22).</p>\n<p>The target takes [[/r {1d6}[bludgeoning]]]{1d6 bludgeoning damage} at the end of each of its turns as long as it's caught in the noose.</p>"
                },
                "rules": [],
                "slug": null,
                "source": {
                    "value": ""
                },
                "traits": {
                    "custom": "",
                    "rarity": {
                        "value": "common"
                    },
                    "value": [
                        "deadly-d10"
                    ]
                },
                "weaponType": {
                    "value": "melee"
                }
            },
            "effects": [],
            "flags": {},
            "img": "systems/pf2e/icons/default-icons/melee.svg",
            "name": "Noose Strike",
            "sort": 200000,
            "type": "melee"
        }
    ],
    "name": "Web Lurker Noose",
    "token": {
        "disposition": 0,
        "height": 1,
        "img": "systems/pf2e/icons/default-icons/hazard.svg",
        "name": "Web Lurker Noose",
        "width": 1
    },
    "type": "hazard"
}
