{
    "_id": "dSYel8ABTevOc5YA",
    "data": {
        "boosts": {
            "0": {
                "value": [
                    "cha",
                    "int"
                ]
            },
            "1": {
                "value": [
                    "cha",
                    "con",
                    "dex",
                    "int",
                    "str",
                    "wis"
                ]
            }
        },
        "description": {
            "value": "<p>While others choose to use their engineering ability to heal the injured or make brilliant innovations, you've used your skill to repair and modify clockwork constructs that battle in gladiatorial combat. You know how to get a crowd electrified for your clockwork gladiator, win or lose, and you know how to repair it when it gets damaged. These skills serve you well as an adventurer.</p>\n<p>Choose two ability boosts. One must be to <strong>Intelligence</strong> or <strong>Charisma</strong>, and one is a free ability boost.</p>\n<p>You're trained in the Crafting skill and the Gladiatorial Lore skill. You gain the @Compendium[pf2e.feats-srd.Experienced Professional]{Experienced Professional} skill feat.</p>"
        },
        "items": {
            "48cj5": {
                "id": "sMm0UfYxEPpq2Yzd",
                "img": "systems/pf2e/icons/features/feats/feats.webp",
                "level": 1,
                "name": "Experienced Professional",
                "pack": "pf2e.feats-srd"
            }
        },
        "rules": [],
        "source": {
            "value": "Pathfinder Guns & Gears"
        },
        "trainedLore": "Gladitorial",
        "trainedSkills": {
            "custom": "",
            "value": [
                "cra"
            ]
        },
        "traits": {
            "custom": "",
            "rarity": {
                "value": "common"
            },
            "value": []
        }
    },
    "effects": [],
    "flags": {},
    "img": "systems/pf2e/icons/default-icons/background.svg",
    "name": "Clockfighter",
    "type": "background"
}
