{
    "_id": "x3fFxtLogoy5hZfe",
    "data": {
        "boosts": {
            "0": {
                "value": [
                    "int",
                    "wis"
                ]
            },
            "1": {
                "value": [
                    "cha",
                    "con",
                    "dex",
                    "int",
                    "str",
                    "wis"
                ]
            }
        },
        "description": {
            "value": "<p>While others might have looked to clockwork as a mechanical innovation, you see the potential in the technology to improve the health of patients. You might be an experienced field medic who reached for a scrapped construct to help a wounded soldier, or a vanguard surgeon who's found replacing organs with clockwork more effective than repairing them. Perhaps you've also worked to \"optimize\" organic bodies with fine machinery, with or without the permission of your patients.</p>\n<p>Choose two ability boosts. One must be to <strong>Intelligence</strong> or <strong>Wisdom</strong>, and one is a free ability boost.</p>\n<p>You're trained in the Medicine skill and the Engineering Lore skill. You gain the @Compendium[pf2e.feats-srd.Risky Surgery]{Risky Surgery} skill feat.</p>"
        },
        "items": {
            "woff0": {
                "id": "bkZgWFSFV4cAf5Ot",
                "img": "systems/pf2e/icons/features/feats/feats.webp",
                "level": 1,
                "name": "Risky Surgery",
                "pack": "pf2e.feats-srd"
            }
        },
        "rules": [],
        "source": {
            "value": "Pathfinder Guns & Gears"
        },
        "trainedLore": "Engineering",
        "trainedSkills": {
            "custom": "",
            "value": [
                "med"
            ]
        },
        "traits": {
            "custom": "",
            "rarity": {
                "value": "common"
            },
            "value": []
        }
    },
    "effects": [],
    "flags": {},
    "img": "systems/pf2e/icons/default-icons/background.svg",
    "name": "Medicinal Clocksmith",
    "type": "background"
}
