{
    "_id": "ns9BOvCyjdapYhI0",
    "data": {
        "boosts": {
            "0": {
                "value": [
                    "int",
                    "wis"
                ]
            },
            "1": {
                "value": [
                    "cha",
                    "con",
                    "dex",
                    "int",
                    "str",
                    "wis"
                ]
            }
        },
        "description": {
            "value": "<p>Some ailments can't be cured by herbs alone. You learned ritual remedies as well, calling on nature spirits to soothe aches and ward off the evil eye. Taking up with adventurers has given you company on the road, as well as protection from those who would brand you a fake-or worse.</p>\n<p>Choose two ability boosts. One must be to <strong>Intelligence</strong> or <strong>Wisdom</strong>, and one is a free ability boost.</p>\n<p>You're trained in the Occultism skill and the Herbalism Lore skill. You gain the @Compendium[pf2e.feats-srd.Root Magic]{Root Magic} skill feat.</p>"
        },
        "items": {
            "rzhqp": {
                "id": "22P7IFyhrF7Fbw8B",
                "img": "systems/pf2e/icons/features/feats/feats.webp",
                "level": "1",
                "name": "Root Magic",
                "pack": "pf2e.feats-srd"
            }
        },
        "rules": [],
        "source": {
            "value": "Pathfinder Advanced Player's Guide"
        },
        "trainedLore": "Herbalism Lore",
        "trainedSkills": {
            "value": [
                "occ"
            ]
        },
        "traits": {
            "custom": "",
            "rarity": {
                "value": "common"
            },
            "value": []
        }
    },
    "effects": [],
    "flags": {},
    "img": "systems/pf2e/icons/default-icons/background.svg",
    "name": "Root Worker",
    "type": "background"
}
