{
    "_id": "OhP7cqvNouFgHIdJ",
    "data": {
        "boosts": {
            "0": {
                "value": [
                    "dex",
                    "int"
                ]
            },
            "1": {
                "value": [
                    "cha",
                    "con",
                    "dex",
                    "int",
                    "str",
                    "wis"
                ]
            }
        },
        "description": {
            "value": "<p><strong>Prerequisites</strong>: Kobald Ancestry</p>\n<hr />\n<p>You are one of the Sewer Dragons, born in Absalom's sewers, strengthened by a life defending your territory.</p>\n<p>Choose two ability boosts. One must be to <strong>Dexterity</strong> or <strong>Intelligence</strong>, and one is a free ability boost. You're trained in the Crafting skill and the Kobold Lore skill. You gain the @Compendium[pf2e.feats-srd.Snare Crafting]{Snare Crafting} skill feat.</p>"
        },
        "items": {
            "4w4bm": {
                "id": "DMetdzt1VJL2Y62i",
                "img": "systems/pf2e/icons/features/feats/feats.webp",
                "level": "1",
                "name": "Snare Crafting",
                "pack": "pf2e.feats-srd"
            }
        },
        "rules": [],
        "source": {
            "value": "Pathfinder Society Quest #10: The Broken Scales"
        },
        "trainedLore": "Kobold Lore",
        "trainedSkills": {
            "value": [
                "cra"
            ]
        },
        "traits": {
            "custom": "",
            "rarity": {
                "value": "common"
            },
            "value": []
        }
    },
    "effects": [],
    "flags": {},
    "img": "systems/pf2e/icons/default-icons/background.svg",
    "name": "Sewer Dragon",
    "type": "background"
}
