{
    "_id": "K2rMmiBlzcysNuj6",
    "data": {
        "baseItem": null,
        "brokenThreshold": {
            "value": 0
        },
        "bulkCapacity": {
            "value": ""
        },
        "collapsed": {
            "value": false
        },
        "containerId": {
            "value": ""
        },
        "description": {
            "value": "<p>This belt is crafted from rubbery troll hide that's green and orange in color. You gain 15 temporary Hit Points the first time you invest the belt in a day. When you invest the belt, you either increase your Constitution score by 2 or increase it to 18, whichever would give you a higher score.</p>\n<p><strong>Activate</strong> <span class=\"pf2-icon\">A</span> Interact</p>\n<p><strong>Frequency</strong> once per day</p>\n<p><strong>Effect</strong> You tighten the belt one notch to gain a regeneration effect. For [[/r 2d4]] rounds, at the start of your turn each round, you recover [[/r 15]] Hit Points unless you took acid or fire damage since the start of your previous turn.</p>\n<hr />\n<p>Automatically applied effects:</p>\n<ul>\n<li>Gain 15 temporary HP</li>\n</ul>"
        },
        "equipped": {
            "value": false
        },
        "equippedBulk": {
            "value": ""
        },
        "hardness": {
            "value": 0
        },
        "hp": {
            "value": 0
        },
        "identification": {
            "misidentified": {},
            "status": "identified",
            "unidentified": {
                "data": {
                    "description": {
                        "value": ""
                    }
                },
                "img": "",
                "name": ""
            }
        },
        "invested": {
            "value": false
        },
        "level": {
            "value": 17
        },
        "maxHp": {
            "value": 0
        },
        "negateBulk": {
            "value": "0"
        },
        "preciousMaterial": {
            "value": ""
        },
        "preciousMaterialGrade": {
            "value": ""
        },
        "price": {
            "value": "15000 gp"
        },
        "quantity": {
            "value": 1
        },
        "rules": [
            {
                "key": "TempHP",
                "value": 15
            },
            {
                "key": "ActiveEffectLike",
                "mode": "add",
                "path": "data.abilities.con.value",
                "value": 2
            },
            {
                "key": "ActiveEffectLike",
                "mode": "upgrade",
                "path": "data.abilities.con.value",
                "value": 18
            }
        ],
        "size": {
            "value": "med"
        },
        "source": {
            "value": "Pathfinder Core Rulebook"
        },
        "stackGroup": {
            "value": ""
        },
        "traits": {
            "custom": "",
            "rarity": {
                "value": "common"
            },
            "value": [
                "apex",
                "invested",
                "magical",
                "necromancy"
            ]
        },
        "usage": {
            "value": "wornbelt"
        },
        "weight": {
            "value": "L"
        }
    },
    "effects": [],
    "flags": {},
    "img": "systems/pf2e/icons/equipment/worn-items/apex-items/belt-of-regeneration.webp",
    "name": "Belt of Regeneration",
    "type": "equipment"
}
