{
    "_id": "n8MonEa4ZBdvEovc",
    "data": {
        "baseItem": null,
        "brokenThreshold": {
            "value": 0
        },
        "bulkCapacity": {
            "value": ""
        },
        "collapsed": {
            "value": false
        },
        "containerId": {
            "value": null
        },
        "description": {
            "value": "<p>This rune causes a weapon to transform into pure, brilliant energy. The weapon deals an additional [[/r {1d4}[fire]]]{1d4 fire damage} on a successful Strike, as well as [[/r {1d4}[good]]]{1d4 good damage} to fiends and [[/r {1d4}[positive]]]{1d4 positive damage} to undead. Damage dealt by this weapon ignores the target's fire, good, or positive resistance.</p>\n<p>On a critical hit, the target must succeed at a DC 41 Fortitude save or be @Compendium[pf2e.conditionitems.Blinded]{Blinded} for 1 round.</p>\n<hr />\n<p><strong>Activate</strong> <span class=\"pf2-icon\">1</span> command (light);</p>\n<p><strong>Effect</strong> You plunge your weapon into darkness to return the light. Attempt a counteract check with a counteract level of 9 and a +31 counteract modifier to end a magical darkness effect whose area is within reach of the weapon.</p>"
        },
        "equipped": {
            "value": false
        },
        "equippedBulk": {
            "value": ""
        },
        "hardness": {
            "value": 0
        },
        "hp": {
            "value": 0
        },
        "identification": {
            "misidentified": {},
            "status": "identified",
            "unidentified": {
                "data": {
                    "description": {
                        "value": ""
                    }
                },
                "img": "",
                "name": ""
            }
        },
        "invested": {
            "value": null
        },
        "level": {
            "value": 18
        },
        "maxHp": {
            "value": 0
        },
        "negateBulk": {
            "value": "0"
        },
        "preciousMaterial": {
            "value": null
        },
        "preciousMaterialGrade": {
            "value": null
        },
        "price": {
            "value": "24000 gp"
        },
        "quantity": {
            "value": 1
        },
        "rules": [],
        "size": {
            "value": "med"
        },
        "source": {
            "value": "Pathfinder Secrets of Magic"
        },
        "stackGroup": {
            "value": ""
        },
        "traits": {
            "custom": "",
            "rarity": {
                "value": "common"
            },
            "value": [
                "evocation",
                "magical"
            ]
        },
        "usage": {
            "value": "etched-onto-a-weapon"
        },
        "weight": {
            "value": "-"
        }
    },
    "effects": [],
    "flags": {},
    "img": "systems/pf2e/icons/default-icons/equipment.svg",
    "name": "Brilliant (Greater)",
    "type": "equipment"
}
