{
    "_id": "vBgElXswf6xBx4k9",
    "data": {
        "baseItem": null,
        "brokenThreshold": {
            "value": 0
        },
        "bulkCapacity": {
            "value": ""
        },
        "collapsed": {
            "value": false
        },
        "containerId": {
            "value": ""
        },
        "description": {
            "value": "<p>These heavy boots are made of blackened metal and always feel warm to the touch, with streams of glowing embers cascading off their heels. While wearing hellfire boots, you gain resistance 10 to fire damage.</p>\n<p><strong>Activate</strong> <span class=\"pf2-icon\">2</span> Interact;</p>\n<p><strong>Frequency</strong> once per minute;</p>\n<p><strong>Effect</strong> Stride. Each square you move through during your Stride is scorched with hellish flames, becoming hazardous terrain for 1 minute. A creature that moves through one of these spaces takes 3d6 fire damage.</p>"
        },
        "equipped": {
            "value": false
        },
        "equippedBulk": {
            "value": ""
        },
        "hardness": {
            "value": 0
        },
        "hp": {
            "value": 0
        },
        "identification": {
            "misidentified": {},
            "status": "identified",
            "unidentified": {
                "data": {
                    "description": {
                        "value": ""
                    }
                },
                "img": "",
                "name": ""
            }
        },
        "invested": {
            "value": false
        },
        "level": {
            "value": 13
        },
        "maxHp": {
            "value": 0
        },
        "negateBulk": {
            "value": "0"
        },
        "preciousMaterial": {
            "value": ""
        },
        "preciousMaterialGrade": {
            "value": ""
        },
        "price": {
            "value": "3,000 gp"
        },
        "quantity": {
            "value": 1
        },
        "rules": [],
        "size": {
            "value": "med"
        },
        "source": {
            "value": "Pathfinder Advanced Player's Guide"
        },
        "stackGroup": {
            "value": ""
        },
        "traits": {
            "custom": "",
            "rarity": {
                "value": "common"
            },
            "value": [
                "evocation",
                "fire",
                "invested",
                "magical"
            ]
        },
        "usage": {
            "value": "wornshoes"
        },
        "weight": {
            "value": "1"
        }
    },
    "effects": [],
    "flags": {},
    "img": "systems/pf2e/icons/equipment/worn-items/other-worn-items/hellfire-boots.webp",
    "name": "Hellfire Boots",
    "type": "equipment"
}
