{
    "_id": "JCGsj7iY88o9uTP5",
    "data": {
        "baseItem": null,
        "brokenThreshold": {
            "value": 0
        },
        "bulkCapacity": {
            "value": ""
        },
        "collapsed": {
            "value": false
        },
        "containerId": {
            "value": ""
        },
        "description": {
            "value": "<p>This arrowhead-shaped charm is not meant to be affixed to an arrow, but instead to be carried in a pocket or inside of a quiver. A <em>hunter's arrowhead</em> is etched with images sacred to the elven god Ketephys.</p>\n<p>If you carry one on your person, you are infused with great skill at hunting, and gain a +1 item bonus to Survival skill checks and attack rolls against any creature you've currently designated as your prey for the Hunt Prey ranger ability (note that the bonus to attack rolls is an item bonus, and therefore not cumulative with an item bonus from a magic weapon).</p>\n<p>A hunter's arrowhead is also a religious symbol of Ketephys.</p>\n<hr />\n<p><strong>Activate</strong> <span class=\"pf2-icon\">R</span> command</p>\n<p><strong>Frequency</strong> once per day</p>\n<p><strong>Trigger</strong> You would miss with an attack made with a bow.</p>\n<p><strong>Effect</strong> You get a +2 circumstance bonus to your attack roll. This can turn a miss into a hit.</p>\n<hr />\n<p>Automatically applied effects:</p>\n<ul>\n<li>+1 item bonus to Survival skill checks against your Hunted Prey</li>\n<li>+1 item bonus to attack rolls against your Hunted Prey</li>\n</ul>"
        },
        "equipped": {
            "value": false
        },
        "equippedBulk": {
            "value": ""
        },
        "hardness": {
            "value": 0
        },
        "hp": {
            "value": 0
        },
        "identification": {
            "misidentified": {},
            "status": "identified",
            "unidentified": {
                "data": {
                    "description": {
                        "value": ""
                    }
                },
                "img": "",
                "name": ""
            }
        },
        "invested": {
            "value": false
        },
        "level": {
            "value": 4
        },
        "maxHp": {
            "value": 0
        },
        "negateBulk": {
            "value": ""
        },
        "preciousMaterial": {
            "value": ""
        },
        "preciousMaterialGrade": {
            "value": ""
        },
        "price": {
            "value": "80 gp"
        },
        "quantity": {
            "value": 1
        },
        "rules": [
            {
                "key": "FlatModifier",
                "label": "Hunter's Arrowhead (vs. hunted prey)",
                "predicate": {
                    "any": [
                        "hunted-prey"
                    ]
                },
                "selector": "survival",
                "type": "item",
                "value": 1
            },
            {
                "key": "FlatModifier",
                "label": "Hunter's Arrowhead (vs. hunted prey)",
                "predicate": {
                    "all": [
                        "hunted-prey"
                    ]
                },
                "selector": "attack-roll",
                "type": "item",
                "value": 1
            }
        ],
        "size": {
            "value": "med"
        },
        "source": {
            "value": "Pathfinder #145: Hellknight Hill"
        },
        "stackGroup": {
            "value": ""
        },
        "traits": {
            "custom": "",
            "rarity": {
                "value": "rare"
            },
            "value": [
                "enchantment",
                "invested",
                "magical"
            ]
        },
        "usage": {
            "value": "worn"
        },
        "weight": {
            "value": "-"
        }
    },
    "effects": [],
    "flags": {},
    "img": "systems/pf2e/icons/equipment/worn-items/other-worn-items/hunters-arrowhead.webp",
    "name": "Hunter's Arrowhead",
    "type": "equipment"
}
