{
    "_id": "vZaXDOrp5Faxw5fS",
    "data": {
        "baseItem": null,
        "brokenThreshold": {
            "value": 0
        },
        "bulkCapacity": {
            "value": ""
        },
        "collapsed": {
            "value": false
        },
        "containerId": {
            "value": ""
        },
        "description": {
            "value": "<p>An array of semiprecious stones is set into the ornate silver and beaten copper cover of this thick and weighty tome. If you open the book before it's been activated, its vellum pages are blank and pristine, but once activated, words dance and swim onto the pages before your eyes.</p>\n<p><strong>Activate</strong> 10 minutes (envision, Interact)</p>\n<p><strong>Effect</strong> As you flip through the book, you think about a broad topic you want to know more about.</p>\n<p>Choose one skill: Arcana, Crafting, Medicine, Nature, Occultism, Religion, Society, or a single subcategory of Lore. The book's pages fill with information about that skill, though only you can see the information.</p>\n<p>While the pages are full, you can spend an Interact action perusing the book just before attempting a check to Recall Knowledge with the chosen skill. This grants you a +3 item bonus to the check, and if you roll a critical failure, you get a failure instead.</p>\n<p>The information within the book disappears after 24 hours or when the tome is activated again.</p>\n<hr />\n<p>Automatically applied effects:</p>\n<ul>\n<li>+3 item bonus to Recall Knowledge</li>\n</ul>"
        },
        "equipped": {
            "value": false
        },
        "equippedBulk": {
            "value": ""
        },
        "hardness": {
            "value": 0
        },
        "hp": {
            "value": 0
        },
        "identification": {
            "misidentified": {},
            "status": "identified",
            "unidentified": {
                "data": {
                    "description": {
                        "value": ""
                    }
                },
                "img": "",
                "name": ""
            }
        },
        "invested": {
            "value": false
        },
        "level": {
            "value": 18
        },
        "maxHp": {
            "value": 0
        },
        "negateBulk": {
            "value": "0"
        },
        "preciousMaterial": {
            "value": ""
        },
        "preciousMaterialGrade": {
            "value": ""
        },
        "price": {
            "value": "22,000 gp"
        },
        "quantity": {
            "value": 1
        },
        "rules": [
            {
                "key": "FlatModifier",
                "label": "Possibility Tome (Recall Knowledge)",
                "predicate": {
                    "all": [
                        "action:recall-knowledge"
                    ]
                },
                "selector": "skill-check",
                "type": "item",
                "value": 3
            }
        ],
        "size": {
            "value": "med"
        },
        "source": {
            "value": "Pathfinder Core Rulebook"
        },
        "stackGroup": {
            "value": ""
        },
        "traits": {
            "custom": "",
            "rarity": {
                "value": "common"
            },
            "value": [
                "divination",
                "magical"
            ]
        },
        "usage": {
            "value": "held-in-two-hands"
        },
        "weight": {
            "value": "2"
        }
    },
    "effects": [],
    "flags": {},
    "img": "systems/pf2e/icons/equipment/held-items/possibility-tome.webp",
    "name": "Possibility Tome",
    "type": "equipment"
}
