{
    "_id": "PlYr5AhYwHIztMw2",
    "data": {
        "armor": {
            "value": 2
        },
        "armorType": {
            "value": "shield"
        },
        "baseItem": null,
        "brokenThreshold": {
            "value": 32
        },
        "bulkCapacity": {
            "value": ""
        },
        "check": {
            "value": 0
        },
        "collapsed": {
            "value": false
        },
        "containerId": {
            "value": ""
        },
        "description": {
            "value": "<p>This high-grade orichalcum shield (Hardness 16, HP 64, and BT 32) bears a +3 major striking shield boss that cannot be removed.</p>\n<p>It gleams brightly in any light, drawing attention at all times.</p>\n<p>When you Raise this Shield, ephemeral reflections of it appear in front of each of your allies within 30 feet, granting them its +2 circumstance bonus to AC for as long as they are within 30 feet of you and your shield is raised. @Compendium[pf2e.equipment-effects.Effect: Shield of the Unified Legion]{Effect: Shield of the Unified Legion}</p>\n<hr />\n<p><strong>Activate</strong> (2 actions) Interact (force)</p>\n<p><strong>Frequency</strong> once per minute</p>\n<p><strong>Effect</strong> You heft the shield and thrust it forward, causing ephemeral reflections of the shield to surround you and then rush outward in a 90-foot line or 60-foot cone (your choice).</p>\n<p>Make a shield bash Strike against each enemy within the area, except that the damage dealt is force damage. Each target you hit is moved 10 feet away from you (each target you critically hit is also knocked prone). This is forced movement. These shield bashes count against your multiple attack penalty, but the penalty doesn't increase until after you have made all these attacks.</p>"
        },
        "dex": {
            "value": 0
        },
        "equipped": {
            "value": false
        },
        "equippedBulk": {
            "value": "L"
        },
        "group": {
            "value": null
        },
        "hardness": {
            "value": 16
        },
        "hp": {
            "value": 64
        },
        "identification": {
            "misidentified": {},
            "status": "identified",
            "unidentified": {
                "data": {
                    "description": {
                        "value": ""
                    }
                },
                "img": "",
                "name": ""
            }
        },
        "invested": {
            "value": false
        },
        "level": {
            "value": 20
        },
        "maxHp": {
            "value": 64
        },
        "negateBulk": {
            "value": "0"
        },
        "potencyRune": {
            "value": 0
        },
        "preciousMaterial": {
            "value": "orichalcum"
        },
        "preciousMaterialGrade": {
            "value": "high"
        },
        "price": {
            "value": "70,000 gp"
        },
        "propertyRune1": {
            "value": ""
        },
        "propertyRune2": {
            "value": ""
        },
        "propertyRune3": {
            "value": ""
        },
        "propertyRune4": {
            "value": ""
        },
        "quantity": {
            "value": 1
        },
        "resiliencyRune": {
            "value": ""
        },
        "rules": [],
        "size": {
            "value": "med"
        },
        "source": {
            "value": "Pathfinder #156: The Apocalypse Prophet"
        },
        "speed": {
            "value": 0
        },
        "stackGroup": {
            "value": ""
        },
        "strength": {
            "value": 0
        },
        "traits": {
            "custom": "",
            "rarity": {
                "value": "uncommon"
            },
            "value": [
                "evocation",
                "magical"
            ]
        },
        "usage": {
            "value": "held-in-one-hand"
        },
        "weight": {
            "value": "1"
        }
    },
    "effects": [],
    "flags": {},
    "img": "systems/pf2e/icons/equipment/shields/specific-shields/shield-of-the-unified-legion.webp",
    "name": "Shield of the Unified Legion",
    "type": "armor"
}
