{
    "_id": "SJaFNXiHGILhwEMk",
    "data": {
        "armor": {
            "value": 1
        },
        "armorType": {
            "value": "shield"
        },
        "baseItem": null,
        "brokenThreshold": {
            "value": 12
        },
        "bulkCapacity": {
            "value": ""
        },
        "check": {
            "value": 0
        },
        "collapsed": {
            "value": false
        },
        "containerId": {
            "value": null
        },
        "description": {
            "value": "<p>This oddly fuzzy buckler resembles the abdomen of a spider. Its defensive side is covered in fine hairs, and two small spinnerets protrude from the bottom of its rim. The spinnerets serve as <em>+2 greater striking shield spikes</em>.</p>\n<hr />\n<p><strong>Activate</strong> <span class=\"pf2-icon\">1</span> Command;</p>\n<p><strong>Frequency</strong> once per day;</p>\n<p><strong>Effect</strong> You animate the silkspinner's shield. Eight spider legs sprout from the shield's rim, granting you a climb Speed of 25 feet until the end of your next turn. Additionally, the spinnerets animate and produce silk for 1 minute. Successful shield bash Strikes made with the silkspinner's shield during this time entangle the target in silk. The target takes a -10-foot circumstance penalty to its Speeds for 1 round. If your Strike was a critical hit, the target becomes @Compendium[pf2e.conditionitems.Immobilized]{Immobilized} for 1 round instead. Regardless, the target can attempt to Escape (DC 30) to end the effect early.</p>\n<p>@Compendium[pf2e.equipment-effects.Effect: Silkspinner's Shield (Animated Strike)]{Effect: Silkspinner's Shield (Animated Strike)}</p>\n<p>@Compendium[pf2e.equipment-effects.Effect: Silkspinner's Shield (Climb)]{Effect: Silkspinner's Shield (Climb)}</p>\n<table class=\"pf2-table\">\n<thead>\n<tr>\n<th>Hardness</th>\n<th>HP</th>\n<th>BT</th>\n</tr>\n</thead>\n<tbody>\n<tr>\n<td>10</td>\n<td>60</td>\n<td>30</td>\n</tr>\n</tbody>\n</table>"
        },
        "dex": {
            "value": 0
        },
        "equipped": {
            "value": false
        },
        "equippedBulk": {
            "value": ""
        },
        "group": {
            "value": null
        },
        "hardness": {
            "value": 6
        },
        "hp": {
            "value": 24
        },
        "identification": {
            "misidentified": {},
            "status": "identified",
            "unidentified": {
                "data": {
                    "description": {
                        "value": ""
                    }
                },
                "img": "",
                "name": ""
            }
        },
        "invested": {
            "value": null
        },
        "level": {
            "value": 8
        },
        "maxHp": {
            "value": 24
        },
        "negateBulk": {
            "value": "0"
        },
        "potencyRune": {
            "value": 0
        },
        "preciousMaterial": {
            "value": null
        },
        "preciousMaterialGrade": {
            "value": null
        },
        "price": {
            "value": "450 gp"
        },
        "propertyRune1": {
            "value": ""
        },
        "propertyRune2": {
            "value": ""
        },
        "propertyRune3": {
            "value": ""
        },
        "propertyRune4": {
            "value": ""
        },
        "quantity": {
            "value": 1
        },
        "resiliencyRune": {
            "value": ""
        },
        "rules": [],
        "size": {
            "value": "med"
        },
        "source": {
            "value": "Pathfinder Lost Omens: The Grand Bazaar"
        },
        "speed": {
            "value": 0
        },
        "stackGroup": {
            "value": ""
        },
        "strength": {
            "value": 0
        },
        "traits": {
            "custom": "",
            "rarity": {
                "value": "uncommon"
            },
            "value": [
                "evocation",
                "light",
                "magical"
            ]
        },
        "usage": {
            "value": "held-in-one-hand"
        },
        "weight": {
            "value": "L"
        }
    },
    "effects": [],
    "flags": {},
    "img": "systems/pf2e/icons/default-icons/armor.svg",
    "name": "Silkspinner's Shield",
    "type": "armor"
}
