{
    "_id": "TYdFnzhhTlpUdtty",
    "data": {
        "baseItem": null,
        "brokenThreshold": {
            "value": 0
        },
        "bulkCapacity": {
            "value": ""
        },
        "collapsed": {
            "value": false
        },
        "containerId": {
            "value": null
        },
        "description": {
            "value": "<p>Even during the time of Thassilon, when the Order of the Starless Night still existed, starless scopes were uncommon. Today, this final scope might well be the last one to survive the passage of time.</p>\n<p>A starless scope is a handheld telescope crafted of silver and fine wood. When one peers at the sky through a starless scope, one always views the sky as if during a clear night. A starless scope adds a +2 item bonus to Astronomy Lore and Perception checks made to observe the skies, as it causes all celestial objects to dim when not directly observed, allowing its user to more easily observe their intended subject. It also grants a +2 item bonus to all Occultism checks made to Identify Magic.</p>\n<p>A starless scope also functions as a divine focus for worshipers of Desna. The magic of a starless scope requires a specially prepared lens to function, and it's possible to shatter the lens if you roll poorly when activating the starless scope.</p>\n<p>Without a functional lens, a starless scope doesn't function. You can replace a shattered lens with a functional lens by taking a two-action activity with the manipulate trait. If you know the formula for the starless scope, you can Craft a new lens with a DC 25 Crafting (master) check.</p>\n<hr />\n<p><strong>Activate</strong> <span class=\"pf2-icon\">R</span> Interact;</p>\n<p><strong>Frequency</strong> once per day;</p>\n<p><strong>Requirement</strong> you worship Desna;</p>\n<p><strong>Trigger</strong> you use the starless scope as a divine focus;</p>\n<p><strong>Effect</strong> You attempt to enhance the effects of a spell as you cast it by attempting a Religion check against the spell's DC (DC set by level and rarity).</p>\n<hr />\n<p><strong>Critical Success</strong> Any attack rolls you make with the spell gain a +2 status bonus, and any saving throw a foe makes against the spell takes a –2 status penalty. If you would normally cast the spell from a spell slot, and the spell is 5th level or lower, you don't spend the spell slot and cast the spell from the starless scope instead.</p>\n<p><strong>Success</strong> Any attack rolls you make with the spell gain a +1 status bonus, and any saving throw a foe makes against the spell takes a -1 status penalty.</p>\n<p><strong>Failure</strong> The spell is cast normally. Attempt a [[/r 1d20]]<span style=\"color: var(--body); font-size: 1em;\">{DC 11 flat check}</span><span style=\"color: var(--body); font-size: 1em;\">. On a failure, the starless scope's lens shatters.</span></p>\n<p><strong>Critical Failure</strong> The spell is disrupted and the starless scope's lens shatters.</p>\n<hr />\n<p><strong>Activate</strong> <span class=\"pf2-icon\">2</span> (abjuration, divine) Interact;</p>\n<p><strong>Frequency</strong> once per hour;</p>\n<p><strong>Effect</strong> You raise the scope to your eye and observe a creature within 30 feet. You can attempt to identify the creature by Recalling Knowledge. The starless scope adds a +2 item bonus to this check. If the creature is associated with the Dominion of the Black or the Elder Mythos, or is a creature whose actions have blasphemed against Desna, the creature must attempt a <span data-pf2-check=\"will\" data-pf2-traits=\"abjuration,divine\" data-pf2-label=\"Starless Scope Recall Knowledge DC\" data-pf2-dc=\"27\" data-pf2-show-dc=\"gm\">Will</span> save.</p>\n<hr />\n<p><strong>Critical Success</strong> The creature is unaffected, and the starless scope's lens shatters.</p>\n<p><strong>Success</strong> The creature shines with starlight for 1 round. During this time, the creature can't be concealed if it is visible. If it's invisible, it's concealed rather than being undetected. The creature takes a -1 status penalty to saving throws against divine effects while it shimmers with starlight.</p>\n<p><strong>Failure</strong> As success, but the creature also suffers an additional effect. An incorporeal creature loses its incorporeal trait as long as it shines with starlight. Any other creature becomes slowed 1 as long as it shines with starlight.</p>\n<p><strong>Critical Failure</strong> As failure, but the duration of the starlight is 1 minute, and the status penalty to saving throws against divine effects increases to -2.</p>"
        },
        "equipped": {
            "value": false
        },
        "equippedBulk": {
            "value": ""
        },
        "hardness": {
            "value": 0
        },
        "hp": {
            "value": 0
        },
        "identification": {
            "misidentified": {},
            "status": "identified",
            "unidentified": {
                "data": {
                    "description": {
                        "value": ""
                    }
                },
                "img": "",
                "name": ""
            }
        },
        "invested": {
            "value": null
        },
        "level": {
            "value": 9
        },
        "maxHp": {
            "value": 0
        },
        "negateBulk": {
            "value": "0"
        },
        "preciousMaterial": {
            "value": null
        },
        "preciousMaterialGrade": {
            "value": null
        },
        "price": {
            "value": "650 gp"
        },
        "quantity": {
            "value": 1
        },
        "rules": [
            {
                "key": "FlatModifier",
                "label": "Starless Scope",
                "selector": "astronomy-lore",
                "type": "item",
                "value": 2
            },
            {
                "key": "FlatModifier",
                "label": "Starless Scope",
                "predicate": {
                    "all": [
                        "action:identify-magic"
                    ]
                },
                "selector": "occultism",
                "type": "item",
                "value": 2
            },
            {
                "key": "ToggleProperty",
                "label": "Is astronomically observing the sky",
                "property": "flags.pf2e.rollOptions.all.observe-sky"
            },
            {
                "key": "FlatModifier",
                "label": "Starless Scope",
                "predicate": {
                    "all": [
                        "observe-sky"
                    ]
                },
                "selector": "perception",
                "type": "item",
                "value": 2
            }
        ],
        "size": {
            "value": "med"
        },
        "source": {
            "value": "Pathfinder Adventure: Malevolence"
        },
        "stackGroup": {
            "value": ""
        },
        "traits": {
            "custom": "",
            "rarity": {
                "value": "unique"
            },
            "value": [
                "divination",
                "divine",
                "magical"
            ]
        },
        "usage": {
            "value": "held-in-one-hand"
        },
        "weight": {
            "value": "1"
        }
    },
    "effects": [],
    "flags": {},
    "img": "systems/pf2e/icons/default-icons/equipment.svg",
    "name": "Starless Scope",
    "type": "equipment"
}
