{
    "_id": "xaWuuQoBJiMLzggR",
    "data": {
        "baseItem": null,
        "brokenThreshold": {
            "value": 0
        },
        "bulkCapacity": {
            "value": ""
        },
        "collapsed": {
            "value": false
        },
        "containerId": {
            "value": ""
        },
        "description": {
            "value": "<p>This brass censer dangles on a length of chain. Most <em>thuribles of revelation</em> are adorned with swirling Celestial text, though some are iron and feature Infernal or Abyssal text.</p>\n<p><strong>Activate</strong> <span class=\"pf2-icon\">D</span> Interact</p>\n<p><strong>Cost</strong> incense worth at least 5 gp</p>\n<p><strong>Effect</strong> You light the incense inside the censer, and it burns for 1 hour. During that time, as long you are holding the thurible, you gain a +1 item bonus to Religion checks, and any critical failure you roll when you Decipher Writing of a religious nature is a failure instead.</p>\n<p>@Compendium[pf2e.equipment-effects.Effect: Thurible of Revelation]{Effect: Thurible of Revelation}</p>"
        },
        "equipped": {
            "value": false
        },
        "equippedBulk": {
            "value": ""
        },
        "hardness": {
            "value": 0
        },
        "hp": {
            "value": 0
        },
        "identification": {
            "misidentified": {},
            "status": "identified",
            "unidentified": {
                "data": {
                    "description": {
                        "value": ""
                    }
                },
                "img": "",
                "name": ""
            }
        },
        "invested": {
            "value": false
        },
        "level": {
            "value": 3
        },
        "maxHp": {
            "value": 0
        },
        "negateBulk": {
            "value": ""
        },
        "preciousMaterial": {
            "value": ""
        },
        "preciousMaterialGrade": {
            "value": ""
        },
        "price": {
            "value": "55 gp"
        },
        "quantity": {
            "value": 1
        },
        "rules": [],
        "size": {
            "value": "med"
        },
        "source": {
            "value": "Pathfinder Core Rulebook"
        },
        "stackGroup": {
            "value": ""
        },
        "traits": {
            "custom": "",
            "rarity": {
                "value": "common"
            },
            "value": [
                "divination",
                "divine"
            ]
        },
        "usage": {
            "value": "held-in-one-hand"
        },
        "weight": {
            "value": "1"
        }
    },
    "effects": [],
    "flags": {},
    "img": "systems/pf2e/icons/equipment/held-items/thurible-of-revelation.webp",
    "name": "Thurible of Revelation (Lesser)",
    "type": "equipment"
}
