{
    "_id": "ecdfItOKsZVc4v0L",
    "data": {
        "attributes": {
            "ac": {
                "value": 21
            },
            "hardness": 0,
            "hasHealth": true,
            "hp": {
                "details": "",
                "max": 56,
                "temp": 0,
                "value": 56
            },
            "stealth": {
                "details": "<p>(Expert)</p>",
                "value": 18
            }
        },
        "creatureType": "",
        "details": {
            "description": "<p>The paintings suddenly start to bleed-Ioseff Xarwin from the left wrist and the other three Xarwins in a line cutting across their brows-as the viewers receive glimpses of the traumas the family endured.</p>",
            "disable": "<p>DC 25 Religion to exorcise one of the paintings (a critical success exorcises all of the paintings at once) or DC 21 Thievery to quickly cover a painting with a cloak or remove it and turn it to face the wall</p>",
            "isComplex": true,
            "level": {
                "value": 6
            },
            "reset": "<p>1 hour; putting Xarwin's ghost to rest destroys this haunt forever.</p>",
            "routine": "<p>(4 actions) The haunt uses up to 4 actions to afflict bleeding wounds on different creatures in area B22. These bloody wounds manifest where the target would have felt pain from Inflict Agony, regardless of whether they succeeded in resisting that effect or not. A creature can't be targeted more than once by this routine. Each creature affected must attempt a <span data-pf2-saving-throw=\"fortitude\" data-pf2-traits=\"emotion,fear,mental,necromancy,occult\" data-pf2-label=\"Xarwin Portraits DC\" data-pf2-dc=\"24\" data-pf2-show-dc=\"gm\">Fortitude</span> save.</p>\n<p>The haunt loses 1 action for each painting that's disabled or destroyed.</p>\n<hr />\n<p><strong>Critical Success</strong> The creature is unaffected.</p>\n<p><strong>Success</strong> The creature takes [[/r {1d8+3}[slashing]]]{1d8+3 slashing damage} and is @Compendium[pf2e.conditionitems.Frightened]{Frightened 1} by the conviction that these wounds were caused by a loved one.</p>\n<p><strong>Failure</strong> As success, but [[/r {2d8+6}[slashing]]]{2d8+6 slashing damage}, [[/r 1d6 #persistent bleed]] @Compendium[pf2e.conditionitems.Persistent Damage]{Persistent Bleed Damage}, and @Compendium[pf2e.conditionitems.Frightened]{Frightened 2}.</p>\n<p><strong>Critical Failure</strong> As failure, but [[/r {4d8+12}[slashing]]]{4d8+12 slashing damage}, [[/r 2d6 #persistent bleed]] @Compendium[pf2e.conditionitems.Persistent Damage]{Persistent Bleed Damage}, and @Compendium[pf2e.conditionitems.Frightened]{Frightened 3}. Increase the value of the character's malevolence condition by 1.</p>"
        },
        "saves": {
            "fortitude": {
                "saveDetail": "",
                "value": 17
            },
            "reflex": {
                "saveDetail": "",
                "value": 11
            },
            "will": {
                "saveDetail": "",
                "value": 18
            }
        },
        "source": {
            "value": "Pathfinder Adventure: Malevolence"
        },
        "statusEffects": [],
        "traits": {
            "ci": [],
            "di": {
                "custom": "",
                "selected": {},
                "value": [
                    "precision",
                    "critical-hits",
                    "object-immunities"
                ]
            },
            "dr": [],
            "dv": [
                {
                    "label": "Positive",
                    "type": "positive",
                    "value": "5"
                }
            ],
            "rarity": {
                "value": "common"
            },
            "size": {
                "value": "med"
            },
            "traits": {
                "custom": "",
                "value": [
                    "haunt"
                ]
            }
        }
    },
    "effects": [],
    "flags": {},
    "img": "systems/pf2e/icons/default-icons/hazard.svg",
    "items": [
        {
            "_id": "b68UvpyZkS1b4VZG",
            "data": {
                "actionCategory": {
                    "value": "offensive"
                },
                "actionType": {
                    "value": "reaction"
                },
                "actions": {
                    "value": null
                },
                "description": {
                    "value": "<p data-visibility=\"gm\"><strong>Trigger</strong> At least four characters are in area B22, or someone touches or attempts to damage a painting;</p>\n<p><strong>Effect</strong> All characters in area B22 must attempt a <span data-pf2-check=\"will\" data-pf2-traits=\"necromancy,occult\" data-pf2-label=\"Inflict Agony DC\" data-pf2-dc=\"27\" data-pf2-show-dc=\"gm\">Will</span> save to resist sudden, agonizing pain. <em data-visibility=\"gm\"> The PC with the highest Intelligence feels this pain in the left wrist, while the others feel it in their heads)</em> On a failure, a PC becomes @Compendium[pf2e.conditionitems.Sickened]{Sickened 1} from the agony (@Compendium[pf2e.conditionitems.Sickened]{Sickened 2} on a critical failure). The haunt then rolls initiative.</p>"
                },
                "requirements": {
                    "value": ""
                },
                "rules": [],
                "slug": null,
                "source": {
                    "value": ""
                },
                "traits": {
                    "custom": "",
                    "rarity": {
                        "value": "common"
                    },
                    "value": [
                        "necromancy",
                        "occult"
                    ]
                },
                "trigger": {
                    "value": ""
                },
                "weapon": {
                    "value": ""
                }
            },
            "effects": [],
            "flags": {},
            "img": "systems/pf2e/icons/actions/Reaction.webp",
            "name": "Inflict Agony",
            "sort": 0,
            "type": "action"
        }
    ],
    "name": "Xarwin Portraits",
    "token": {
        "disposition": 0,
        "height": 1,
        "img": "systems/pf2e/icons/default-icons/hazard.svg",
        "name": "Xarwin Portraits",
        "width": 1
    },
    "type": "hazard"
}
