{
    "_id": "3KB7j8D0eMdn8Sol",
    "data": {
        "attributes": {
            "ac": {
                "value": 0
            },
            "hardness": 0,
            "hasHealth": true,
            "hp": {
                "details": "",
                "max": 0,
                "temp": 0,
                "value": 0
            },
            "stealth": {
                "details": "<p>(Untrained)</p>",
                "value": 0
            }
        },
        "creatureType": "",
        "details": {
            "description": "<p>Glowing red Daemonic runes blaze when blood falls on them.</p>",
            "disable": "<p><span data-pf2-check=\"thievery\" data-pf2-label=\"Scratch Out Runes DC\" data-pf2-dc=\"18\" data-pf2-show-dc=\"gm\">Thievery</span> (untrained) to scratch out enough runes to disrupt the magic or <em>@Compendium[pf2e.spells-srd.Dispel Magic]{Dispel Magic}</em> (1st level; counteract DC 15) to counteract the runes.</p>",
            "isComplex": false,
            "level": {
                "value": -1
            },
            "reset": "<p>The hazard resets at the beginning of each round until it is disabled</p>",
            "routine": ""
        },
        "saves": {
            "fortitude": {
                "saveDetail": "",
                "value": 0
            },
            "reflex": {
                "saveDetail": "",
                "value": 0
            },
            "will": {
                "saveDetail": "",
                "value": 0
            }
        },
        "source": {
            "value": "Pathfinder Society Scenario 2-21: In Pursuit of Water"
        },
        "statusEffects": [],
        "traits": {
            "ci": [],
            "di": {
                "custom": "",
                "selected": {},
                "value": []
            },
            "dr": [],
            "dv": [],
            "rarity": {
                "value": "unique"
            },
            "size": {
                "value": "med"
            },
            "traits": {
                "custom": "",
                "value": [
                    "magical",
                    "necromancy",
                    "trap"
                ]
            }
        }
    },
    "effects": [],
    "flags": {},
    "img": "systems/pf2e/icons/default-icons/hazard.svg",
    "items": [
        {
            "_id": "CPjKiSyEd55MmXXw",
            "data": {
                "actionCategory": {
                    "value": "offensive"
                },
                "actionType": {
                    "value": "free"
                },
                "actions": {
                    "value": 1
                },
                "description": {
                    "value": "<p data-visibility=\"gm\"><strong>Trigger</strong> A creature is reduced to 0 HP in the magic circle;</p>\n<p><strong>Effect</strong> Sezruth (the aghash div in area <strong>C</strong>) gains 1 Blood Point.</p>"
                },
                "requirements": {
                    "value": ""
                },
                "rules": [],
                "slug": null,
                "source": {
                    "value": ""
                },
                "traits": {
                    "custom": "",
                    "rarity": {
                        "value": "common"
                    },
                    "value": [
                        "necromancy"
                    ]
                },
                "trigger": {
                    "value": ""
                },
                "weapon": {
                    "value": ""
                }
            },
            "effects": [],
            "flags": {},
            "img": "systems/pf2e/icons/actions/FreeAction.webp",
            "name": "Siphon Blood",
            "sort": 0,
            "type": "action"
        }
    ],
    "name": "Empowered Blood (1-2)",
    "token": {
        "disposition": 0,
        "height": 1,
        "img": "systems/pf2e/icons/default-icons/hazard.svg",
        "name": "Empowered Blood",
        "width": 1
    },
    "type": "hazard"
}
