{
    "_id": "xIT2yHlwILLc5hgw",
    "data": {
        "abilities": {
            "cha": {
                "mod": -1
            },
            "con": {
                "mod": 4
            },
            "dex": {
                "mod": 6
            },
            "int": {
                "mod": 8
            },
            "str": {
                "mod": 5
            },
            "wis": {
                "mod": 6
            }
        },
        "attributes": {
            "ac": {
                "details": "",
                "value": 33
            },
            "allSaves": {
                "value": null
            },
            "hp": {
                "details": "Regeneration 10 (deactivated by piercing)",
                "max": 220,
                "temp": 0,
                "value": 220
            },
            "initiative": {
                "ability": "perception"
            },
            "perception": {
                "value": 23
            },
            "shield": {
                "ac": 2,
                "brokenThreshold": 0,
                "hardness": 0,
                "max": 0,
                "value": 0
            },
            "speed": {
                "otherSpeeds": [],
                "value": "25"
            }
        },
        "details": {
            "alignment": {
                "value": "NE"
            },
            "blurb": "",
            "creatureType": "",
            "level": {
                "value": 13
            },
            "privateNotes": "",
            "publicNotes": "<p>Teleportation magic can prove a difficult undertaking, even for experienced spellcasters. It requires precise calculation and timing, knowledge of the intended destination, and meticulous control over surging conjuration magics. A mistake in even the most minute element of such a spell can lead to disastrous results for those involved. When a particularly powerful spellcaster makes an error of this kind, either through arrogance or simple misjudgment, they might transform into an amalgamite.</p>\n<p>A mass of flesh and misaligned limbs, an amalgamite is the warped body of a former spellcaster, sometimes joined with another version of itself to incorporate additional limbs or other irregularities. They're still alive, but they have become aberrants mentally and physically, with only the vaguest memories of their previous existence, which makes them a dangerous and bewildering foe. Their weird, warped anatomy constantly shifts and regrows, allowing the creatures to shrug off physical blows save those that pierce through its flesh and into its core being.</p>\n<p>The magical residue of an amalgamite's creation radiates from it, seeping into and destabilizing any living beings that get too close. Infected creatures then further spread the amalgamite's aura among larger groups of allies and foes alike. The amalgamite uses this power to manipulate and confuse their enemies, whom they can teleport into traps, force into confrontations with other enemies, or draw close into striking range with their own odd appendages.</p>",
            "source": {
                "value": "Pathfinder Bestiary 3"
            }
        },
        "resources": {
            "focus": {
                "max": 0,
                "value": 0
            }
        },
        "saves": {
            "fortitude": {
                "saveDetail": "",
                "value": 22
            },
            "reflex": {
                "saveDetail": "",
                "value": 22
            },
            "will": {
                "saveDetail": "",
                "value": 26
            }
        },
        "traits": {
            "attitude": {
                "value": "hostile"
            },
            "ci": [],
            "di": {
                "custom": "",
                "value": [
                    "controlled",
                    "mental"
                ]
            },
            "dr": [
                {
                    "exceptions": "",
                    "label": "Bludgeoning",
                    "type": "bludgeoning",
                    "value": 10
                },
                {
                    "exceptions": "",
                    "label": "Slashing",
                    "type": "slashing",
                    "value": 10
                }
            ],
            "dv": [
                {
                    "exceptions": "",
                    "label": "Piercing",
                    "type": "piercing",
                    "value": 10
                }
            ],
            "languages": {
                "custom": "",
                "selected": [],
                "value": [
                    "aklo",
                    "common",
                    "draconic"
                ]
            },
            "rarity": {
                "value": "rare"
            },
            "senses": {
                "value": "low-light vision"
            },
            "size": {
                "value": "med"
            },
            "traits": {
                "custom": "",
                "value": [
                    "aberration"
                ]
            }
        }
    },
    "effects": [],
    "flags": {},
    "img": "systems/pf2e/icons/default-icons/npc.svg",
    "items": [
        {
            "_id": "LweJMFP6riJnCUBv",
            "data": {
                "ability": {
                    "value": ""
                },
                "autoHeightenLevel": {
                    "value": null
                },
                "description": {
                    "value": ""
                },
                "displayLevels": {},
                "item": {
                    "value": 0
                },
                "prepared": {
                    "value": "innate"
                },
                "proficiency": {
                    "value": 0
                },
                "rules": [],
                "showSlotlessLevels": {
                    "value": true
                },
                "showUnpreparedSpells": {
                    "value": false
                },
                "signatureSpells": {
                    "value": []
                },
                "slots": {
                    "slot0": {
                        "max": 0,
                        "prepared": {},
                        "value": 0
                    },
                    "slot1": {
                        "max": 0,
                        "prepared": {},
                        "value": 0
                    },
                    "slot10": {
                        "max": 0,
                        "prepared": {},
                        "value": 0
                    },
                    "slot11": {
                        "max": 0,
                        "prepared": {},
                        "value": 0
                    },
                    "slot2": {
                        "max": 0,
                        "prepared": {},
                        "value": 0
                    },
                    "slot3": {
                        "max": 0,
                        "prepared": {},
                        "value": 0
                    },
                    "slot4": {
                        "max": 2,
                        "prepared": {
                            "0": {
                                "id": "RZxgjSup1dFz04Pw"
                            },
                            "1": {
                                "id": "RZxgjSup1dFz04Pw"
                            }
                        },
                        "value": 2
                    },
                    "slot5": {
                        "max": 0,
                        "prepared": {},
                        "value": 0
                    },
                    "slot6": {
                        "max": 0,
                        "prepared": {},
                        "value": 0
                    },
                    "slot7": {
                        "max": 2,
                        "prepared": {
                            "0": {
                                "id": "47ZPsIItfkAPFAJ0"
                            },
                            "1": {
                                "id": "jOiwEgFiWCqLZyIJ"
                            }
                        },
                        "value": 2
                    },
                    "slot8": {
                        "max": 0,
                        "prepared": {},
                        "value": 0
                    },
                    "slot9": {
                        "max": 0,
                        "prepared": {},
                        "value": 0
                    }
                },
                "slug": null,
                "source": {
                    "value": ""
                },
                "spelldc": {
                    "dc": 33,
                    "item": 0,
                    "mod": 0,
                    "value": 23
                },
                "tradition": {
                    "value": "divine"
                },
                "traits": {
                    "custom": "",
                    "rarity": {
                        "value": "common"
                    },
                    "value": []
                }
            },
            "effects": [],
            "flags": {},
            "img": "systems/pf2e/icons/default-icons/spellcastingEntry.svg",
            "name": "Occult Innate Spells",
            "sort": 100000,
            "type": "spellcastingEntry"
        },
        {
            "_id": "47ZPsIItfkAPFAJ0",
            "data": {
                "ability": {
                    "value": ""
                },
                "area": {
                    "areaType": "",
                    "value": null
                },
                "areasize": {
                    "value": ""
                },
                "autoHeightenLevel": {
                    "value": null
                },
                "category": {
                    "value": "spell"
                },
                "components": {
                    "focus": false,
                    "material": false,
                    "somatic": true,
                    "verbal": true
                },
                "cost": {
                    "value": ""
                },
                "damage": {
                    "value": {}
                },
                "description": {
                    "value": "<p>You travel to the Ethereal Plane, which overlaps the Material Plane. Material Plane creatures can't see you, and you can move through things on the Material Plane. You move at half your normal Speeds, but can move in any direction (including up and down). You can see onto the Material Plane within a radius of 60 feet; it is gray, hazy, and @Compendium[pf2e.conditionitems.Concealed]{Concealed} from you. You can't affect the Material Plane, and you can't be affected by the Material Plane except by force effects and abjurations originating there. When the spell ends, you return to the Material Plane. If you're in the air, you fall (unless you can fly), and if you're inside an object, you're pushed into the nearest open space and take 1d6 damage per 5 feet you were pushed. If you cast this spell when not on the Material Plane, it is lost.</p>\n<hr />\n<p><strong>Heightened (9th)</strong> You can target up to five additional willing creatures at a range of 30 feet. The duration is up to 10 minutes.</p>"
                },
                "duration": {
                    "value": "sustained up to 1 minute"
                },
                "hasCounteractCheck": {
                    "value": false
                },
                "level": {
                    "value": 7
                },
                "location": {
                    "value": "LweJMFP6riJnCUBv"
                },
                "materials": {
                    "value": ""
                },
                "prepared": {
                    "value": ""
                },
                "primarycheck": {
                    "value": ""
                },
                "range": {
                    "value": ""
                },
                "rules": [],
                "save": {
                    "basic": "",
                    "value": ""
                },
                "school": {
                    "value": "conjuration"
                },
                "secondarycasters": {
                    "value": ""
                },
                "secondarycheck": {
                    "value": ""
                },
                "slug": "ethereal-jaunt",
                "source": {
                    "value": ""
                },
                "spellType": {
                    "value": "utility"
                },
                "sustained": {
                    "value": false
                },
                "target": {
                    "value": ""
                },
                "time": {
                    "value": "2"
                },
                "traditions": {
                    "value": [
                        "divine",
                        "occult"
                    ]
                },
                "traits": {
                    "custom": "",
                    "rarity": {
                        "value": "uncommon"
                    },
                    "value": [
                        "teleportation"
                    ]
                }
            },
            "effects": [],
            "flags": {
                "core": {
                    "sourceId": "Compendium.pf2e.spells-srd.D2nPKbIS67m9199U"
                }
            },
            "img": "systems/pf2e/icons/spells/etheral-jaunt.webp",
            "name": "Ethereal Jaunt",
            "sort": 200000,
            "type": "spell"
        },
        {
            "_id": "jOiwEgFiWCqLZyIJ",
            "data": {
                "ability": {
                    "value": ""
                },
                "area": {
                    "areaType": "",
                    "value": null
                },
                "areasize": {
                    "value": ""
                },
                "autoHeightenLevel": {
                    "value": null
                },
                "category": {
                    "value": "spell"
                },
                "components": {
                    "focus": false,
                    "material": false,
                    "somatic": true,
                    "verbal": true
                },
                "cost": {
                    "value": ""
                },
                "damage": {
                    "value": {}
                },
                "description": {
                    "value": "<p>You scramble a creature's mental faculties and sensory input. The target must attempt a Will saving throw. Regardless of the result of that save, the target is then temporarily immune for 10 minutes. Warp mind's effects happen instantly, so dispel magic and other effects that counteract spells can't counteract them. However, alter reality, miracle, primal phenomenon, restoration, or wish can still counteract the effects.</p>\n<hr />\n<p><strong>Critical Success</strong> The target is unaffected.</p>\n<p><strong>Success</strong> The target spends the first action on its next turn with the @Compendium[pf2e.conditionitems.Confused]{Confused} condition.</p>\n<p><strong>Failure</strong> The target is Confused for 1 minute.</p>\n<p><strong>Critical Failure</strong> The target is Confused permanently.</p>"
                },
                "duration": {
                    "value": ""
                },
                "hasCounteractCheck": {
                    "value": true
                },
                "level": {
                    "value": 7
                },
                "location": {
                    "value": "LweJMFP6riJnCUBv"
                },
                "materials": {
                    "value": ""
                },
                "prepared": {
                    "value": ""
                },
                "primarycheck": {
                    "value": ""
                },
                "range": {
                    "value": "120 feet"
                },
                "rules": [],
                "save": {
                    "basic": "",
                    "value": "will"
                },
                "school": {
                    "value": "enchantment"
                },
                "secondarycasters": {
                    "value": ""
                },
                "secondarycheck": {
                    "value": ""
                },
                "slug": "warp-mind",
                "source": {
                    "value": ""
                },
                "spellType": {
                    "value": "save"
                },
                "sustained": {
                    "value": false
                },
                "target": {
                    "value": "1 creature"
                },
                "time": {
                    "value": "2"
                },
                "traditions": {
                    "value": [
                        "arcane",
                        "occult"
                    ]
                },
                "traits": {
                    "custom": "",
                    "rarity": {
                        "value": "common"
                    },
                    "value": [
                        "emotion",
                        "incapacitation",
                        "mental"
                    ]
                }
            },
            "effects": [],
            "flags": {
                "core": {
                    "sourceId": "Compendium.pf2e.spells-srd.8kJbiBEjMWG4VUjs"
                }
            },
            "img": "systems/pf2e/icons/spells/warp-mind.webp",
            "name": "Warp Mind",
            "sort": 300000,
            "type": "spell"
        },
        {
            "_id": "RZxgjSup1dFz04Pw",
            "data": {
                "ability": {
                    "value": ""
                },
                "area": {
                    "areaType": "",
                    "value": null
                },
                "areasize": {
                    "value": ""
                },
                "autoHeightenLevel": {
                    "value": null
                },
                "category": {
                    "value": "spell"
                },
                "components": {
                    "focus": false,
                    "material": false,
                    "somatic": true,
                    "verbal": true
                },
                "cost": {
                    "value": ""
                },
                "damage": {
                    "value": {}
                },
                "description": {
                    "value": "<p>You blink quickly between the Material Plane and the Ethereal Plane. You gain resistance 5 to all damage (except force). You can Sustain the Spell to vanish and reappear 10 feet away in a random direction determined by the GM; the movement doesn't trigger reactions. At the end of your turn, you vanish and reappear as above.</p>\n<hr />\n<p><strong>Heightened (+2)</strong> The resistance increases by 3.</p>"
                },
                "duration": {
                    "value": "1 minute"
                },
                "hasCounteractCheck": {
                    "value": false
                },
                "level": {
                    "value": 4
                },
                "location": {
                    "value": "LweJMFP6riJnCUBv"
                },
                "materials": {
                    "value": ""
                },
                "prepared": {
                    "value": ""
                },
                "primarycheck": {
                    "value": ""
                },
                "range": {
                    "value": ""
                },
                "rules": [],
                "save": {
                    "basic": "",
                    "value": ""
                },
                "school": {
                    "value": "conjuration"
                },
                "secondarycasters": {
                    "value": ""
                },
                "secondarycheck": {
                    "value": ""
                },
                "slug": "blink",
                "source": {
                    "value": ""
                },
                "spellType": {
                    "value": "utility"
                },
                "sustained": {
                    "value": false
                },
                "target": {
                    "value": ""
                },
                "time": {
                    "value": "2"
                },
                "traditions": {
                    "value": [
                        "arcane",
                        "occult"
                    ]
                },
                "traits": {
                    "custom": "",
                    "rarity": {
                        "value": "common"
                    },
                    "value": [
                        "teleportation"
                    ]
                }
            },
            "effects": [],
            "flags": {
                "core": {
                    "sourceId": "Compendium.pf2e.spells-srd.zR67Rt3UMHKC5evy"
                }
            },
            "img": "systems/pf2e/icons/spells/blink.webp",
            "name": "Blink",
            "sort": 400000,
            "type": "spell"
        },
        {
            "_id": "REbcJzGp6sT7jOuZ",
            "data": {
                "attack": {
                    "value": ""
                },
                "attackEffects": {
                    "custom": "",
                    "value": []
                },
                "bonus": {
                    "value": 24
                },
                "damageRolls": {
                    "0": {
                        "damage": "3d10+11",
                        "damageType": "bludgeoning"
                    }
                },
                "description": {
                    "value": ""
                },
                "rules": [],
                "slug": null,
                "source": {
                    "value": ""
                },
                "traits": {
                    "custom": "",
                    "rarity": {
                        "value": "common"
                    },
                    "value": []
                },
                "weaponType": {
                    "value": "melee"
                }
            },
            "effects": [],
            "flags": {},
            "img": "systems/pf2e/icons/default-icons/melee.svg",
            "name": "Limb",
            "sort": 500000,
            "type": "melee"
        },
        {
            "_id": "6Jhrih75LDb7Tovl",
            "data": {
                "attack": {
                    "value": ""
                },
                "attackEffects": {
                    "custom": "",
                    "value": []
                },
                "bonus": {
                    "value": 27
                },
                "damageRolls": {
                    "0": {
                        "damage": "3d8+8",
                        "damageType": "force"
                    }
                },
                "description": {
                    "value": ""
                },
                "rules": [],
                "slug": null,
                "source": {
                    "value": ""
                },
                "traits": {
                    "custom": "",
                    "rarity": {
                        "value": "common"
                    },
                    "value": [
                        "deadly-2d8",
                        "magical",
                        "range-increment-100"
                    ]
                },
                "weaponType": {
                    "value": "ranged"
                }
            },
            "effects": [],
            "flags": {},
            "img": "systems/pf2e/icons/default-icons/melee.svg",
            "name": "Warping Ray",
            "sort": 600000,
            "type": "melee"
        },
        {
            "_id": "hxabKjNc4ke5DG05",
            "data": {
                "actionCategory": {
                    "value": "interaction"
                },
                "actionType": {
                    "value": "passive"
                },
                "actions": {
                    "value": null
                },
                "description": {
                    "value": "<p>@Localize[PF2E.NPC.Abilities.Glossary.LowLightVision]</p>"
                },
                "requirements": {
                    "value": ""
                },
                "rules": [],
                "slug": "low-light-vision",
                "source": {
                    "value": ""
                },
                "traits": {
                    "custom": "",
                    "rarity": {
                        "value": "common"
                    },
                    "value": []
                },
                "trigger": {
                    "value": ""
                },
                "weapon": {
                    "value": ""
                }
            },
            "effects": [],
            "flags": {
                "core": {
                    "sourceId": "Compendium.pf2e.bestiary-ability-glossary-srd.fFu2sZz4KB01fVRc"
                }
            },
            "img": "systems/pf2e/icons/default-icons/action.svg",
            "name": "Low-Light Vision",
            "sort": 700000,
            "type": "action"
        },
        {
            "_id": "rGx3BT8mbRKRUpA2",
            "data": {
                "actionCategory": {
                    "value": "defensive"
                },
                "actionType": {
                    "value": "passive"
                },
                "actions": {
                    "value": null
                },
                "description": {
                    "value": "<p>@Template[type:emanation|distance:40]{40 Feet} @Compendium[pf2e.bestiary-ability-glossary-srd.Aura]{Aura}</p>\n<p>A creature that begins its turn within the area feels its body begin to stretch and must succeed at a <span data-pf2-check=\"fortitude\" data-pf2-dc=\"33\" data-pf2-traits=\"aura,conjuration\" data-pf2-label=\"Destabilizing Field DC\" data-pf2-show-dc=\"gm\">Fortitude</span> save or become destabilized.</p>\n<p>A destabilized creature emits a 10-foot destabilizing field aura and becomes @Compendium[pf2e.conditionitems.Sickened]{Sickened 1}. The destabilization ends when the creature is no longer sickened.</p>\n<p>A creature that succeeds at its saving throw against the aura is temporarily immune to all destabilizing fields for 1 minute.</p>"
                },
                "requirements": {
                    "value": ""
                },
                "rules": [],
                "slug": null,
                "source": {
                    "value": ""
                },
                "traits": {
                    "custom": "",
                    "rarity": {
                        "value": "common"
                    },
                    "value": [
                        "aura",
                        "conjuration"
                    ]
                },
                "trigger": {
                    "value": ""
                },
                "weapon": {
                    "value": ""
                }
            },
            "effects": [],
            "flags": {},
            "img": "systems/pf2e/icons/default-icons/mystery-man.svg",
            "name": "Destabilizing Field",
            "sort": 800000,
            "type": "action"
        },
        {
            "_id": "bpvnWZi8sukcfy9H",
            "data": {
                "actionCategory": {
                    "value": "defensive"
                },
                "actionType": {
                    "value": "reaction"
                },
                "actions": {
                    "value": null
                },
                "description": {
                    "value": "<p data-visibility=\"gm\"><strong>Trigger</strong> The amalgamite is hit by a Strike;</p>\n<p><strong>Effect</strong> The amalgamite Repositions itself or Transposes itself with another creature. If the amalgamite successfully changes its location, it and any Transposed creature take half damage from the triggering Strike.</p>"
                },
                "requirements": {
                    "value": ""
                },
                "rules": [],
                "slug": null,
                "source": {
                    "value": ""
                },
                "traits": {
                    "custom": "",
                    "rarity": {
                        "value": "common"
                    },
                    "value": []
                },
                "trigger": {
                    "value": ""
                },
                "weapon": {
                    "value": ""
                }
            },
            "effects": [],
            "flags": {},
            "img": "systems/pf2e/icons/actions/Reaction.webp",
            "name": "Displace",
            "sort": 900000,
            "type": "action"
        },
        {
            "_id": "uk6rcYyQE6tQT1Yy",
            "data": {
                "actionCategory": {
                    "value": "defensive"
                },
                "actionType": {
                    "value": "passive"
                },
                "actions": {
                    "value": null
                },
                "description": {
                    "value": "<p>@Localize[PF2E.NPC.Abilities.Glossary.Regeneration]</p>"
                },
                "requirements": {
                    "value": ""
                },
                "rules": [],
                "slug": "regeneration",
                "source": {
                    "value": ""
                },
                "traits": {
                    "custom": "",
                    "rarity": {
                        "value": "common"
                    },
                    "value": []
                },
                "trigger": {
                    "value": ""
                },
                "weapon": {
                    "value": ""
                }
            },
            "effects": [],
            "flags": {
                "core": {
                    "sourceId": "Compendium.pf2e.bestiary-ability-glossary-srd.lR9R5Vld8Eu2Dha5"
                }
            },
            "img": "systems/pf2e/icons/default-icons/mystery-man.svg",
            "name": "Regeneration 10 (Deactivated by Piercing)",
            "sort": 1000000,
            "type": "action"
        },
        {
            "_id": "dwH6nJY0Yb3I4jsA",
            "data": {
                "actionCategory": {
                    "value": "offensive"
                },
                "actionType": {
                    "value": "action"
                },
                "actions": {
                    "value": 2
                },
                "description": {
                    "value": "<p>The amalgamite teleports into an unoccupied space it can see within 50 feet.</p>"
                },
                "requirements": {
                    "value": ""
                },
                "rules": [],
                "slug": null,
                "source": {
                    "value": ""
                },
                "traits": {
                    "custom": "",
                    "rarity": {
                        "value": "common"
                    },
                    "value": [
                        "concentrate",
                        "conjuration",
                        "occult",
                        "teleportation"
                    ]
                },
                "trigger": {
                    "value": ""
                },
                "weapon": {
                    "value": ""
                }
            },
            "effects": [],
            "flags": {},
            "img": "systems/pf2e/icons/actions/TwoActions.webp",
            "name": "Reposition",
            "sort": 1100000,
            "type": "action"
        },
        {
            "_id": "XBz2toYQ5LlpBAkp",
            "data": {
                "actionCategory": {
                    "value": "offensive"
                },
                "actionType": {
                    "value": "action"
                },
                "actions": {
                    "value": 2
                },
                "description": {
                    "value": "<p>The amalgamite chooses up to two destabilized creatures they can see within 50 feet and swaps their positions, or moves a single such creature to an unoccupied space they can see within range. If the amalgamite chooses two creatures, they can choose their self as one of these creatures, but both targets must be the same size.</p>\n<p>An unwilling creature can attempt a <span data-pf2-check=\"will\" data-pf2-dc=\"33\" data-pf2-traits=\"conjuration,occult,teleportation\" data-pf2-label=\"Transpose DC\" data-pf2-show-dc=\"gm\">Will</span> save. If either target succeeds at this saving throw, both are unaffected.</p>"
                },
                "requirements": {
                    "value": ""
                },
                "rules": [],
                "slug": null,
                "source": {
                    "value": ""
                },
                "traits": {
                    "custom": "",
                    "rarity": {
                        "value": "common"
                    },
                    "value": [
                        "conjuration",
                        "occult",
                        "teleportation"
                    ]
                },
                "trigger": {
                    "value": ""
                },
                "weapon": {
                    "value": ""
                }
            },
            "effects": [],
            "flags": {},
            "img": "systems/pf2e/icons/actions/TwoActions.webp",
            "name": "Transpose",
            "sort": 1200000,
            "type": "action"
        },
        {
            "_id": "eqbY1DjwhWlM25Sc",
            "data": {
                "description": {
                    "value": ""
                },
                "item": {
                    "value": 0
                },
                "mod": {
                    "value": 27
                },
                "proficient": {
                    "value": 0
                },
                "rules": [],
                "slug": null,
                "source": {
                    "value": ""
                },
                "traits": {
                    "custom": "",
                    "rarity": {
                        "value": "common"
                    },
                    "value": []
                }
            },
            "effects": [],
            "flags": {},
            "img": "systems/pf2e/icons/default-icons/lore.svg",
            "name": "Arcana",
            "sort": 1300000,
            "type": "lore"
        },
        {
            "_id": "LRHsTTqlHF10M9wL",
            "data": {
                "description": {
                    "value": ""
                },
                "item": {
                    "value": 0
                },
                "mod": {
                    "value": 22
                },
                "proficient": {
                    "value": 0
                },
                "rules": [],
                "slug": null,
                "source": {
                    "value": ""
                },
                "traits": {
                    "custom": "",
                    "rarity": {
                        "value": "common"
                    },
                    "value": []
                }
            },
            "effects": [],
            "flags": {},
            "img": "systems/pf2e/icons/default-icons/lore.svg",
            "name": "Athletics",
            "sort": 1400000,
            "type": "lore"
        },
        {
            "_id": "xFzHJGL72aPpRLgB",
            "data": {
                "description": {
                    "value": ""
                },
                "item": {
                    "value": 0
                },
                "mod": {
                    "value": 27
                },
                "proficient": {
                    "value": 0
                },
                "rules": [],
                "slug": null,
                "source": {
                    "value": ""
                },
                "traits": {
                    "custom": "",
                    "rarity": {
                        "value": "common"
                    },
                    "value": []
                }
            },
            "effects": [],
            "flags": {},
            "img": "systems/pf2e/icons/default-icons/lore.svg",
            "name": "Lore (any one subcategory)",
            "sort": 1500000,
            "type": "lore"
        },
        {
            "_id": "btlN7u3Jgw1MwMVk",
            "data": {
                "description": {
                    "value": ""
                },
                "item": {
                    "value": 0
                },
                "mod": {
                    "value": 27
                },
                "proficient": {
                    "value": 0
                },
                "rules": [],
                "slug": null,
                "source": {
                    "value": ""
                },
                "traits": {
                    "custom": "",
                    "rarity": {
                        "value": "common"
                    },
                    "value": []
                }
            },
            "effects": [],
            "flags": {},
            "img": "systems/pf2e/icons/default-icons/lore.svg",
            "name": "Occultism",
            "sort": 1600000,
            "type": "lore"
        }
    ],
    "name": "Amalgamite",
    "token": {
        "disposition": -1,
        "height": 1,
        "img": "systems/pf2e/icons/default-icons/npc.svg",
        "name": "Amalgamite",
        "width": 1
    },
    "type": "npc"
}
