{
    "_id": "DlHTe9jLssEELY6a",
    "data": {
        "actionCategory": {
            "value": "offensive"
        },
        "actionType": {
            "value": "passive"
        },
        "actions": {
            "value": null
        },
        "description": {
            "value": "<p>A divine warden whose patron deity has any alignment components gains <em>@Compendium[pf2e.spells-srd.Divine Lance]{Divine Lance}</em> as an innate cantrip. A divine warden with a neutral patron deity instead gains <em>@Compendium[pf2e.spells-srd.Daze]{Daze}</em> as an innate cantrip.</p>"
        },
        "requirements": {
            "value": ""
        },
        "rules": [],
        "source": {
            "value": "Pathfinder Bestiary 3"
        },
        "traits": {
            "custom": "",
            "rarity": {
                "value": "common"
            },
            "value": []
        },
        "trigger": {
            "value": ""
        },
        "weapon": {
            "value": ""
        }
    },
    "effects": [],
    "flags": {},
    "img": "systems/pf2e/icons/actions/Passive.webp",
    "name": "(Divine Warden) Divine Innate Spells",
    "type": "action"
}
