{
    "_id": "wlhvSroB6r5cSd8Y",
    "data": {
        "actionCategory": {
            "value": "offensive"
        },
        "actionType": {
            "value": "passive"
        },
        "actions": {
            "value": null
        },
        "description": {
            "value": "<p>The barghest grows elongated fangs that seep poison. Its jaws deal [[/r 1d6[poison]]]{1d6 additional poison damage} and [[/r {1d6}[persistent,poison]]] @Compendium[pf2e.conditionitems.Persistent Damage]{Persistent Poison Damage}.</p>"
        },
        "requirements": {
            "value": ""
        },
        "rules": [
            {
                "damageType": "poison",
                "diceNumber": 1,
                "dieSize": "d6",
                "key": "DamageDice",
                "selector": "jaws-damage",
                "traits": [
                    "poison"
                ]
            },
            {
                "key": "Note",
                "selector": "jaws-damage",
                "text": "<p class='compact-text'><strong>{item|name}</strong> The barghest grows elongated fangs that seep poison. Its jaws deal 1d6 additional poison damage and [[/r {1d6}[persistent,poison]]] @Compendium[pf2e.conditionitems.Persistent Damage]{Persistent Poison Damage}."
            }
        ],
        "source": {
            "value": "Pathfinder Bestiary"
        },
        "traits": {
            "custom": "",
            "rarity": {
                "value": "common"
            },
            "value": [
                "poison"
            ]
        },
        "trigger": {
            "value": ""
        }
    },
    "effects": [],
    "flags": {},
    "img": "systems/pf2e/icons/actions/Passive.webp",
    "name": "(Greater Barghest) Mutation - Poison Fangs",
    "type": "action"
}
