{
    "_id": "yWNcEsEJIoeXKBnk",
    "data": {
        "actionCategory": {
            "value": "interaction"
        },
        "actionType": {
            "value": "passive"
        },
        "actions": {
            "value": null
        },
        "description": {
            "value": "<p>@Template[type:emanation|distance:30]{30 Feet} @Compendium[pf2e.bestiary-ability-glossary-srd.Aura]{Aura}</p>\n<p>The lich is surrounded by an aura of death, drawing forth souls to be consumed by the lich's constant hunger.</p>\n<p>Living creatures in the emanation take a -2 status penalty to saves against fear and death effects. In addition, any creature that starts its turn in the area gains the @Compendium[pf2e.conditionitems.Doomed]{Doomed 1} condition unless it succeeds at a <span data-pf2-check=\"will\" data-pf2-dc=\"\" data-pf2-traits=\"aura,death,necromancy\" data-pf2-label=\"Void Shroud DC\" data-pf2-show-dc=\"gm\">Will</span> save against the lich's spell DC-4.</p>\n<p>@Compendium[pf2e.bestiary-effects.Effect: Void Shroud]{Effect: Void Shroud}</p>"
        },
        "requirements": {
            "value": "Pathfinder Bestiary"
        },
        "rules": [],
        "source": {
            "value": ""
        },
        "traits": {
            "custom": "",
            "rarity": {
                "value": "common"
            },
            "value": [
                "aura",
                "death",
                "necromancy"
            ]
        },
        "trigger": {
            "value": ""
        },
        "weapon": {
            "value": ""
        }
    },
    "effects": [],
    "flags": {},
    "img": "systems/pf2e/icons/actions/Passive.webp",
    "name": "(Lich) Void Shroud",
    "type": "action"
}
