{
    "_id": "b3p8x6sgTa0BOvAb",
    "data": {
        "actionCategory": {
            "value": "offensive"
        },
        "actionType": {
            "value": "reaction"
        },
        "actions": {
            "value": null
        },
        "description": {
            "value": "<p data-visibility=\"gm\"><strong>Trigger</strong> The lich deals damage with its hand Strike.</p>\n<p><strong>Effect</strong> The lich regains Hit Points equal to half the damage dealt.</p>"
        },
        "requirements": {
            "value": ""
        },
        "rules": [],
        "source": {
            "value": "Pathfinder Bestiary"
        },
        "traits": {
            "custom": "",
            "rarity": {
                "value": "common"
            },
            "value": []
        },
        "trigger": {
            "value": ""
        },
        "weapon": {
            "value": ""
        }
    },
    "effects": [],
    "flags": {},
    "img": "systems/pf2e/icons/actions/Reaction.webp",
    "name": "(Lich) Siphon Life",
    "type": "action"
}
