{
    "_id": "RgYpzTk3XapgVeXZ",
    "data": {
        "actionCategory": {
            "value": "offensive"
        },
        "actionType": {
            "value": "action"
        },
        "actions": {
            "value": 2
        },
        "description": {
            "value": "<p>The skeleton yanks a rib from its ribcage to use as an arrow or javelin. The skeleton loses HP equal to its level (minimum 1), then makes a ranged Strike.</p>\n<p>This uses the attack bonus of whichever of the skeleton's other Strikes has the highest attack bonus and deals piercing damage equal to that Strike's damage plus the skeleton's level (minimum 1).</p>"
        },
        "requirements": {
            "value": ""
        },
        "rules": [],
        "source": {
            "value": "Pathfinder Bestiary 3"
        },
        "traits": {
            "custom": "",
            "rarity": {
                "value": "common"
            },
            "value": []
        },
        "trigger": {
            "value": ""
        },
        "weapon": {
            "value": ""
        }
    },
    "effects": [],
    "flags": {},
    "img": "systems/pf2e/icons/actions/TwoActions.webp",
    "name": "(Skeleton) Bone Missile",
    "type": "action"
}
