{
    "_id": "vOocS1EiRCXPtbgB",
    "data": {
        "actionCategory": {
            "value": "offensive"
        },
        "actionType": {
            "value": "action"
        },
        "actions": {
            "value": 1
        },
        "description": {
            "value": "<p>The visitant lets out a loud and horrifying roar. Each creature within @Template[type:emanation|distance:100]{100 feet} must attempt at a <span data-pf2-check=\"will\" data-pf2-dc=\"\" data-pf2-traits=\"auditory,concentrate,emotion,enchantment,fear,mental,primal\" data-pf2-label=\"Roar DC\" data-pf2-show-dc=\"gm\">Will</span> save.</p>\n<p>No matter the result, affected creatures are then temporarily immune to the effect for 1 minute.</p>\n<div data-visibility=\"gm\"><hr />\n<p><strong>Critical Success</strong> The creature is unaffected.</p>\n<p><strong>Success</strong> The creature is @Compendium[pf2e.conditionitems.Frightened]{Frightened 1}.</p>\n<p><strong>Failure</strong> The creature is @Compendium[pf2e.conditionitems.Frightened]{Frightened 2}.</p>\n<p><strong>Critical Failure</strong> The creature is @Compendium[pf2e.conditionitems.Frightened]{Frightened 3}.</p>\n</div>"
        },
        "requirements": {
            "value": ""
        },
        "rules": [],
        "source": {
            "value": "Pathfinder #152: Legacy of the Lost God"
        },
        "traits": {
            "custom": "",
            "rarity": {
                "value": "common"
            },
            "value": [
                "auditory",
                "concentrate",
                "emotion",
                "enchantment",
                "fear",
                "mental",
                "primal"
            ]
        },
        "trigger": {
            "value": ""
        }
    },
    "effects": [],
    "flags": {},
    "img": "systems/pf2e/icons/actions/OneAction.webp",
    "name": "(Visitant) Roar",
    "type": "action"
}
