{
    "_id": "vXPWnWa7B1qsrOMa",
    "content": "<table class=\"pf2-table\">\n<thead>\n<tr>\n<th>\n<h3><strong>Name</strong></h3>\n</th>\n<th>\n<h3><strong>Crit Effect</strong></h3>\n</th>\n<th>\n<h3><strong>Type</strong></h3>\n</th>\n</tr>\n</thead>\n<tbody>\n<tr>\n<td>\n<h3 style=\"box-sizing: border-box; user-select: text; color: #191813;\">Feeble Parry</h3>\n</td>\n<td>\n<h3>The target drops one weapon it's wielding determined by the GM.</h3>\n</td>\n<td>\n<h3>Bludgeoning</h3>\n</td>\n</tr>\n<tr>\n<td>\n<h3>Shoulder Wound</h3>\n</td>\n<td>\n<h3>Until healed, the target is clumsy 1 and enfeebled 2.</h3>\n</td>\n<td>\n<h3>Piercing</h3>\n</td>\n</tr>\n<tr>\n<td>\n<h3>Hamstring</h3>\n</td>\n<td>\n<h3>Normal damage. The target is knocked prone. The target is also clumsy 2 until healed.</h3>\n</td>\n<td>\n<h3>Slashing</h3>\n</td>\n</tr>\n<tr>\n<td>\n<h3>Cut off from Magic</h3>\n</td>\n<td>\n<h3>Normal damage. The target can't cast spells or activate magic items for [[/r 1d4 #rounds]]{1d4 rounds}.</h3>\n</td>\n<td>\n<h3>Bomb or Spell</h3>\n</td>\n</tr>\n</tbody>\n</table>\n<h3 style=\"text-align: left;\"> </h3>",
    "flags": {},
    "name": "Critical Hit Deck #5",
    "permission": {
        "default": 0
    }
}
