{
    "_id": "8OoQs1TeJBW5UVby",
    "content": "<table class=\"pf2-table\">\n<thead>\n<tr>\n<th>\n<h3><strong>Name</strong></h3>\n</th>\n<th>\n<h3><strong>Crit Effect</strong></h3>\n</th>\n<th>\n<h3><strong>Type</strong></h3>\n</th>\n</tr>\n</thead>\n<tbody>\n<tr>\n<td>\n<h3>Collapsed Lung</h3>\n</td>\n<td>\n<h3>Normal damage. Until healed, t he target is enfeebled 2 and fatigued.</h3>\n</td>\n<td>\n<h3>Bludgeoning</h3>\n</td>\n</tr>\n<tr>\n<td>\n<h3>Never Cluster</h3>\n</td>\n<td>\n<h3>Normal damage. The target is stunned 2.</h3>\n</td>\n<td>\n<h3>Piercing</h3>\n</td>\n</tr>\n<tr>\n<td>\n<h3>Rupture Abdominal Cavity</h3>\n</td>\n<td>\n<h3>Triple damage. The target is fatigued.</h3>\n</td>\n<td>\n<h3>Slashing</h3>\n</td>\n</tr>\n<tr>\n<td>\n<h3>Transposition</h3>\n</td>\n<td>\n<h3>If this is a spell attack, you and the target switch places. This is a teleportation effect.</h3>\n</td>\n<td>\n<h3>Bomb or Spell</h3>\n</td>\n</tr>\n</tbody>\n</table>\n<h3 style=\"text-align: left;\"> </h3>",
    "flags": {},
    "name": "Critical Hit Deck #21",
    "permission": {
        "default": 0
    }
}
