{
    "_id": "gdYlgrtfGK8mAoXK",
    "content": "<table class=\"pf2-table\">\n<thead>\n<tr>\n<th>\n<h3><strong>Name</strong></h3>\n</th>\n<th>\n<h3><strong>Crit Effect</strong></h3>\n</th>\n<th>\n<h3><strong>Type</strong></h3>\n</th>\n</tr>\n</thead>\n<tbody>\n<tr>\n<td>\n<h3>Momentum</h3>\n</td>\n<td>\n<h3>You gain a +2 circumstance bonus to all attack rolls until the end of your next turn.</h3>\n</td>\n<td>\n<h3>Bludgeoning</h3>\n</td>\n</tr>\n<tr>\n<td>\n<h3>Blowback</h3>\n</td>\n<td>\n<h3>The target is knocked prone.</h3>\n</td>\n<td>\n<h3>Piercing</h3>\n</td>\n</tr>\n<tr>\n<td>\n<h3>Tangled</h3>\n</td>\n<td>\n<h3>You can attempt to Grapple the target as a free action. This uses the same multiple attack penalty as your attack and doesn't count towards your multiple attack penalty.</h3>\n</td>\n<td>\n<h3>Slashing</h3>\n</td>\n</tr>\n<tr>\n<td>\n<h3>Pretty Colors</h3>\n</td>\n<td>\n<h3>The target is dazzled until the end of your next turn.</h3>\n</td>\n<td>\n<h3>Bomb or Spell</h3>\n</td>\n</tr>\n</tbody>\n</table>\n<h3 style=\"text-align: left;\"> </h3>",
    "flags": {},
    "name": "Critical Hit Deck #9",
    "permission": {
        "default": 0
    }
}
