{
    "_id": "HaZ5LB1wh1LY5wUy",
    "data": {
        "description": {
            "value": "<p>For 1 minute after drinking this potion, you gain a +2 status bonus to Perception checks to hear. In addition, each time you Seek, your hearing becomes a precise sense until the beginning of your next turn, allowing you to pinpoint creatures' locations and otherwise perceive the world in detail by listening to the sound of echoes.</p>"
        },
        "duration": {
            "expiry": "turn-start",
            "sustained": false,
            "unit": "minutes",
            "value": 1
        },
        "level": {
            "value": 3
        },
        "rules": [
            {
                "key": "FlatModifier",
                "predicate": {
                    "all": [
                        "auditory"
                    ]
                },
                "selector": "perception",
                "type": "status",
                "value": 2
            }
        ],
        "source": {
            "value": ""
        },
        "start": {
            "initiative": null,
            "value": 0
        },
        "target": null,
        "tokenIcon": {
            "show": true
        },
        "traits": {
            "custom": "",
            "rarity": {
                "value": "common"
            },
            "value": []
        }
    },
    "effects": [],
    "flags": {},
    "img": "systems/pf2e/icons/default-icons/effect.svg",
    "name": "Equipment Effect: Potion of Minute Echoes",
    "type": "effect"
}
