{
    "_id": "uXkMGx0OD896ZQlT",
    "content": "<h1>Alglenweis (Princess of the Rime) [CG]</h1><p><strong>Alglenweis</strong> is the daughter of Kostchtchie and one of the major deities formerly worshipped in Sarkoris. She teaches her followers to perfect their craft and protect works of art, and be ready to act if necessary.</p><p></span><strong>Edicts</strong> Strive to perfect an art or graft, protect the monuments of your people, stir others into action</p><p><strong>Anathema</strong> Destroy an artistic creation without providing something in its place, refuse to act if called upon</p><p><strong>Follower Alignments</strong> NG, NG, CN</span></p><p></span></p><h2>Devotee Benefits</h2><div><div><strong>Divine Ability</strong> Strength or Wisdom</div><div><strong>Divine Font</strong> heal</div><div><strong>Divine Skill</strong> Nature</div><div><strong>Favored Weapon</strong> war flail</div><div><strong>Domains</strong> cold, creation, might, soul</div><div><strong>Cleric Spells</strong> 1st: agitate, 4th: creation, 5th: cone of cold</div></div>",
    "flags": {},
    "name": "Alglenweis",
    "permission": {
        "default": 0
    }
}
