{
    "_id": "Bzfc5mIUfMxOnQWu",
    "content": "<h1>Dahak (The Endless Destruction) [CE]</h1><p>Dragons believe Dahak was one of the original gods created by Apsu and Tiamat at the beginning of creation. While the other deities began to create, Dahak chose to destroy. He is credited with transforming Hell into a place of agony and flame. He is also believed to be the creator of the metallic dragons, which he formed solely to hunt as sport. Seeing the destruction and chaos wrought, Apsu entered the Material Plane in order to end Dahak's reign of terror. However, Tiamat saw Dahak as a son and wanted him spared. In a deal to save Dahak, Tiamat healed some of the wounded metallic dragons. These dragons became the original chromatic dragons.</span></span></p><p><strong>Edicts</strong> Kill metallic dragons, destroy things at your whim</p><p><strong>Anathema</strong> Spare a foe after you have chosen to kill them, forgive a slight</p><p><strong>Follower Alignments</strong> CE</span></p><p></span></p><h2>Devotee Benefits</h2><div><div><strong>Divine Ability</strong> Strength or Constitution</div><div><strong>Divine Font</strong> harm</div><div><strong>Divine Skill</strong> Athletics</div><div><strong>Favored Weapon</strong> jaws or whip</div><div><strong>Domains</strong> destruction, fire, wyrmkin, zeal</div><div><strong>Cleric Spells</strong> 1st: magic fang, 3rd: fireball, 6th: dragon form (chromatic dragons only)</div></div>",
    "flags": {},
    "name": "Dahak",
    "permission": {
        "default": 0
    }
}
