{
    "_id": "14GLsVobnZTEmJrs",
    "content": "<h1>Kelizandri (The Brackish Emperor) [NE]</h1><p>Kelizandri, the elemental lord of water, oversees the deep sea, waves, and drowning. The Brackish Emperor claims to be the offspring of an ancient god and a brine dragon, and he usually takes the form of an immense aquatic dragon with metallic scales and crystalline talons. He spends much of his time slumbering in his magnificent Palace of Salt and Bones, entertaining himself with rampages of wanton destruction and conquest whenever he wakes.</p><p>Kelizandri's worshippers include brine dragons, water elementals, and mortals who revere the inhospitable unknowns of the deep sea. He holds no love for marids, having killed the last Saline Padishah, Niloufar the Great, and destroyed her capital city of Arzanib. The lord's domain on the Plane of Water is the Brackish Empire Kelizandrika, a conglomeration of affiliated brine dragon-controlled realms. The most powerful dragons of Kelizandrika's ruling councils are said to advise the elemental lord personally.</p><p><strong>Edicts</strong> Instill hydrophobia in others, kill your foes by drowning them, sacrifice treasures to the depths of the ocean</p><p><strong>Anathema</strong> Destroy a body of water, use magic to calm the waves</p><p><strong>Areas of Concern</strong> the deep sea, waves, and drowning</p><p><strong>Follower Alignments</strong> N, LE, NE, CE</span></p><h2>Devotee Benefits</h2><div><div><strong>Divine Ability</strong> Constitution or Charisma</div><div><strong>Divine Font</strong> harm</div><div><strong>Divine Skill</strong> Athletics</div><div><strong>Favored Weapon</strong> trident</div><div><strong>Domains</strong> destruction, nightmares, travel, water</div><div><strong>Cleric Spells</strong> 1st: fear, 2nd: summon elemental (water only), 4th: hydraulic torrent</div></div>",
    "flags": {},
    "name": "Kelizandri",
    "permission": {
        "default": 0
    }
}
