{
    "_id": "rIDXRIdb9m2E3qC6",
    "content": "<p><strong>Deities </strong>@Compendium[pf2e.deities.Abadar]{Abadar}, @Compendium[pf2e.deities.Ashukharma]{Ashukharma}, @Compendium[pf2e.deities.Ayrzul]{Ayrzul}, @Compendium[pf2e.deities.Bes]{Bes}, @Compendium[pf2e.deities.Brigh]{Brigh}, @Compendium[pf2e.deities.Diomazul]{Diomazul}, @Compendium[pf2e.deities.Droskar]{Droskar}, @Compendium[pf2e.deities.Erastil]{Erastil}, @Compendium[pf2e.deities.Fumeiyoshi]{Fumeiyoshi}, @Compendium[pf2e.deities.Gendowyn]{Gendowyn}, @Compendium[pf2e.deities.Imbrex]{Imbrex}, @Compendium[pf2e.deities.Nivi Rhombodazzle]{Nivi Rhombodazzle}, @Compendium[pf2e.deities.Rovagug]{Rovagug}, @Compendium[pf2e.deities.Sairazul]{Sairazul}, @Compendium[pf2e.deities.Soralyon]{Soralyon}, @Compendium[pf2e.deities.Torag]{Torag}, @Compendium[pf2e.deities.Trelmarixian]{Trelmarixian}, @Compendium[pf2e.deities.Yamatsumi]{Yamatsumi}, @Compendium[pf2e.deities.Yuelral]{Yuelral}</p><p><strong>Domain Spell</strong> @Compendium[pf2e.spells-srd.Hurtling Stone]{Hurtling Stone}; <strong>Advanced Domain Spell</strong> @Compendium[pf2e.spells-srd.Localized Quake]{Localized Quake}</p><p></span><span id=\"ctl00_MainContent_DetailedOutput\">You control soil and stone.</p>",
    "flags": {},
    "name": "Earth Domain",
    "permission": {
        "default": 0
    }
}
