{
    "_id": "v4SDXgCuPdZqhMeL",
    "content": "<p><strong>Deities </strong>@Compendium[pf2e.deities.Angradd]{Angradd}, @Compendium[pf2e.deities.Asmodeus]{Asmodeus}, @Compendium[pf2e.deities.Atreia]{Atreia}, @Compendium[pf2e.deities.Brigh]{Brigh}, @Compendium[pf2e.deities.Chohar]{Chohar}, @Compendium[pf2e.deities.Dahak]{Dahak}, @Compendium[pf2e.deities.Droskar]{Droskar}, @Compendium[pf2e.deities.Lady Nanbyo]{Lady Nanbyo}, @Compendium[pf2e.deities.Moloch]{Moloch}, @Compendium[pf2e.deities.Nurgal]{Nurgal}, @Compendium[pf2e.deities.Ra]{Ra}, @Compendium[pf2e.deities.Ragathiel]{Ragathiel}, @Compendium[pf2e.deities.Sarenrae]{Sarenrae}, @Compendium[pf2e.deities.Szuriel]{Szuriel}, @Compendium[pf2e.deities.Yamatsumi]{Yamatsumi}, @Compendium[pf2e.deities.Ymeri]{Ymeri}</p><p><strong>Domain Spell</strong> @Compendium[pf2e.spells-srd.Fire Ray]{Fire Ray}; <strong>Advanced Domain Spell</strong> @Compendium[pf2e.spells-srd.Flame Barrier]{Flame Barrier}</p><p></span><span id=\"ctl00_MainContent_DetailedOutput\">You control flame.</p>",
    "flags": {},
    "name": "Fire Domain",
    "permission": {
        "default": 0
    }
}
