{
    "_id": "3kH0fGOIoYvPNQsq",
    "data": {
        "actionCategory": {
            "value": ""
        },
        "actionType": {
            "value": "free"
        },
        "actions": {
            "value": null
        },
        "description": {
            "value": "<p><strong>Trigger</strong> You're about to roll initiative.</p>\n<hr />\n<p>You allow your foes to make the first move in a show of incredible confidence. You don't roll initiative; instead you voluntarily go last. You gain @Compendium[pf2e.classfeatures.Panache]{Panache}.</p>\n<p>If more than one character uses this ability or another ability to go last, use the normal rules for resolving a tie: NPCs and monsters act before PCs, and within those groups, the creatures can choose whichever order they want.</p>"
        },
        "featType": {
            "value": "class"
        },
        "level": {
            "value": 2
        },
        "prerequisites": {
            "value": []
        },
        "rules": [],
        "source": {
            "value": "Pathfinder Advanced Player's Guide"
        },
        "traits": {
            "custom": "",
            "rarity": {
                "value": "common"
            },
            "value": [
                "swashbuckler"
            ]
        }
    },
    "effects": [],
    "flags": {},
    "img": "systems/pf2e/icons/features/feats/feats.webp",
    "name": "After You",
    "type": "feat"
}
