{
    "_id": "XmF4q4rzKWg55vG4",
    "data": {
        "actionCategory": {
            "value": ""
        },
        "actionType": {
            "value": "passive"
        },
        "actions": {
            "value": null
        },
        "description": {
            "value": "<p>You rarely misidentify an item. When using Arcana, Nature, Occultism, or Religion checks to Identify Magic, if you roll a critical failure, you get a failure instead. If you would misidentify a cursed item because you roll a success but not a critical success, you simply can't identify it instead.</p>"
        },
        "featType": {
            "value": "skill"
        },
        "level": {
            "value": 2
        },
        "location": "",
        "prerequisites": {
            "value": [
                {
                    "value": "expert in Arcana, Nature, Occultism, or Religion"
                }
            ]
        },
        "rules": [
            {
                "key": "Note",
                "predicate": {
                    "any": [
                        "action:identify-magic"
                    ]
                },
                "selector": "skill-check",
                "text": "<p class='compact-text'><strong>{item|name}</strong> When Identifying Magic, if you roll a critical failure, you get a failure instead. If you would misidentify a cursed item becuase you roll a success, you simply can't identify it.</p>"
            }
        ],
        "source": {
            "value": "Pathfinder Advanced Player's Guide"
        },
        "traits": {
            "custom": "",
            "rarity": {
                "value": "common"
            },
            "value": [
                "general",
                "skill"
            ]
        }
    },
    "effects": [],
    "flags": {},
    "img": "systems/pf2e/icons/features/feats/feats.webp",
    "name": "Assured Identification",
    "type": "feat"
}
