{
    "_id": "nDNmqez9McmrjBAV",
    "data": {
        "actionCategory": {
            "value": ""
        },
        "actionType": {
            "value": "passive"
        },
        "actions": {
            "value": null
        },
        "description": {
            "value": "<p>You become attuned to the stone around you. When in contact with a stone surface, you gain tremorsense (imprecise) 5 feet along that surface, and you can activate your <em>ka stone</em> to cast <em>@Compendium[pf2e.spells-srd.Meld into Stone]{Meld into Stone}</em>.</p>"
        },
        "featType": {
            "value": "archetype"
        },
        "level": {
            "value": 10
        },
        "location": "",
        "prerequisites": {
            "value": [
                {
                    "value": "Ka Stone Ritual"
                }
            ]
        },
        "rules": [
            {
                "acuity": "imprecise",
                "key": "Sense",
                "label": "PF2E.SensesScent",
                "range": 5,
                "selector": "tremorsense"
            }
        ],
        "source": {
            "value": "Pathfinder Lost Omens: World Guide"
        },
        "traits": {
            "custom": "",
            "rarity": {
                "value": "common"
            },
            "value": [
                "archetype"
            ]
        }
    },
    "effects": [],
    "flags": {},
    "img": "systems/pf2e/icons/features/feats/feats.webp",
    "name": "Attunement to Stone",
    "type": "feat"
}
