{
    "_id": "lpG7ZXFDZygmkbH4",
    "data": {
        "actionCategory": {
            "value": ""
        },
        "actionType": {
            "value": "passive"
        },
        "actions": {
            "value": null
        },
        "description": {
            "value": "<p>Your eidolon inflicts bleeding wounds on a telling blow. If your eidolon critically hits with a melee unarmed Strike that deals slashing or piercing damage, its target takes [[/r 1d6 #persistent bleed]] @Compendium[pf2e.conditionitems.Persistent Damage]{Persistent Bleed Damage}. Your eidolon gains an item bonus to this bleed damage equal to the unarmed attack's item bonus to attack rolls. This is a critical specialization effect.</p>"
        },
        "featType": {
            "value": "class"
        },
        "level": {
            "value": 4
        },
        "location": "",
        "prerequisites": {
            "value": []
        },
        "rules": [],
        "source": {
            "value": ""
        },
        "traits": {
            "custom": "",
            "rarity": {
                "value": "common"
            },
            "value": [
                "evolution",
                "summoner"
            ]
        }
    },
    "effects": [],
    "flags": {},
    "img": "systems/pf2e/icons/default-icons/feat.svg",
    "name": "Bloodletting Claws",
    "type": "feat"
}
