{
    "_id": "Vab3XIirjs3KQh3t",
    "data": {
        "actionCategory": {
            "value": ""
        },
        "actionType": {
            "value": "action"
        },
        "actions": {
            "value": 2
        },
        "description": {
            "value": "<p><strong>Requirements</strong> You are riding your mount.</p>\n<hr />\n<p>You @Compendium[pf2e.actionspf2e.Command an Animal]{Command an Animal} to order your mount to @Compendium[pf2e.actionspf2e.Stride]{Stride} twice. At any point during this movement, you can @Compendium[pf2e.actionspf2e.Strike]{Strike} one enemy within reach or within the first range increment of a ranged weapon. You gain a +1 circumstance bonus to your attack roll.</p>"
        },
        "featType": {
            "value": "archetype"
        },
        "level": {
            "value": 4
        },
        "prerequisites": {
            "value": [
                {
                    "value": "Cavalier Dedication"
                }
            ]
        },
        "rules": [],
        "source": {
            "value": "Pathfinder Advanced Player's Guide"
        },
        "traits": {
            "custom": "",
            "rarity": {
                "value": "common"
            },
            "value": [
                "archetype",
                "flourish"
            ]
        }
    },
    "effects": [],
    "flags": {},
    "img": "systems/pf2e/icons/features/feats/feats.webp",
    "name": "Cavalier's Charge",
    "type": "feat"
}
