{
    "_id": "zeyrLJr6b7hPdx4w",
    "data": {
        "actionCategory": {
            "value": ""
        },
        "actionType": {
            "value": "action"
        },
        "actions": {
            "value": 2
        },
        "description": {
            "value": "<p><strong>Frequency</strong> once per day Your body transforms into a powerful magical cannon.</p>\n<hr />\n<p>While immobile as a cannon, you can fire blasts of energy directly from your core, devastating your foes. You become @Compendium[pf2e.conditionitems.Immobilized]{Immobilized} until you use an Interact action to revert back to your standard form. While in your cannon form, the only actions you can use are to Strike with an energy blast unarmed attack or to Interact to revert back to your standard form. You can remain in your cannon form for up to 1 minute or until you take the action to revert back to your standard form, whichever comes first.</p>\n<p>Energy blasts are a special ranged unarmed attack. You can only make energy blast Strikes while you're in your cannon form. Your energy blasts deal [[/r {3d8}[fire]]]{3d8 fire damage} and [[/r {3d6}[force]]]{3d6 force damage}, which increases to [[/r {4d8}[fire]]]{4d8 fire damage} and [[/r {3d6}[force]]]{3d6 force damage} at level 20. You gain the item bonus to attack rolls with your energy blasts from the highest potency rune on any @Compendium[pf2e.equipment-srd.Handwraps of Mighty Blows]{Handwraps of Mighty Blows} you are wearing or any weapon you are wielding, but striking and property runes have no effect on your energy blasts. Energy blasts have a range increment of 120 feet. On a critical hit with an energy blast, the target takes 10 persistent fire damage. Your energy blast doesn't add critical specialization effects. If it matters for an effect dependent on weapon damage dice, an energy blast's number of weapon damage is three, or four at level 20.</p>"
        },
        "featType": {
            "value": "ancestry"
        },
        "level": {
            "value": 17
        },
        "location": "",
        "prerequisites": {
            "value": []
        },
        "rules": [],
        "source": {
            "value": ""
        },
        "traits": {
            "custom": "",
            "rarity": {
                "value": "common"
            },
            "value": [
                "arcane",
                "automaton",
                "concentrate",
                "polymorph",
                "transmutation"
            ]
        }
    },
    "effects": [],
    "flags": {},
    "img": "systems/pf2e/icons/default-icons/feats.webp",
    "name": "Core Cannon",
    "type": "feat"
}
