{
    "_id": "G1BPXzTzrUE4IndV",
    "data": {
        "actionCategory": {
            "value": ""
        },
        "actionType": {
            "value": "passive"
        },
        "actions": {
            "value": null
        },
        "description": {
            "value": "<p>Using ancient dwarven methods developed to fight enemies wielding magical darkness, you've honed your darkvision and sworn not to use such magic yourself.</p>\n<p>You gain @Compendium[pf2e.ancestryfeatures.Greater Darkvision]{Greater Darkvision}, enabling you to see through magical darkness even if it normally hampers darkvision (such as the darkness created by a 4th-level <em>@Compendium[pf2e.spells-srd.Darkness]{Darkness}</em>spell). You can't cast spells with the darkness trait, use item activations with the darkness trait, or use any other ability with the darkness trait.</p>"
        },
        "featType": {
            "value": "ancestry"
        },
        "level": {
            "value": 5
        },
        "location": "",
        "prerequisites": {
            "value": [
                {
                    "value": "darkvision"
                }
            ]
        },
        "rules": [],
        "source": {
            "value": "Pathfinder Advanced Player's Guide"
        },
        "traits": {
            "custom": "",
            "rarity": {
                "value": "common"
            },
            "value": [
                "dwarf"
            ]
        }
    },
    "effects": [],
    "flags": {},
    "img": "systems/pf2e/icons/features/feats/feats.webp",
    "name": "Defy The Darkness",
    "type": "feat"
}
