{
    "_id": "9VGmE7X4aK2W8YWj",
    "data": {
        "actionCategory": {
            "value": ""
        },
        "actionType": {
            "value": "action"
        },
        "actions": {
            "value": 1
        },
        "description": {
            "value": "<p><strong>Requirements</strong> You are wielding only a single one-handed melee weapon and have your other hand or hands free.</p>\n<hr />\n<p>Using your free hand as pivot and balance, you both attack and defend with your weapon.</p>\n<hr />\n<p>While you are in this stance, you constantly have the benefits of @Compendium[pf2e.feats-srd.Dueling Parry (Swashbuckler)]{Dueling Parry}.</p>"
        },
        "featType": {
            "value": "class"
        },
        "level": {
            "value": 10
        },
        "location": "",
        "prerequisites": {
            "value": [
                {
                    "value": "Dueling Parry"
                }
            ]
        },
        "rules": [],
        "source": {
            "value": "Pathfinder Advanced Player's Guide"
        },
        "traits": {
            "custom": "",
            "rarity": {
                "value": "common"
            },
            "value": [
                "stance",
                "swashbuckler"
            ]
        }
    },
    "effects": [],
    "flags": {},
    "img": "systems/pf2e/icons/features/feats/feats.webp",
    "name": "Dueling Dance (Swashbuckler)",
    "type": "feat"
}
