{
    "_id": "Y8sKn8NH1wC7Mrui",
    "data": {
        "actionCategory": {
            "value": ""
        },
        "actionType": {
            "value": "passive"
        },
        "actions": {
            "value": null
        },
        "description": {
            "value": "<p>Your incisors have grown into true fangs: long, sharp, and well-suited to drawing blood.</p>\n<p>You gain a fangs unarmed attack that deals [[/r {1d6}[piercing]]]{1d6 piercing damage}. Your fangs are in the brawling group and have the grapple and unarmed traits.</p>"
        },
        "featType": {
            "value": "ancestry"
        },
        "level": {
            "value": 1
        },
        "location": "",
        "prerequisites": {
            "value": []
        },
        "rules": [
            {
                "category": "unarmed",
                "damage": {
                    "base": {
                        "damageType": "piercing",
                        "dice": 1,
                        "die": "d6"
                    }
                },
                "group": "brawling",
                "key": "Strike",
                "label": "Fangs",
                "range": null,
                "traits": [
                    "grapple",
                    "unarmed"
                ]
            }
        ],
        "source": {
            "value": "Pathfinder Advanced Player's Guide"
        },
        "traits": {
            "custom": "",
            "rarity": {
                "value": "common"
            },
            "value": [
                "dhampir"
            ]
        }
    },
    "effects": [],
    "flags": {},
    "img": "systems/pf2e/icons/features/feats/feats.webp",
    "name": "Fangs",
    "type": "feat"
}
