{
    "_id": "N8Xz5fuW6o7GW124",
    "data": {
        "actionCategory": {
            "value": ""
        },
        "actionType": {
            "value": "passive"
        },
        "actions": {
            "value": null
        },
        "description": {
            "value": "<p>Your body quickly bounces back from afflictions. You regain twice as many Hit Points from resting. Each time you succeed at a Fortitude save against an ongoing disease or poison, you reduce its stage by 2, or by 1 against a virulent disease or poison. Each critical success you achieve against an ongoing disease or poison reduces its stage by 3, or by 2 against a virulent disease or poison. In addition, you reduce the severity of your drained condition by 2 when you rest for a night instead of by 1.</p>"
        },
        "featType": {
            "value": "general"
        },
        "level": {
            "value": 1
        },
        "location": "",
        "prerequisites": {
            "value": [
                {
                    "value": "Constitution 14"
                }
            ]
        },
        "rules": [
            {
                "key": "Note",
                "predicate": {
                    "all": [
                        "ongoing"
                    ],
                    "any": [
                        "disease",
                        "poison"
                    ]
                },
                "selector": "Fortitude",
                "text": "<p class='compact-text'><strong>{item|name}</strong>If you roll a success on a Fortitude save against an ongoing posion or disease, reduce its stage by 2, or by 1 if its virulent. If you roll a critical success, reduce its stage by 3, or by 2 if its virulent.</p>"
            },
            {
                "key": "ActiveEffectLike",
                "mode": "add",
                "path": "data.attributes.hp.recoveryMultiplier",
                "value": 1
            }
        ],
        "source": {
            "value": "Pathfinder Core Rulebook"
        },
        "traits": {
            "custom": "",
            "rarity": {
                "value": "common"
            },
            "value": [
                "general"
            ]
        }
    },
    "effects": [],
    "flags": {},
    "img": "systems/pf2e/icons/features/feats/feats.webp",
    "name": "Fast Recovery",
    "type": "feat"
}
