{
    "_id": "5gnBhockV7O32jTR",
    "data": {
        "actionCategory": {
            "value": ""
        },
        "actionType": {
            "value": "action"
        },
        "actions": {
            "value": 1
        },
        "description": {
            "value": "<p>Desperate to finish the fight, you pour all your rage into one final blow. Make a Strike. If it hits, you gain a circumstance bonus to damage equal to the number of rounds remaining in your Rage (maximum 10). After this Strike, your Rage immediately ends, and you are fatigued until you rest for at least 10 minutes.</p>"
        },
        "featType": {
            "value": "class"
        },
        "level": {
            "value": 2
        },
        "prerequisites": {
            "value": []
        },
        "rules": [],
        "source": {
            "value": "Pathfinder Core Rulebook"
        },
        "traits": {
            "custom": "",
            "rarity": {
                "value": "common"
            },
            "value": [
                "barbarian",
                "rage"
            ]
        }
    },
    "effects": [],
    "flags": {},
    "img": "systems/pf2e/icons/features/feats/feats.webp",
    "name": "Furious Finish",
    "type": "feat"
}
