{
    "_id": "i3wSkeU7CSyHEi4Y",
    "data": {
        "actionCategory": {
            "value": ""
        },
        "actionType": {
            "value": "passive"
        },
        "actions": {
            "value": null
        },
        "description": {
            "value": "<p>Whenever you gain a class feature that grants you expert or greater proficiency in certain weapons, you also gain that proficiency in @Compendium[pf2e.equipment-srd.Falchion]{Falchions}, @Compendium[pf2e.equipment-srd.Ranseur]{Ranseurs}, @Compendium[pf2e.equipment-srd.Scimitar]{Scimitars}, @Compendium[pf2e.equipment-srd.Trident]{Tridents}, and all geniekin weapons in which you are trained.</p>"
        },
        "featType": {
            "value": "ancestry"
        },
        "level": {
            "value": 13
        },
        "location": "",
        "prerequisites": {
            "value": [
                {
                    "value": "Genie Weapon Familiarity"
                }
            ]
        },
        "rules": [],
        "source": {
            "value": "Pathfinder Lost Omens: Ancestry Guide"
        },
        "traits": {
            "custom": "",
            "rarity": {
                "value": "common"
            },
            "value": [
                "ifrit",
                "oread",
                "suli",
                "sylph",
                "undine"
            ]
        }
    },
    "effects": [],
    "flags": {},
    "img": "systems/pf2e/icons/features/feats/feats.webp",
    "name": "Genie Weapon Expertise",
    "type": "feat"
}
