{
    "_id": "63sSYk5yqiAyZGb9",
    "data": {
        "actionCategory": {
            "value": ""
        },
        "actionType": {
            "value": "passive"
        },
        "actions": {
            "value": null
        },
        "description": {
            "value": "<p>Mass and muscle are meaningless when you leap; only grace and balance matter.</p>\n<p>You can roll an Acrobatics check instead of an Athletics check when making a @Compendium[pf2e.actionspf2e.High Jump]{High Jump} or @Compendium[pf2e.actionspf2e.Long Jump]{Long Jump}.</p>"
        },
        "featType": {
            "value": "archetype"
        },
        "level": {
            "value": 7
        },
        "location": "",
        "prerequisites": {
            "value": [
                {
                    "value": "Acrobat Dedication"
                },
                {
                    "value": "Master in Acrobatics"
                }
            ]
        },
        "rules": [],
        "source": {
            "value": "Pathfinder Advanced Player's Guide"
        },
        "traits": {
            "custom": "",
            "rarity": {
                "value": "common"
            },
            "value": [
                "archetype",
                "skill"
            ]
        }
    },
    "effects": [],
    "flags": {},
    "img": "systems/pf2e/icons/features/feats/feats.webp",
    "name": "Graceful Leaper",
    "type": "feat"
}
