{
    "_id": "K3Au5071pfvNwGob",
    "data": {
        "actionCategory": {
            "value": ""
        },
        "actionType": {
            "value": "passive"
        },
        "actions": {
            "value": null
        },
        "description": {
            "value": "<p>You've learned to hide the magical auras of your gear. During your daily preparations, you carefully tweak any or all of your magic items to appear non-magical. Objects adjusted in this way remain so until your next preparations.</p>\n<p>A spellcaster using <em>@Compendium[pf2e.spells-srd.Detect Magic]{Detect Magic}</em> or <em>@Compendium[pf2e.spells-srd.Read Aura]{Read Aura}</em> must succeed at a Perception check against your Deception DC to see through your obfuscations.</p>"
        },
        "featType": {
            "value": "archetype"
        },
        "level": {
            "value": 4
        },
        "prerequisites": {
            "value": [
                {
                    "value": "expert in Arcana, Nature, Occultism, or Religion"
                },
                {
                    "value": "Vigilante Dedication"
                }
            ]
        },
        "rules": [],
        "source": {
            "value": "Pathfinder Advanced Player's Guide"
        },
        "traits": {
            "custom": "",
            "rarity": {
                "value": "common"
            },
            "value": [
                "archetype",
                "skill"
            ]
        }
    },
    "effects": [],
    "flags": {},
    "img": "systems/pf2e/icons/features/feats/feats.webp",
    "name": "Hidden Magic",
    "type": "feat"
}
