{
    "_id": "RcQv16RK80R6c4id",
    "data": {
        "actionCategory": {
            "value": ""
        },
        "actionType": {
            "value": "passive"
        },
        "actions": {
            "value": null
        },
        "description": {
            "value": "<p>You've learned to repair your equipment even in challenging circumstances, making use of what you have available. You can attempt to Repair an item without a repair kit, instead improvising tools out of your gear or found items. This adds 5 minutes to the time it takes to Repair the item. You can also Repair an item while on the move without needing a stable surface. This adds 10 minutes to the times it takes to Repair the item.</p>"
        },
        "featType": {
            "value": "archetype"
        },
        "level": {
            "value": 8
        },
        "prerequisites": {
            "value": [
                {
                    "value": "Swordmaster Dedication"
                },
                {
                    "value": "expert in Crafting"
                }
            ]
        },
        "rules": [],
        "source": {
            "value": "Pathfinder Lost Omens: Pathfinder Society Guide"
        },
        "traits": {
            "custom": "",
            "rarity": {
                "value": "common"
            },
            "value": [
                "archetype",
                "exploration",
                "manipulate",
                "skill"
            ]
        }
    },
    "effects": [],
    "flags": {},
    "img": "systems/pf2e/icons/features/feats/feats.webp",
    "name": "Improvised Crafting",
    "type": "feat"
}
