{
    "_id": "aoIEVpJrQEold2Mi",
    "data": {
        "actionCategory": {
            "value": ""
        },
        "actionType": {
            "value": "passive"
        },
        "actions": {
            "value": null
        },
        "description": {
            "value": "<p>Your eidolon gains a bevy of lower-level spells. Choose an innate spell of your eidolon's tradition of each of the spell levels from 1 to 7 in which your eidolon doesn't currently have an innate spell from Magical Adept. Your eidolon can cast each once per day as innate spells.</p>\n<p>You can swap these spells at every even level, but your eidolon can never know more than one spell of each spell level 1 through 7</p>"
        },
        "featType": {
            "value": "class"
        },
        "level": {
            "value": 18
        },
        "location": "",
        "prerequisites": {
            "value": [
                {
                    "value": "Magical Adept"
                }
            ]
        },
        "rules": [],
        "source": {
            "value": ""
        },
        "traits": {
            "custom": "",
            "rarity": {
                "value": "common"
            },
            "value": [
                "evolution",
                "summoner"
            ]
        }
    },
    "effects": [],
    "flags": {},
    "img": "systems/pf2e/icons/default-icons/feat.svg",
    "name": "Magical Master",
    "type": "feat"
}
