{
    "_id": "Gu8IAYxwNdQM603P",
    "data": {
        "actionCategory": {
            "value": ""
        },
        "actionType": {
            "value": "passive"
        },
        "actions": {
            "value": null
        },
        "description": {
            "value": "<p>You've learned how to commune with the land to learn information. You learn the <em>@Compendium[pf2e.spells-srd.Commune with Nature]{Commune with Nature}</em> ritual if you didn't know it already. You can perform this ritual with a casting time of 1 hour instead of 1 day and without a secondary caster.</p>"
        },
        "featType": {
            "value": "archetype"
        },
        "level": {
            "value": 12
        },
        "location": "",
        "prerequisites": {
            "value": [
                {
                    "value": "Geomancer Dedication"
                },
                {
                    "value": "master in Nature"
                }
            ]
        },
        "rules": [],
        "source": {
            "value": ""
        },
        "traits": {
            "custom": "",
            "rarity": {
                "value": "uncommon"
            },
            "value": [
                "archetype"
            ]
        }
    },
    "effects": [],
    "flags": {},
    "img": "systems/pf2e/icons/default-icons/feat.svg",
    "name": "Read the Land",
    "type": "feat"
}
