{
    "_id": "wpqKltAoJjRQgWow",
    "data": {
        "actionCategory": {
            "value": ""
        },
        "actionType": {
            "value": "passive"
        },
        "actions": {
            "value": null
        },
        "description": {
            "value": "<p>You run and climb across ropes and rigging almost as easily as on the ground. You gain a @Compendium[pf2e.actionspf2e.Climb]{Climb} Speed of 15 feet, but only on ship's rigging or similar ropes.</p>\n<p>Whenever you succeed at an Athletics check to Climb a rope or an Acrobatics check to @Compendium[pf2e.actionspf2e.Balance]{Balance} on a rope, you get a critical success instead. You aren't @Compendium[pf2e.conditionitems.Flat-Footed]{Flat-Footed} while Climbing or Balancing on a rope.</p>"
        },
        "featType": {
            "value": "archetype"
        },
        "level": {
            "value": 4
        },
        "prerequisites": {
            "value": [
                {
                    "value": "trained in Acrobatics"
                },
                {
                    "value": "trained in Athletics"
                },
                {
                    "value": "Pirate Dedication"
                }
            ]
        },
        "rules": [],
        "source": {
            "value": "Pathfinder Advanced Player's Guide"
        },
        "traits": {
            "custom": "",
            "rarity": {
                "value": "common"
            },
            "value": [
                "archetype",
                "skill"
            ]
        }
    },
    "effects": [],
    "flags": {},
    "img": "systems/pf2e/icons/features/feats/feats.webp",
    "name": "Rope Runner",
    "type": "feat"
}
