{
    "_id": "bYijGvCvCmJnW6aA",
    "data": {
        "actionCategory": {
            "value": ""
        },
        "actionType": {
            "value": "reaction"
        },
        "actions": {
            "value": null
        },
        "description": {
            "value": "<p><strong>Trigger</strong> You are hit by a @Compendium[pf2e.actionspf2e.Strike]{Strike} that deals physical damage.</p>\n<hr />\n<p>With divine awareness, you twist your body to lessen the impact of an attack. Reduce the damage you take by an amount equal to twice your armor's level. Your armor becomes @Compendium[pf2e.conditionitems.Broken]{Broken}, reducing its Hit Points to its Broken Threshold. If your armor was already damaged, it is destroyed instead.</p>"
        },
        "featType": {
            "value": "class"
        },
        "level": {
            "value": 8
        },
        "prerequisites": {
            "value": []
        },
        "rules": [],
        "source": {
            "value": "Pathfinder Advanced Player's Guide"
        },
        "traits": {
            "custom": "",
            "rarity": {
                "value": "common"
            },
            "value": [
                "champion"
            ]
        }
    },
    "effects": [],
    "flags": {},
    "img": "systems/pf2e/icons/features/feats/feats.webp",
    "name": "Sacrifice Armor",
    "type": "feat"
}
