{
    "_id": "4Y7wKFogGB0LZ5ZA",
    "data": {
        "actionCategory": {
            "value": ""
        },
        "actionType": {
            "value": "action"
        },
        "actions": {
            "value": 1
        },
        "description": {
            "value": "<p>You encourage an ally to toughen up, giving them a fighting chance. Choose one ally within your marshal's aura. The ally gains temporary Hit Points equal to your Charisma modifier and a +2 circumstance bonus to Fortitude saves. Both benefits last until the start of your next turn.</p>"
        },
        "featType": {
            "value": "archetype"
        },
        "level": {
            "value": 4
        },
        "prerequisites": {
            "value": [
                {
                    "value": "Marshal Dedication"
                }
            ]
        },
        "rules": [],
        "source": {
            "value": ""
        },
        "traits": {
            "custom": "",
            "rarity": {
                "value": "common"
            },
            "value": [
                "archetype",
                "auditory",
                "emotion",
                "mental"
            ]
        }
    },
    "effects": [],
    "flags": {},
    "img": "systems/pf2e/icons/features/feats/feats.webp",
    "name": "Steel Yourself!",
    "type": "feat"
}
