{
    "_id": "D6bncWAOvFYX7hCE",
    "data": {
        "actionCategory": {
            "value": ""
        },
        "actionType": {
            "value": "passive"
        },
        "actions": {
            "value": null
        },
        "description": {
            "value": "<p>The common folk heed your demands, and though your true foes rarely bend to your commands, when they do the hesitation can cost them the battle. You can cast <em>@Compendium[pf2e.spells-srd.Command]{Command}</em> once every 10 minutes as a 1st-level occult innate spell.</p>\n<p>If you're in your vigilante identity, you can command the target only to approach you, drop prone, or stand in place. If you're in your social identity, you can command the target only to run away or release what the target is holding.</p>"
        },
        "featType": {
            "value": "archetype"
        },
        "level": {
            "value": 10
        },
        "location": "",
        "prerequisites": {
            "value": [
                {
                    "value": "Vigilante Dedication"
                },
                {
                    "value": "Member of the Grey Gardeners"
                },
                {
                    "value": "master in Intimidation"
                },
                {
                    "value": "Voice of Authority"
                }
            ]
        },
        "rules": [],
        "source": {
            "value": ""
        },
        "traits": {
            "custom": "",
            "rarity": {
                "value": "common"
            },
            "value": [
                "archetype",
                "vigilante"
            ]
        }
    },
    "effects": [],
    "flags": {},
    "img": "systems/pf2e/icons/default-icons/feats.webp",
    "name": "Strident Command",
    "type": "feat"
}
