{
    "_id": "9QQnv7nFpsNCGE89",
    "data": {
        "actionCategory": {
            "value": ""
        },
        "actionType": {
            "value": "passive"
        },
        "actions": {
            "value": null
        },
        "description": {
            "value": "<p>You take your time searching to ensure you find everything. When @Compendium[pf2e.actionspf2e.Search]{Searching}, you can take twice as long to search. Normally this means you Search at up to one quarter of your Speed, to a maximum of 150 feet per minute to check everything, or 75 feet per minute to check everything before you walk into it. If you do, you gain a +2 circumstance bonus to your Perception checks to @Compendium[pf2e.actionspf2e.Seek]{Seek}.</p>"
        },
        "featType": {
            "value": "general"
        },
        "level": {
            "value": 3
        },
        "location": "",
        "prerequisites": {
            "value": [
                {
                    "value": "expert in Perception"
                }
            ]
        },
        "rules": [
            {
                "key": "FlatModifier",
                "label": "Thorough Search (Seek thoroughly)",
                "predicate": {
                    "all": [
                        "action:seek",
                        "thorough-search"
                    ]
                },
                "selector": "perception",
                "type": "circumstance",
                "value": 2
            }
        ],
        "source": {
            "value": "Pathfinder Advanced Player's Guide"
        },
        "traits": {
            "custom": "",
            "rarity": {
                "value": "common"
            },
            "value": [
                "general"
            ]
        }
    },
    "effects": [],
    "flags": {},
    "img": "systems/pf2e/icons/features/feats/feats.webp",
    "name": "Thorough Search",
    "type": "feat"
}
