{
    "_id": "Q8fdMjZ2Wv3FawOI",
    "data": {
        "actionCategory": {
            "value": ""
        },
        "actionType": {
            "value": "action"
        },
        "actions": {
            "value": 2
        },
        "description": {
            "value": "<p>Water cradles your every step, allowing you to walk on its surface. Stride up to your Speed. During your movement, you can move across liquids that don't support your weight. If you end your movement on a surface that can't support you, you fall into the liquid at the end of your movement. You can increase the number of actions to 3 to Stride up to three times your Speed.</p>"
        },
        "featType": {
            "value": "ancestry"
        },
        "level": {
            "value": 9
        },
        "location": "",
        "prerequisites": {
            "value": []
        },
        "rules": [],
        "source": {
            "value": "Pathfinder Lost Omens: Ancestry Guide"
        },
        "traits": {
            "custom": "",
            "rarity": {
                "value": "common"
            },
            "value": [
                "azarketi",
                "primal",
                "transmutation",
                "water"
            ]
        }
    },
    "effects": [],
    "flags": {},
    "img": "systems/pf2e/icons/default-icons/feats.webp",
    "name": "Water Strider",
    "type": "feat"
}
