{
    "_id": "BQkqUrlUVNFp8BEq",
    "data": {
        "actionCategory": {
            "value": ""
        },
        "actionType": {
            "value": "passive"
        },
        "actions": {
            "value": null
        },
        "description": {
            "value": "<p>When you cast dancing lights, you can modify its duration to be 1 minute and modify its standard effects to create a single floating light in the shape of a Tiny creature, instead of up to four floating lights. The creature hovers over your head unless you spend a single action that has the concentrate trait to direct the light to move up to 30 feet, in which case it remains there until you direct it again. If you direct it back to your head, it hovers there and follows you again until you direct it elsewhere. If the light ever moves beyond 120 feet of you, it winks out immediately.</p>"
        },
        "featType": {
            "value": "archetype"
        },
        "level": {
            "value": 4
        },
        "location": "",
        "prerequisites": {
            "value": [
                {
                    "value": "Spell Trickster Dedication"
                },
                {
                    "value": "ability to cast dancing lights"
                }
            ]
        },
        "rules": [],
        "source": {
            "value": ""
        },
        "traits": {
            "custom": "",
            "rarity": {
                "value": "common"
            },
            "value": [
                "archetype"
            ]
        }
    },
    "effects": [],
    "flags": {},
    "img": "systems/pf2e/icons/default-icons/feats.webp",
    "name": "Wild Lights",
    "type": "feat"
}
