{
    "_id": "nkk4O5fyzrC0057i",
    "data": {
        "description": {
            "value": "<p>Granted by <em>@Compendium[pf2e.spells-srd.Soothe]{Soothe}</em>.</p>\n<p>Your mind is bolstered against hostile effects, granting a +2 status bonus to saves against mental effects for the duration.</p>"
        },
        "duration": {
            "expiry": "turn-start",
            "sustained": false,
            "unit": "minutes",
            "value": 1
        },
        "level": {
            "value": 1
        },
        "rules": [
            {
                "key": "FlatModifier",
                "label": "Soothe",
                "predicate": {
                    "all": [
                        "mental"
                    ]
                },
                "selector": "saving-throw",
                "type": "status",
                "value": 2
            }
        ],
        "source": {
            "value": ""
        },
        "start": {
            "initiative": null,
            "value": 0
        },
        "target": null,
        "tokenIcon": {
            "show": true
        },
        "traits": {
            "custom": "",
            "rarity": {
                "value": "common"
            },
            "value": []
        }
    },
    "effects": [],
    "flags": {},
    "img": "systems/pf2e/icons/spells/soothe.webp",
    "name": "Spell Effect: Soothe",
    "type": "effect"
}
