{
    "_id": "nTn2szBbqQNdXhOr",
    "data": {
        "abilities": {
            "cha": {
                "mod": 0
            },
            "con": {
                "mod": 1
            },
            "dex": {
                "mod": 3
            },
            "int": {
                "mod": 1
            },
            "str": {
                "mod": 0
            },
            "wis": {
                "mod": 2
            }
        },
        "attributes": {
            "ac": {
                "details": "",
                "value": 15
            },
            "allSaves": {
                "value": ""
            },
            "hp": {
                "details": "",
                "max": 7,
                "temp": 0,
                "value": 7
            },
            "initiative": {
                "ability": "perception"
            },
            "perception": {
                "value": 4
            },
            "shield": {
                "ac": 2,
                "brokenThreshold": 0,
                "hardness": 0,
                "max": 0,
                "value": 0
            },
            "speed": {
                "otherSpeeds": [],
                "value": "25"
            }
        },
        "details": {
            "alignment": {
                "value": "CN"
            },
            "blurb": "",
            "creatureType": "",
            "level": {
                "value": -1
            },
            "privateNotes": "",
            "publicNotes": "",
            "source": {
                "value": "Pathfinder #157: Devil at the Dreaming Palace"
            }
        },
        "resources": {},
        "saves": {
            "fortitude": {
                "saveDetail": "",
                "value": 3
            },
            "reflex": {
                "saveDetail": "",
                "value": 7
            },
            "will": {
                "saveDetail": "",
                "value": 4
            }
        },
        "traits": {
            "attitude": {
                "value": "hostile"
            },
            "ci": [],
            "di": {
                "custom": "",
                "value": []
            },
            "dr": [],
            "dv": [],
            "languages": {
                "custom": "",
                "selected": [],
                "value": [
                    "common",
                    "halfling"
                ]
            },
            "rarity": {
                "value": "common"
            },
            "senses": {
                "value": ""
            },
            "size": {
                "value": "sm"
            },
            "traits": {
                "custom": "",
                "value": [
                    "halfling",
                    "humanoid"
                ]
            }
        }
    },
    "effects": [],
    "flags": {},
    "img": "systems/pf2e/icons/default-icons/npc.svg",
    "items": [
        {
            "_id": "GiEEHQoDGSbmqUgh",
            "data": {
                "MAP": {
                    "value": ""
                },
                "baseItem": "dagger",
                "bonus": {
                    "value": 0
                },
                "bonusDamage": {
                    "value": 0
                },
                "brokenThreshold": {
                    "value": 0
                },
                "bulkCapacity": {
                    "value": ""
                },
                "category": "simple",
                "collapsed": {
                    "value": false
                },
                "containerId": {
                    "value": ""
                },
                "damage": {
                    "damageType": "piercing",
                    "dice": 1,
                    "die": "d4",
                    "value": ""
                },
                "description": {
                    "value": "<p>This small, bladed weapon is held in one hand and used to stab a creature in close combat. It can also be thrown.</p>"
                },
                "equipped": {
                    "value": false
                },
                "equippedBulk": {
                    "value": ""
                },
                "group": "knife",
                "hands": {
                    "value": ""
                },
                "hardness": {
                    "value": 0
                },
                "hp": {
                    "value": 0
                },
                "identification": {
                    "misidentified": {},
                    "status": "identified",
                    "unidentified": {
                        "data": {
                            "description": {
                                "value": ""
                            }
                        },
                        "img": "",
                        "name": ""
                    }
                },
                "invested": {
                    "value": false
                },
                "level": {
                    "value": 0
                },
                "maxHp": {
                    "value": 0
                },
                "negateBulk": {
                    "value": "0"
                },
                "potencyRune": {
                    "value": null
                },
                "preciousMaterial": {
                    "value": ""
                },
                "preciousMaterialGrade": {
                    "value": ""
                },
                "price": {
                    "value": "2 sp"
                },
                "property1": {
                    "critDamage": "",
                    "critDamageType": "",
                    "critDice": null,
                    "critDie": "",
                    "criticalConditionType": "",
                    "criticalConditionValue": null,
                    "damageType": "",
                    "dice": null,
                    "die": "",
                    "strikeConditionType": "",
                    "strikeConditionValue": null,
                    "value": ""
                },
                "propertyRune1": {
                    "value": ""
                },
                "propertyRune2": {
                    "value": ""
                },
                "propertyRune3": {
                    "value": ""
                },
                "propertyRune4": {
                    "value": ""
                },
                "quantity": {
                    "value": 4
                },
                "range": null,
                "reload": {
                    "value": ""
                },
                "rules": [],
                "size": {
                    "value": "med"
                },
                "slug": "dagger",
                "source": {
                    "value": ""
                },
                "specific": {
                    "value": false
                },
                "splashDamage": {
                    "value": 0
                },
                "stackGroup": {
                    "value": ""
                },
                "strikingRune": {
                    "value": ""
                },
                "traits": {
                    "custom": "",
                    "rarity": {
                        "value": "common"
                    },
                    "value": [
                        "agile",
                        "finesse",
                        "thrown-10",
                        "versatile-s"
                    ]
                },
                "usage": {
                    "value": "held-in-one-hand"
                },
                "weight": {
                    "value": "L"
                }
            },
            "effects": [],
            "flags": {
                "core": {
                    "sourceId": "Compendium.pf2e.equipment-srd.rQWaJhI5Bko5x14Z"
                }
            },
            "img": "systems/pf2e/icons/equipment/weapons/dagger.webp",
            "name": "Dagger",
            "sort": 100000,
            "type": "weapon"
        },
        {
            "_id": "sN86M2wujGmVXx0e",
            "data": {
                "armor": {
                    "value": 2
                },
                "armorType": {
                    "value": "light"
                },
                "baseItem": "studded-leather-armor",
                "brokenThreshold": {
                    "value": null
                },
                "bulkCapacity": {
                    "value": ""
                },
                "check": {
                    "value": -1
                },
                "collapsed": {
                    "value": false
                },
                "containerId": {
                    "value": ""
                },
                "description": {
                    "value": "<p>This leather armor is reinforced with metal studs and sometimes small metal plates, providing most of the flexibility of leather armor with more robust protection.</p>"
                },
                "dex": {
                    "value": 3
                },
                "equipped": {
                    "value": true
                },
                "equippedBulk": {
                    "value": "1"
                },
                "group": {
                    "value": "leather"
                },
                "hardness": {
                    "value": null
                },
                "hp": {
                    "value": null
                },
                "identification": {
                    "misidentified": {},
                    "status": "identified",
                    "unidentified": {
                        "data": {
                            "description": {
                                "value": ""
                            }
                        },
                        "img": "",
                        "name": ""
                    }
                },
                "invested": {
                    "value": false
                },
                "level": {
                    "value": 0
                },
                "maxHp": {
                    "value": null
                },
                "negateBulk": {
                    "value": "0"
                },
                "potency": {},
                "potencyRune": {
                    "value": 0
                },
                "preciousMaterial": {
                    "value": ""
                },
                "preciousMaterialGrade": {
                    "value": ""
                },
                "price": {
                    "value": "3 gp"
                },
                "propertyRune1": {
                    "value": ""
                },
                "propertyRune2": {
                    "value": ""
                },
                "propertyRune3": {
                    "value": ""
                },
                "propertyRune4": {
                    "value": ""
                },
                "quantity": {
                    "value": 1
                },
                "resiliencyRune": {
                    "value": ""
                },
                "rules": [],
                "size": {
                    "value": "med"
                },
                "slug": "studded-leather-armor",
                "source": {
                    "value": ""
                },
                "speed": {
                    "value": 0
                },
                "stackGroup": {
                    "value": ""
                },
                "strength": {
                    "value": 12
                },
                "traits": {
                    "custom": "",
                    "rarity": {
                        "value": "common"
                    },
                    "value": []
                },
                "usage": {
                    "value": "wornarmor"
                },
                "weight": {
                    "value": "2"
                }
            },
            "effects": [],
            "flags": {
                "core": {
                    "sourceId": "Compendium.pf2e.equipment-srd.ewQZ0VeL38v3qFnN"
                }
            },
            "img": "systems/pf2e/icons/equipment/armor/studded-leather-armor.webp",
            "name": "Studded Leather Armor",
            "sort": 200000,
            "type": "armor"
        },
        {
            "_id": "qnVCozwzjFK6gieU",
            "data": {
                "attack": {
                    "value": ""
                },
                "attackEffects": {
                    "custom": "",
                    "value": []
                },
                "bonus": {
                    "value": 8
                },
                "damageRolls": {
                    "0": {
                        "damage": "1d4",
                        "damageType": "piercing"
                    }
                },
                "description": {
                    "value": ""
                },
                "rules": [],
                "slug": null,
                "source": {
                    "value": ""
                },
                "traits": {
                    "custom": "",
                    "rarity": {
                        "value": "common"
                    },
                    "value": [
                        "agile",
                        "finesse",
                        "thrown-10",
                        "versatile-s"
                    ]
                },
                "weaponType": {
                    "value": "melee"
                }
            },
            "effects": [],
            "flags": {},
            "img": "systems/pf2e/icons/default-icons/melee.svg",
            "name": "Dagger",
            "sort": 300000,
            "type": "melee"
        },
        {
            "_id": "n72S7jEvm5AQeVky",
            "data": {
                "attack": {
                    "value": ""
                },
                "attackEffects": {
                    "custom": "",
                    "value": []
                },
                "bonus": {
                    "value": 8
                },
                "damageRolls": {
                    "0": {
                        "damage": "1d4",
                        "damageType": "piercing"
                    }
                },
                "description": {
                    "value": ""
                },
                "rules": [],
                "slug": null,
                "source": {
                    "value": ""
                },
                "traits": {
                    "custom": "",
                    "rarity": {
                        "value": "common"
                    },
                    "value": [
                        "agile",
                        "finesse",
                        "thrown-10",
                        "versatile-s"
                    ]
                },
                "weaponType": {
                    "value": "ranged"
                }
            },
            "effects": [],
            "flags": {},
            "img": "systems/pf2e/icons/default-icons/melee.svg",
            "name": "Dagger",
            "sort": 400000,
            "type": "melee"
        },
        {
            "_id": "3aasDsiXoE4xtSVZ",
            "data": {
                "actionCategory": {
                    "value": "interaction"
                },
                "actionType": {
                    "value": "passive"
                },
                "actions": {
                    "value": null
                },
                "description": {
                    "value": "<p>Skebs can use creatures that are at least one size larger than themself as cover for the @Compendium[pf2e.actionspf2e.Hide]{Hide} and @Compendium[pf2e.actionspf2e.Sneak]{Sneak} actions.</p>"
                },
                "requirements": {
                    "value": ""
                },
                "rules": [],
                "slug": null,
                "source": {
                    "value": ""
                },
                "traits": {
                    "custom": "",
                    "rarity": {
                        "value": "common"
                    },
                    "value": []
                },
                "trigger": {
                    "value": ""
                },
                "weapon": {
                    "value": ""
                }
            },
            "effects": [],
            "flags": {},
            "img": "systems/pf2e/icons/actions/Passive.webp",
            "name": "Distracting Shadows",
            "sort": 500000,
            "type": "action"
        },
        {
            "_id": "ZEbYuhDFGc3fADE1",
            "data": {
                "actionCategory": {
                    "value": "offensive"
                },
                "actionType": {
                    "value": "passive"
                },
                "actions": {
                    "value": null
                },
                "description": {
                    "value": "<p>Skebs deals [[/r {1d6}[precision]]]{1d6 extra precision damage} to @Compendium[pf2e.conditionitems.Flat-Footed]{Flat-Footed} creatures.</p>\n<hr />\n<p>When the monster Strikes a creature that has the flat-footed condition with an agile or finesse melee weapon, an agile or finesse unarmed attack, or a ranged weapon attack, it also deals the listed precision damage. For a ranged attack with a thrown weapon, that weapon must also be an agile or finesse weapon.</p>"
                },
                "requirements": {
                    "value": ""
                },
                "rules": [
                    {
                        "category": "precision",
                        "diceNumber": 1,
                        "dieSize": "d6",
                        "key": "DamageDice",
                        "predicate": {
                            "all": [
                                "target:flatFooted"
                            ],
                            "any": [
                                "finesse",
                                "agile",
                                "ranged"
                            ]
                        },
                        "selector": "damage"
                    }
                ],
                "slug": "sneak-attack",
                "source": {
                    "value": ""
                },
                "traits": {
                    "custom": "",
                    "rarity": {
                        "value": "common"
                    },
                    "value": []
                },
                "trigger": {
                    "value": ""
                },
                "weapon": {
                    "value": ""
                }
            },
            "effects": [],
            "flags": {
                "core": {
                    "sourceId": "Compendium.pf2e.bestiary-ability-glossary-srd.AWvNPE4U0kEJSL1T"
                }
            },
            "img": "systems/pf2e/icons/actions/Passive.webp",
            "name": "Sneak Attack",
            "sort": 600000,
            "type": "action"
        },
        {
            "_id": "R1Z4thKcL4rqKeIU",
            "data": {
                "description": {
                    "value": ""
                },
                "item": {
                    "value": 0
                },
                "mod": {
                    "value": 5
                },
                "proficient": {
                    "value": 0
                },
                "rules": [],
                "slug": null,
                "source": {
                    "value": ""
                },
                "traits": {
                    "custom": "",
                    "rarity": {
                        "value": "common"
                    },
                    "value": []
                }
            },
            "effects": [],
            "flags": {},
            "img": "systems/pf2e/icons/default-icons/lore.svg",
            "name": "Acrobatics",
            "sort": 700000,
            "type": "lore"
        },
        {
            "_id": "dHBvH3xpbyfvFCJB",
            "data": {
                "description": {
                    "value": ""
                },
                "item": {
                    "value": 0
                },
                "mod": {
                    "value": 2
                },
                "proficient": {
                    "value": 0
                },
                "rules": [],
                "slug": null,
                "source": {
                    "value": ""
                },
                "traits": {
                    "custom": "",
                    "rarity": {
                        "value": "common"
                    },
                    "value": []
                }
            },
            "effects": [],
            "flags": {},
            "img": "systems/pf2e/icons/default-icons/lore.svg",
            "name": "Deception",
            "sort": 800000,
            "type": "lore"
        },
        {
            "_id": "ewk2IbpwKtF7Get4",
            "data": {
                "description": {
                    "value": ""
                },
                "item": {
                    "value": 0
                },
                "mod": {
                    "value": 5
                },
                "proficient": {
                    "value": 0
                },
                "rules": [],
                "slug": null,
                "source": {
                    "value": ""
                },
                "traits": {
                    "custom": "",
                    "rarity": {
                        "value": "common"
                    },
                    "value": []
                }
            },
            "effects": [],
            "flags": {},
            "img": "systems/pf2e/icons/default-icons/lore.svg",
            "name": "Stealth",
            "sort": 900000,
            "type": "lore"
        },
        {
            "_id": "Hd1nT3lHbGUu3VuF",
            "data": {
                "description": {
                    "value": ""
                },
                "item": {
                    "value": 0
                },
                "mod": {
                    "value": 5
                },
                "proficient": {
                    "value": 0
                },
                "rules": [],
                "slug": null,
                "source": {
                    "value": ""
                },
                "traits": {
                    "custom": "",
                    "rarity": {
                        "value": "common"
                    },
                    "value": []
                }
            },
            "effects": [],
            "flags": {},
            "img": "systems/pf2e/icons/default-icons/lore.svg",
            "name": "Thievery",
            "sort": 1000000,
            "type": "lore"
        }
    ],
    "name": "Skebs",
    "token": {
        "disposition": -1,
        "height": 1,
        "img": "systems/pf2e/icons/default-icons/npc.svg",
        "name": "Skebs",
        "width": 1
    },
    "type": "npc"
}
