{
    "_id": "JFcEtt18SGlb5uxm",
    "data": {
        "attributes": {
            "ac": {
                "value": 34
            },
            "hardness": 22,
            "hasHealth": true,
            "hp": {
                "details": "; <b>Control Panel Hardness</b> 10; <b>Control Panel HP</b> 20 (BT 10)",
                "max": 96,
                "temp": 0,
                "tempmax": 0,
                "value": 96
            },
            "stealth": {
                "details": "(master)",
                "value": 30
            }
        },
        "creatureType": "",
        "details": {
            "description": "Six statues rapidly slide around the room on rollers, slowing down intruders and striking at them with spring-loaded sword arms. ",
            "disable": "DC 34 Thievery (master) to disable a specific statue's rollers, or DC 39 Thievery (master) on the control panel in <b>A4</b> deactivates the whole trap. For each statue disabled, the trap loses 1 action from its routine and the DC for its predictive impediment ability decreases by 4. <i>Dispel magic</i> (7th level, counteract DC 32) doesn't harm the statues but removes the predictive impediment ability. Breaking the control panel prevents the trap from resetting.",
            "isComplex": true,
            "level": {
                "value": 14
            },
            "reset": "The trap deactivates and resets one minute after the room is empty. ",
            "routine": "(6 actions) On the trap's initiative, each functioning statue slides up to 40 feet around the room and makes a statue shortsword Strike against an adjacent creature. The trap doesn't take a multiple attack penalty, and the statues' movements don't trigger reactions."
        },
        "saves": {
            "fortitude": {
                "saveDetail": "",
                "value": 20
            },
            "reflex": {
                "saveDetail": "",
                "value": 28
            },
            "will": {
                "saveDetail": "",
                "value": 0
            }
        },
        "source": {
            "value": "Pathfinder #160: Assault on Hunting Lodge Seven"
        },
        "statusEffects": [],
        "traits": {
            "ci": [],
            "di": {
                "custom": "",
                "selected": {},
                "value": [
                    "critical-hits",
                    "object-immunities",
                    "precision"
                ]
            },
            "dr": [],
            "dv": [],
            "rarity": {
                "value": "common"
            },
            "size": {
                "value": "med"
            },
            "traits": {
                "custom": "",
                "value": [
                    "magical",
                    "mechanical"
                ]
            }
        }
    },
    "effects": [],
    "flags": {},
    "img": "systems/pf2e/icons/default-icons/hazard.svg",
    "items": [
        {
            "_id": "pNlE1um147bT0E6P",
            "data": {
                "actionCategory": {
                    "value": "offensive"
                },
                "actionType": {
                    "value": "reaction"
                },
                "actions": {
                    "value": null
                },
                "description": {
                    "value": "<p data-visibility=\"gm\"><strong>Trigger</strong> A creature enters a square adjacent to a statue; <strong>Effect</strong> The trap makes a statue shortsword Strike against the triggering creature, activates its predictive impediment ability, and then rolls initiative.</p>"
                },
                "requirements": {
                    "value": ""
                },
                "rules": [],
                "slug": null,
                "source": {
                    "value": ""
                },
                "traits": {
                    "custom": "",
                    "rarity": {
                        "value": "common"
                    },
                    "value": []
                },
                "trigger": {
                    "value": ""
                },
                "weapon": {
                    "value": ""
                }
            },
            "effects": [],
            "flags": {},
            "img": "systems/pf2e/icons/actions/Reaction.webp",
            "name": "Animated Statues",
            "sort": 100000,
            "type": "action"
        },
        {
            "_id": "x85871wfT5AGGHSb",
            "data": {
                "actionCategory": {
                    "value": "offensive"
                },
                "actionType": {
                    "value": "passive"
                },
                "actions": {
                    "value": null
                },
                "description": {
                    "value": "<p>The statues continually slide around to bump into creatures and block their passage through the room. The first time on its turn that a creature attempts to move within the room, it must succeed at a <span data-pf2-check=\"reflex\" data-pf2-dc=\"36\" data-pf2-traits=\"arcane,divination\" data-pf2-label=\"Predictive Impediment DC\" data-pf2-show-dc=\"gm\">Reflex</span> save or treat the entire room as difficult terrain for 1 round. On a critical failure, the creature is also knocked prone.</p>"
                },
                "requirements": {
                    "value": ""
                },
                "rules": [],
                "slug": null,
                "source": {
                    "value": ""
                },
                "traits": {
                    "custom": "",
                    "rarity": {
                        "value": "common"
                    },
                    "value": [
                        "arcane",
                        "divination"
                    ]
                },
                "trigger": {
                    "value": ""
                },
                "weapon": {
                    "value": ""
                }
            },
            "effects": [],
            "flags": {},
            "img": "systems/pf2e/icons/actions/Passive.webp",
            "name": "Predictive Impediment",
            "sort": 200000,
            "type": "action"
        },
        {
            "_id": "VyojjmuQFpZR3NHk",
            "data": {
                "attack": {
                    "value": ""
                },
                "attackEffects": {
                    "custom": "",
                    "value": []
                },
                "bonus": {
                    "value": 28
                },
                "damageRolls": {
                    "ai6gplx5e9o56x26jzxh": {
                        "damage": "2d10+10",
                        "damageType": "slashing"
                    }
                },
                "description": {
                    "value": ""
                },
                "rules": [],
                "slug": null,
                "source": {
                    "value": ""
                },
                "traits": {
                    "custom": "",
                    "rarity": {
                        "value": "common"
                    },
                    "value": []
                },
                "weaponType": {
                    "value": "melee"
                }
            },
            "effects": [],
            "flags": {},
            "img": "systems/pf2e/icons/default-icons/melee.svg",
            "name": "statue shortsword",
            "sort": 300000,
            "type": "melee"
        }
    ],
    "name": "Supplicant Statues",
    "token": {
        "disposition": 0,
        "height": 1,
        "img": "systems/pf2e/icons/default-icons/hazard.svg",
        "name": "Supplicant Statues",
        "width": 1
    },
    "type": "hazard"
}
