{
    "_id": "ZHabYxSgYK0XbjhM",
    "data": {
        "actionCategory": {
            "value": ""
        },
        "actionType": {
            "value": "passive"
        },
        "actions": {
            "value": null
        },
        "description": {
            "value": "<p>The blood of dragons flows through your veins. These beasts are both fearsome in combat and skilled at magic</p>\n<p><strong>Spell List</strong> arcane</p>\n<p><strong>Bloodline Skills</strong> Arcana, Intimidation</p>\n<p><strong>Granted Spells</strong> cantrip <em>@Compendium[pf2e.spells-srd.Shield]{Shield}</em>, 1st: <em>@Compendium[pf2e.spells-srd.True Strike]{True Strike}</em>, 2nd: <em>@Compendium[pf2e.spells-srd.Resist Energy]{Resist Energy}</em>, 3rd: <em>@Compendium[pf2e.spells-srd.Haste]{Haste}</em>, 4th: <em>@Compendium[pf2e.spells-srd.Spell Immunity]{Spell Immunity}</em>, 5th: <em>@Compendium[pf2e.spells-srd.Chromatic Wall]{Chromatic Wall}</em>, 6th: <em>@Compendium[pf2e.spells-srd.Dragon Form]{Dragon Form}</em>, 7th: <em>@Compendium[pf2e.spells-srd.Mask of Terror]{Mask of Terror}</em>, 8th: <em>@Compendium[pf2e.spells-srd.Prismatic Wall]{Prismatic Wall}</em>, 9th: <em>@Compendium[pf2e.spells-srd.Overwhelming Presence]{Overwhelming Presence}</em></p>\n<p><strong>Bloodline Spells</strong> initial: <em>@Compendium[pf2e.spells-srd.Dragon Claws]{Dragon Claws}</em>, advanced: <em>@Compendium[pf2e.spells-srd.Dragon Breath]{Dragon Breath}</em>, greater: <em>@Compendium[pf2e.spells-srd.Dragon Wings]{Dragon Wings}</em></p>\n<p><strong>Blood Magic</strong> Draconic scales grow briefly on you or one target, granting a +1 status bonus to AC for 1 round.</p>\n<p>@Compendium[pf2e.feature-effects.Effect: Draconic Blood Magic]{Effect: Draconic Blood Magic}</p>\n<h2 class=\"title\">Dragon Type</h2>\n<p>At 1st level, choose the type of dragon that influenced your bloodline. You can't change your dragon type later. This affects how some of your bloodline spells function.</p>\n<p>The good metallic dragons and their damage types are brass (fire), bronze (electricity), copper (acid), gold (fire), and silver (cold).</p>\n<p>The evil chromatic dragons and their damage types are black (acid), blue (electricity), green (poison), red (fire), and white (cold).</p>\n<h2 class=\"title\">Related bloodline</h2>\n<p>Because the wyrmblessed and draconic bloodlines have similar origins, they count the same as each other for the purposes of prerequisites and access requirements.</p>"
        },
        "featType": {
            "value": "classfeature"
        },
        "level": {
            "value": 1
        },
        "location": "",
        "prerequisites": {
            "value": []
        },
        "rules": [
            {
                "key": "ActiveEffectLike",
                "mode": "upgrade",
                "path": "data.resources.focus.max",
                "priority": 10,
                "value": 1
            },
            {
                "key": "ActiveEffectLike",
                "mode": "upgrade",
                "path": "data.skills.arc.rank",
                "value": 1
            },
            {
                "key": "ActiveEffectLike",
                "mode": "upgrade",
                "path": "data.skills.itm.rank",
                "value": 1
            },
            {
                "key": "ActiveEffectLike",
                "mode": "override",
                "path": "data.proficiencies.aliases.sorcerer",
                "priority": 39,
                "value": "arcane"
            }
        ],
        "source": {
            "value": ""
        },
        "traits": {
            "custom": "",
            "rarity": {
                "value": "common"
            },
            "value": [
                "sorcerer"
            ]
        }
    },
    "effects": [],
    "flags": {},
    "img": "systems/pf2e/icons/features/classes/draconic.webp",
    "name": "Bloodline: Draconic",
    "type": "feat"
}
