{
    "_id": "mdzk070ixIDpid7V",
    "data": {
        "actionCategory": {
            "value": ""
        },
        "actionType": {
            "value": "passive"
        },
        "actions": {
            "value": null
        },
        "description": {
            "value": "<p><strong>Magus</strong>: Your fundamental understanding of magic improves, making your spells harder to resist. Your proficiency ranks for arcane spell attack rolls and spell DCs increase to expert.</p>\n<hr />\n<p><strong>Summoner</strong>: As your connection to your eidolon deepens, the power of your spells increases. Your proficiency ranks for spell attack rolls and spell DCs for spells of your eidolon's tradition increase to expert.</p>"
        },
        "featType": {
            "value": "classfeature"
        },
        "level": {
            "value": 9
        },
        "location": "",
        "prerequisites": {
            "value": []
        },
        "rules": [],
        "source": {
            "value": ""
        },
        "traits": {
            "custom": "",
            "rarity": {
                "value": "common"
            },
            "value": [
                "magus",
                "summoner"
            ]
        }
    },
    "effects": [],
    "flags": {},
    "img": "systems/pf2e/icons/features/classes/expert-spellcaster.webp",
    "name": "Expert Spellcaster (Level 9)",
    "type": "feat"
}
