{
    "_id": "CGetAmSbv06fW7GT",
    "data": {
        "actionCategory": {
            "value": ""
        },
        "actionType": {
            "value": "passive"
        },
        "actions": {
            "value": null
        },
        "description": {
            "value": "<p>You have perfected your perpetual infusions, allowing you to use @Compendium[pf2e.classfeatures.Quick Alchemy]{Quick Alchemy} to create even more powerful items at no cost. The items you can select depend on your research field and must be in your formula book.</p>\n<p>The greater versions of the mutagens you chose for perpetual infusions.</p>"
        },
        "featType": {
            "value": "classfeature"
        },
        "level": {
            "value": 17
        },
        "location": "",
        "prerequisites": {
            "value": []
        },
        "rules": [],
        "source": {
            "value": ""
        },
        "traits": {
            "custom": "",
            "rarity": {
                "value": "common"
            },
            "value": [
                "alchemist"
            ]
        }
    },
    "effects": [],
    "flags": {},
    "img": "systems/pf2e/icons/features/classes/perpetual-perfection-mutagenist.webp",
    "name": "Perpetual Perfection (Mutagenist)",
    "type": "feat"
}
