{
    "_id": "4lGhbEjlEoGP4scl",
    "data": {
        "actionCategory": {
            "value": ""
        },
        "actionType": {
            "value": "passive"
        },
        "actions": {
            "value": null
        },
        "description": {
            "value": "<p>You are friendly, clever, and full of humor, always knowing just what to say in any situation. Your witticisms leave foes unprepared for the skill and speed of your attacks.</p>\n<p>You are trained in Diplomacy and gain the @Compendium[pf2e.feats-srd.Bon Mot]{Bon Mot} skill feat. You gain @Compendium[pf2e.classfeatures.Panache]{Panache} during an encounter whenever you succeed at a Bon Mot against a foe.</p>"
        },
        "featType": {
            "value": "classfeature"
        },
        "level": {
            "value": 1
        },
        "location": "",
        "prerequisites": {
            "value": []
        },
        "rules": [
            {
                "key": "FlatModifier",
                "predicate": {
                    "all": [
                        "panache"
                    ],
                    "any": [
                        "action:bon-mot"
                    ]
                },
                "selector": "diplomacy",
                "type": "circumstance",
                "value": 1
            },
            {
                "key": "ActiveEffectLike",
                "mode": "upgrade",
                "path": "data.skills.dip.rank",
                "value": 1
            }
        ],
        "source": {
            "value": ""
        },
        "traits": {
            "custom": "",
            "rarity": {
                "value": "common"
            },
            "value": [
                "swashbuckler"
            ]
        }
    },
    "effects": [],
    "flags": {},
    "img": "systems/pf2e/icons/features/classes/wit-style.webp",
    "name": "Wit Style",
    "type": "feat"
}
