{
    "_id": "FERUCyMwvy4Nejou",
    "data": {
        "abilities": {
            "cha": {
                "mod": 1
            },
            "con": {
                "mod": 4
            },
            "dex": {
                "mod": 4
            },
            "int": {
                "mod": 0
            },
            "str": {
                "mod": 6
            },
            "wis": {
                "mod": 3
            }
        },
        "attributes": {
            "ac": {
                "details": "",
                "value": 25
            },
            "allSaves": {
                "value": "+1 status to all saves vs. magic"
            },
            "hp": {
                "details": "",
                "max": 110,
                "temp": 0,
                "value": 110
            },
            "initiative": {
                "ability": "perception"
            },
            "perception": {
                "value": 16
            },
            "shield": {
                "ac": 0,
                "brokenThreshold": 0,
                "hardness": 0,
                "max": 0,
                "value": 0
            },
            "speed": {
                "otherSpeeds": [],
                "value": "35"
            }
        },
        "details": {
            "alignment": {
                "value": "LE"
            },
            "blurb": "",
            "creatureType": "Beast, Fiend",
            "level": {
                "value": 7
            },
            "privateNotes": "",
            "publicNotes": "<p>Hellcats are devious predators native to the fiery pits of Hell. While the fiendish creatures appears as skeletal smilodons, their bones smoking with heat and dripping with boiling blood, they are not undead. They are living hellspawn with transparent flesh that reveals their burning skeletons. A typical hellcat is 9 feet long and weighs 1,000 pounds.</p>\n<p>Left to their own devices, hellcats spend their time hunting-that is, seeking and stalking prey just for the thrill of the chase. As fiendish creatures, they do not require mortal sustenance, but they do devour their prey for the sheer pleasure of inflicting pain. They are also far more intelligent than most assume, and they resent being treated as unintelligent animals; those who treat a hellcat as a one may find themself made into a trophy for its pack, as a hellcat goes to great lengths to coordinate elaborate revenge upon those who fail to show proper respect.</p>\n<p>Though they can't speak, hellcats know Infernal and can communicate by telepathy with any creature capable of speech. They rarely say much except to make whispered threats and to acknowledge the orders of their diabolic masters.</p>\n<p>Hellcats are quick to retreat if they are clearly outmatched or up against foes they're unable to reach, but they never forget prey that escapes them. They often track potential victims and recruit allies, including other hellcats, to make coordinated attacks or ambushes against their foes.</p>",
            "source": {
                "value": "Pathfinder Bestiary 2"
            }
        },
        "resources": {},
        "saves": {
            "fortitude": {
                "saveDetail": "",
                "value": 15
            },
            "reflex": {
                "saveDetail": "",
                "value": 17
            },
            "will": {
                "saveDetail": "",
                "value": 12
            }
        },
        "traits": {
            "attitude": {
                "value": "hostile"
            },
            "ci": [],
            "di": {
                "custom": "",
                "value": []
            },
            "dr": [
                {
                    "label": "Fire",
                    "type": "fire",
                    "value": "10"
                },
                {
                    "exceptions": "silver",
                    "label": "Physical",
                    "type": "physical",
                    "value": "5"
                }
            ],
            "dv": [
                {
                    "label": "Good",
                    "type": "good",
                    "value": "5"
                }
            ],
            "languages": {
                "custom": "Can't Speak Any Language, Telepathy 100 feet",
                "selected": [],
                "value": [
                    "infernal"
                ]
            },
            "rarity": {
                "value": "common"
            },
            "senses": {
                "value": "darkvision, scent (imprecise) 30 feet"
            },
            "size": {
                "value": "lg"
            },
            "traits": {
                "custom": "",
                "value": [
                    "beast",
                    "fiend"
                ]
            }
        }
    },
    "effects": [],
    "flags": {},
    "img": "systems/pf2e/icons/default-icons/npc.svg",
    "items": [
        {
            "_id": "qeIQpw65yitumRkB",
            "data": {
                "attack": {
                    "value": ""
                },
                "attackEffects": {
                    "value": []
                },
                "bonus": {
                    "value": 18
                },
                "damageRolls": {
                    "dobfm2lz79d0dpvmtzqy": {
                        "damage": "2d12+7",
                        "damageType": "piercing"
                    }
                },
                "description": {
                    "value": ""
                },
                "rules": [],
                "slug": null,
                "source": {
                    "value": ""
                },
                "traits": {
                    "custom": "",
                    "rarity": {
                        "value": "common"
                    },
                    "value": []
                },
                "weaponType": {
                    "value": "melee"
                }
            },
            "effects": [],
            "flags": {},
            "img": "systems/pf2e/icons/default-icons/melee.svg",
            "name": "Jaws",
            "sort": 100000,
            "type": "melee"
        },
        {
            "_id": "mLqIKRgLPV3i0SWY",
            "data": {
                "attack": {
                    "value": ""
                },
                "attackEffects": {
                    "value": []
                },
                "bonus": {
                    "value": 18
                },
                "damageRolls": {
                    "plz990ck0lcf43y073q9": {
                        "damage": "2d8+7",
                        "damageType": "slashing"
                    }
                },
                "description": {
                    "value": ""
                },
                "rules": [],
                "slug": null,
                "source": {
                    "value": ""
                },
                "traits": {
                    "custom": "",
                    "rarity": {
                        "value": "common"
                    },
                    "value": [
                        "agile"
                    ]
                },
                "weaponType": {
                    "value": "melee"
                }
            },
            "effects": [],
            "flags": {},
            "img": "systems/pf2e/icons/default-icons/melee.svg",
            "name": "Claw",
            "sort": 200000,
            "type": "melee"
        },
        {
            "_id": "VtQnDFC3P9Efec5Z",
            "data": {
                "actionCategory": {
                    "value": "interaction"
                },
                "actionType": {
                    "value": "passive"
                },
                "actions": {
                    "value": null
                },
                "description": {
                    "value": "<p>@Localize[PF2E.NPC.Abilities.Glossary.Darkvision]</p>"
                },
                "requirements": {
                    "value": ""
                },
                "rules": [],
                "slug": "darkvision",
                "source": {
                    "value": ""
                },
                "traits": {
                    "custom": "",
                    "rarity": {
                        "value": "common"
                    },
                    "value": []
                },
                "trigger": {
                    "value": ""
                },
                "weapon": {
                    "value": ""
                }
            },
            "effects": [],
            "flags": {
                "core": {
                    "sourceId": "Compendium.pf2e.bestiary-ability-glossary-srd.qCCLZhnp2HhP3Ex6"
                }
            },
            "img": "systems/pf2e/icons/default-icons/action.svg",
            "name": "Darkvision",
            "sort": 300000,
            "type": "action"
        },
        {
            "_id": "zuY7RRh4sY8cLE7O",
            "data": {
                "actionCategory": {
                    "value": "interaction"
                },
                "actionType": {
                    "value": "passive"
                },
                "actions": {
                    "value": null
                },
                "description": {
                    "value": "<p>@Localize[PF2E.NPC.Abilities.Glossary.Scent]</p>"
                },
                "requirements": {
                    "value": ""
                },
                "rules": [],
                "slug": "scent",
                "source": {
                    "value": ""
                },
                "traits": {
                    "custom": "",
                    "rarity": {
                        "value": "common"
                    },
                    "value": []
                },
                "trigger": {
                    "value": ""
                },
                "weapon": {
                    "value": ""
                }
            },
            "effects": [],
            "flags": {
                "core": {
                    "sourceId": "Compendium.pf2e.bestiary-ability-glossary-srd.rqfnQ5VHT5hxm25r"
                }
            },
            "img": "systems/pf2e/icons/default-icons/action.svg",
            "name": "Scent",
            "sort": 400000,
            "type": "action"
        },
        {
            "_id": "1UzzAnKlRhYDkzDO",
            "data": {
                "actionCategory": {
                    "value": "interaction"
                },
                "actionType": {
                    "value": "passive"
                },
                "actions": {
                    "value": null
                },
                "description": {
                    "value": "<p>@Localize[PF2E.NPC.Abilities.Glossary.Telepathy]</p>"
                },
                "requirements": {
                    "value": ""
                },
                "rules": [],
                "slug": "telepathy",
                "source": {
                    "value": ""
                },
                "traits": {
                    "custom": "",
                    "rarity": {
                        "value": "common"
                    },
                    "value": [
                        "aura",
                        "divination",
                        "magical"
                    ]
                },
                "trigger": {
                    "value": ""
                },
                "weapon": {
                    "value": ""
                }
            },
            "effects": [],
            "flags": {
                "core": {
                    "sourceId": "Compendium.pf2e.bestiary-ability-glossary-srd.kdhbPaBMK1d1fpbA"
                }
            },
            "img": "systems/pf2e/icons/default-icons/action.svg",
            "name": "Telepathy",
            "sort": 500000,
            "type": "action"
        },
        {
            "_id": "oC5vZAEFIISSmofG",
            "data": {
                "actionCategory": {
                    "value": "defensive"
                },
                "actionType": {
                    "value": "passive"
                },
                "actions": {
                    "value": null
                },
                "description": {
                    "value": ""
                },
                "requirements": {
                    "value": ""
                },
                "rules": [
                    {
                        "key": "FlatModifier",
                        "predicate": {
                            "any": [
                                "magical",
                                "arcane",
                                "primal",
                                "occult",
                                "divine"
                            ]
                        },
                        "selector": "saving-throw",
                        "type": "status",
                        "value": 1
                    }
                ],
                "slug": null,
                "source": {
                    "value": ""
                },
                "traits": {
                    "custom": "",
                    "rarity": {
                        "value": "common"
                    },
                    "value": []
                },
                "trigger": {
                    "value": ""
                },
                "weapon": {
                    "value": ""
                }
            },
            "effects": [],
            "flags": {},
            "img": "systems/pf2e/icons/default-icons/mystery-man.svg",
            "name": "+1 Status Bonus on Saves vs Magic",
            "sort": 600000,
            "type": "action"
        },
        {
            "_id": "ubj0ypG0da0nRirb",
            "data": {
                "actionCategory": {
                    "value": "defensive"
                },
                "actionType": {
                    "value": "reaction"
                },
                "actions": {
                    "value": null
                },
                "description": {
                    "value": "<p data-visibility=\"gm\"><strong>Trigger</strong> The hellcat begins its turn in bright light;</p>\n<p><strong>Effect</strong> The hellcat becomes @Compendium[pf2e.conditionitems.Invisible]{Invisible} until its no longer in bright light. If the hellcat uses a hostile action, the invisibility ends after that hostile action is completed.</p>"
                },
                "requirements": {
                    "value": ""
                },
                "rules": [],
                "slug": null,
                "source": {
                    "value": ""
                },
                "traits": {
                    "custom": "",
                    "rarity": {
                        "value": "common"
                    },
                    "value": [
                        "divine",
                        "illusion"
                    ]
                },
                "trigger": {
                    "value": ""
                },
                "weapon": {
                    "value": ""
                }
            },
            "effects": [],
            "flags": {},
            "img": "systems/pf2e/icons/actions/Reaction.webp",
            "name": "Fade into the Light",
            "sort": 700000,
            "type": "action"
        },
        {
            "_id": "eKrrD4BYO7xl9vPo",
            "data": {
                "actionCategory": {
                    "value": "offensive"
                },
                "actionType": {
                    "value": "passive"
                },
                "actions": {
                    "value": null
                },
                "description": {
                    "value": "<p>The hellcat deals an additional [[/r {1d6}[precision]]]{1d6 precision damage} to @Compendium[pf2e.conditionitems.Frightened]{Frightened} creatures.</p>"
                },
                "requirements": {
                    "value": ""
                },
                "rules": [
                    {
                        "key": "ToggleProperty",
                        "label": "Target is frightened",
                        "property": "flags.pf2e.rollOptions.all.fearful-attack"
                    },
                    {
                        "damageType": "precision",
                        "diceNumber": 1,
                        "dieSize": "d6",
                        "key": "DamageDice",
                        "predicate": {
                            "any": [
                                "fearful-attack",
                                "target:frightened"
                            ]
                        },
                        "selector": "damage"
                    }
                ],
                "slug": null,
                "source": {
                    "value": ""
                },
                "traits": {
                    "custom": "",
                    "rarity": {
                        "value": "common"
                    },
                    "value": []
                },
                "trigger": {
                    "value": ""
                },
                "weapon": {
                    "value": ""
                }
            },
            "effects": [],
            "flags": {},
            "img": "systems/pf2e/icons/default-icons/mystery-man.svg",
            "name": "Fearful Attack",
            "sort": 800000,
            "type": "action"
        },
        {
            "_id": "8Mkj5lFXbki11UgV",
            "data": {
                "actionCategory": {
                    "value": "offensive"
                },
                "actionType": {
                    "value": "action"
                },
                "actions": {
                    "value": 1
                },
                "description": {
                    "value": "<p>The hellcat telepathically link its senses to all other hellcats within 100 feet for 10 minutes. It loses this contact with any hellcat that moves out of a 100-foot radius.</p>\n<p>While linked to at least one ally, the hellcat can't be flanked and gains a +2 status bonus to Will saving throws.</p>"
                },
                "requirements": {
                    "value": ""
                },
                "rules": [
                    {
                        "key": "ToggleProperty",
                        "property": "flags.pf2e.rollOptions.will.infernal-mindlink"
                    },
                    {
                        "key": "FlatModifier",
                        "predicate": {
                            "all": [
                                "infernal-mindlink"
                            ]
                        },
                        "selector": "will",
                        "type": "status",
                        "value": 2
                    }
                ],
                "slug": null,
                "source": {
                    "value": ""
                },
                "traits": {
                    "custom": "",
                    "rarity": {
                        "value": "common"
                    },
                    "value": [
                        "concentrate",
                        "divine",
                        "divination"
                    ]
                },
                "trigger": {
                    "value": ""
                },
                "weapon": {
                    "value": ""
                }
            },
            "effects": [],
            "flags": {},
            "img": "systems/pf2e/icons/actions/OneAction.webp",
            "name": "Infernal Mindlink",
            "sort": 900000,
            "type": "action"
        },
        {
            "_id": "mgA0es28Vb0TAr40",
            "data": {
                "actionCategory": {
                    "value": "offensive"
                },
                "actionType": {
                    "value": "action"
                },
                "actions": {
                    "value": 2
                },
                "description": {
                    "value": "<p>The hellcat produces a low growl to disorient and frighten foes. The hellcat can cause this vocalization to originate from somewhere else within 30 feet. Non-fiends in a 15-foot burst must attempt a <span data-pf2-check=\"will\" data-pf2-dc=\"25\" data-pf2-traits=\"auditory,emotion,fear,mental,fiends\" data-pf2-label=\"Menacing Growl DC\" data-pf2-show-dc=\"gm\">Will</span> save.</p>\n<p>The hellcat can't issue another Menacing Growl for [[/br 1d4 #rounds]]{1d4 rounds}.</p>\n<hr />\n<p><strong>Critical Success</strong> The creature is unaffected and is temporarily immune for 24 hours.</p>\n<p><strong>Success</strong> The creature is @Compendium[pf2e.conditionitems.Frightened]{Frightened 1}.</p>\n<p><strong>Failure</strong> The creature is @Compendium[pf2e.conditionitems.Frightened]{Frightened 2}.</p>\n<p><strong>Critical Failure</strong> The creature is @Compendium[pf2e.conditionitems.Frightened]{Frightened 4}.</p>"
                },
                "requirements": {
                    "value": ""
                },
                "rules": [],
                "slug": null,
                "source": {
                    "value": ""
                },
                "traits": {
                    "custom": "",
                    "rarity": {
                        "value": "common"
                    },
                    "value": [
                        "auditory",
                        "emotion",
                        "fear",
                        "mental",
                        "fiends"
                    ]
                },
                "trigger": {
                    "value": ""
                },
                "weapon": {
                    "value": ""
                }
            },
            "effects": [],
            "flags": {},
            "img": "systems/pf2e/icons/actions/TwoActions.webp",
            "name": "Menacing Growl",
            "sort": 1000000,
            "type": "action"
        },
        {
            "_id": "HT78d5cKcguY6IcL",
            "data": {
                "actionCategory": {
                    "value": "offensive"
                },
                "actionType": {
                    "value": "action"
                },
                "actions": {
                    "value": 1
                },
                "description": {
                    "value": "<p>The hellcat Strides and makes a Strike at the end of that movement. If the hellcat began this action @Compendium[pf2e.conditionitems.Hidden]{Hidden}, it remains hidden until after the ability's Strike.</p>"
                },
                "requirements": {
                    "value": ""
                },
                "rules": [],
                "slug": null,
                "source": {
                    "value": ""
                },
                "traits": {
                    "custom": "",
                    "rarity": {
                        "value": "common"
                    },
                    "value": []
                },
                "trigger": {
                    "value": ""
                },
                "weapon": {
                    "value": ""
                }
            },
            "effects": [],
            "flags": {},
            "img": "systems/pf2e/icons/default-icons/mystery-man.svg",
            "name": "Pounce",
            "sort": 1100000,
            "type": "action"
        },
        {
            "_id": "1s3jGcpujOk6zztR",
            "data": {
                "description": {
                    "value": ""
                },
                "item": {
                    "value": 0
                },
                "mod": {
                    "value": 17
                },
                "proficient": {
                    "value": 0
                },
                "rules": [],
                "slug": null,
                "source": {
                    "value": ""
                },
                "traits": {
                    "custom": "",
                    "rarity": {
                        "value": "common"
                    },
                    "value": []
                }
            },
            "effects": [],
            "flags": {},
            "img": "systems/pf2e/icons/default-icons/lore.svg",
            "name": "Acrobatics",
            "sort": 1200000,
            "type": "lore"
        },
        {
            "_id": "yPdRQY2DZLkUni71",
            "data": {
                "description": {
                    "value": ""
                },
                "item": {
                    "value": 0
                },
                "mod": {
                    "value": 17
                },
                "proficient": {
                    "value": 0
                },
                "rules": [],
                "slug": null,
                "source": {
                    "value": ""
                },
                "traits": {
                    "custom": "",
                    "rarity": {
                        "value": "common"
                    },
                    "value": []
                }
            },
            "effects": [],
            "flags": {},
            "img": "systems/pf2e/icons/default-icons/lore.svg",
            "name": "Athletics",
            "sort": 1300000,
            "type": "lore"
        },
        {
            "_id": "bjVGaspyGnkD3vF0",
            "data": {
                "description": {
                    "value": ""
                },
                "item": {
                    "value": 0
                },
                "mod": {
                    "value": 14
                },
                "proficient": {
                    "value": 0
                },
                "rules": [],
                "slug": null,
                "source": {
                    "value": ""
                },
                "traits": {
                    "custom": "",
                    "rarity": {
                        "value": "common"
                    },
                    "value": []
                }
            },
            "effects": [],
            "flags": {},
            "img": "systems/pf2e/icons/default-icons/lore.svg",
            "name": "Intimidation",
            "sort": 1400000,
            "type": "lore"
        },
        {
            "_id": "v20aKCzChVLwTplO",
            "data": {
                "description": {
                    "value": ""
                },
                "item": {
                    "value": 0
                },
                "mod": {
                    "value": 17
                },
                "proficient": {
                    "value": 0
                },
                "rules": [],
                "slug": null,
                "source": {
                    "value": ""
                },
                "traits": {
                    "custom": "",
                    "rarity": {
                        "value": "common"
                    },
                    "value": []
                }
            },
            "effects": [],
            "flags": {},
            "img": "systems/pf2e/icons/default-icons/lore.svg",
            "name": "Stealth",
            "sort": 1500000,
            "type": "lore"
        },
        {
            "_id": "cUlwSij716KalBOm",
            "data": {
                "description": {
                    "value": ""
                },
                "item": {
                    "value": 0
                },
                "mod": {
                    "value": 14
                },
                "proficient": {
                    "value": 0
                },
                "rules": [],
                "slug": null,
                "source": {
                    "value": ""
                },
                "traits": {
                    "custom": "",
                    "rarity": {
                        "value": "common"
                    },
                    "value": []
                }
            },
            "effects": [],
            "flags": {},
            "img": "systems/pf2e/icons/default-icons/lore.svg",
            "name": "Survival",
            "sort": 1600000,
            "type": "lore"
        }
    ],
    "name": "Hellcat",
    "token": {
        "disposition": -1,
        "height": 2,
        "img": "systems/pf2e/icons/default-icons/npc.svg",
        "name": "Hellcat",
        "width": 2
    },
    "type": "npc"
}
