{
    "_id": "yBTASi3FvnReAwHy",
    "data": {
        "description": {
            "value": "<p>The target has been affected by a rogue's @Compendium[pf2e.actionspf2e.Debilitating Strike]{Debilitating Strike}.</p>\n<p><em>Note: this effect only tracks the duration of the debilitation. You need to manually apply the specific penalties the rogue chose to apply.</em></p>"
        },
        "duration": {
            "expiry": "turn-end",
            "sustained": false,
            "unit": "rounds",
            "value": 1
        },
        "level": {
            "value": 1
        },
        "rules": [],
        "source": {
            "value": ""
        },
        "start": {
            "initiative": null,
            "value": 0
        },
        "target": null,
        "tokenIcon": {
            "show": true
        },
        "traits": {
            "custom": "",
            "rarity": {
                "value": "common"
            },
            "value": []
        }
    },
    "effects": [],
    "flags": {},
    "img": "systems/pf2e/icons/features/classes/debilitating-strikes.webp",
    "name": "Effect: Debilitating Strike",
    "type": "effect"
}
