{
    "_id": "T6En6oEDwSycRyAG",
    "data": {
        "description": {
            "value": "<p>The smoke, heat, and crackling flames of your curse fill your vision and all your other senses.</p>\n<p>Creatures further than 30 feet are @Compendium[pf2e.conditionitems.Concealed]{Concealed} from you. You can't benefit from effects that would allow you to ignore or mitigate this concealment, as normal for effects of an oracular curse.</p>\n<hr />\n<p><em>Note: You need to apply the effects of this curse manually.</em></p>"
        },
        "duration": {
            "expiry": "turn-start",
            "sustained": false,
            "unit": "unlimited",
            "value": -1
        },
        "level": {
            "value": 1
        },
        "rules": [],
        "source": {
            "value": ""
        },
        "start": {
            "initiative": null,
            "value": 0
        },
        "target": null,
        "tokenIcon": {
            "show": true
        },
        "traits": {
            "custom": "",
            "rarity": {
                "value": "common"
            },
            "value": []
        }
    },
    "effects": [],
    "flags": {},
    "img": "systems/pf2e/icons/features/classes/flames-mystery.webp",
    "name": "Effect: Minor Flames Curse",
    "type": "effect"
}
