{
    "_id": "MrLjJVltBpvMMD8Q",
    "data": {
        "description": {
            "value": "<p>The flow of information through your mind grows.</p>\n<p>You take a -4 penalty to initiative, as trying to process a surge of information about what's happening around you slows your ability to respond to it.</p>\n<p>The attention you divert to process this huge influx of information means you are always @Compendium[pf2e.conditionitems.Flat-Footed]{Flat-Footed}.</p>\n<p>At the start of each of your turns, you automatically make one check to @Compendium[pf2e.actionspf2e.Recall Knowledge (Arcana)]{Recall Knowledge} as a free action. This uses a skill of your choice that has the Recall Knowledge action, using a result equal to 10 + your proficiency bonus in that skill (with no other bonuses, penalties, or modifiers).</p>\n<hr />\n<p><em>Note: The penalty to initiative rolls is applied automatically. You need to apply the remaining effects manually.</em></p>"
        },
        "duration": {
            "expiry": "turn-start",
            "sustained": false,
            "unit": "unlimited",
            "value": -1
        },
        "level": {
            "value": 1
        },
        "rules": [
            {
                "key": "FlatModifier",
                "selector": "initiative",
                "value": -4
            }
        ],
        "source": {
            "value": ""
        },
        "start": {
            "initiative": null,
            "value": 0
        },
        "target": null,
        "tokenIcon": {
            "show": true
        },
        "traits": {
            "custom": "",
            "rarity": {
                "value": "common"
            },
            "value": []
        }
    },
    "effects": [],
    "flags": {},
    "img": "systems/pf2e/icons/features/classes/lore-mystery.webp",
    "name": "Effect: Moderate Lore Curse",
    "type": "effect"
}
