{
    "_id": "kRsmUlSWhi6PJvZ7",
    "data": {
        "ability": {
            "value": ""
        },
        "area": {
            "areaType": "",
            "value": ""
        },
        "areasize": {
            "value": ""
        },
        "category": {
            "value": "focus"
        },
        "components": {
            "material": false,
            "somatic": true,
            "verbal": true
        },
        "cost": {
            "value": ""
        },
        "damage": {
            "value": {}
        },
        "description": {
            "value": "<p>Wings of pure light spread out from your back, granting you a fly Speed equal to your Speed. Your wings cast bright light in a 30-foot radius. When this spell's duration would end, if you're still flying, you float to the ground, as <em>@Compendium[pf2e.spells-srd.Feather Fall]{Feather Fall}</em>.</p>\n<hr />\n<p><strong>Heightened (5th)</strong> The duration increases to 1 minute.</p>\n<p>@Compendium[pf2e.spell-effects.Spell Effect: Angelic Wings]{Spell Effect: Angelic Wings}</p>"
        },
        "duration": {
            "value": "3 rounds"
        },
        "hasCounteractCheck": {
            "value": false
        },
        "level": {
            "value": 3
        },
        "location": {
            "value": ""
        },
        "materials": {
            "value": ""
        },
        "prepared": {
            "value": ""
        },
        "primarycheck": {
            "value": ""
        },
        "range": {
            "value": ""
        },
        "rules": [],
        "save": {
            "basic": "",
            "value": ""
        },
        "school": {
            "value": "evocation"
        },
        "secondarycasters": {
            "value": ""
        },
        "secondarycheck": {
            "value": ""
        },
        "source": {
            "value": "Pathfinder Core Rulebook"
        },
        "spellType": {
            "value": "utility"
        },
        "sustained": {
            "value": false
        },
        "target": {
            "value": ""
        },
        "time": {
            "value": "2"
        },
        "traditions": {
            "value": []
        },
        "traits": {
            "custom": "",
            "rarity": {
                "value": "uncommon"
            },
            "value": [
                "light",
                "sorcerer"
            ]
        }
    },
    "effects": [],
    "flags": {},
    "img": "systems/pf2e/icons/spells/angelic-wings.webp",
    "name": "Angelic Wings",
    "type": "spell"
}
