{
    "_id": "dL3A7H4LlRH26Imo",
    "data": {
        "ability": {
            "value": ""
        },
        "area": {
            "areaType": "",
            "value": ""
        },
        "autoHeightenLevel": {
            "value": null
        },
        "category": {
            "value": "ritual"
        },
        "components": {
            "material": false,
            "somatic": false,
            "verbal": false
        },
        "cost": {
            "value": "rare silks worth a total value of 20 gp x the spell level"
        },
        "damage": {
            "value": {}
        },
        "description": {
            "value": "<p>You and the secondary casters weave together spells (and, if anadis, silk) in a complex ritual that combines magical learning with art, allowing all the participants to share spells they know with one another.</p>\n<hr />\n<p><strong>Success</strong> You or any secondary caster can swap any spell in your spell repertoire for a spell in the spell repertoire of any other participant. This spell can't be a higher level than the ritual's level.</p>\n<p><strong>Failure</strong> None of the participants can swap spells.</p>\n<p><strong>Critical Failure</strong> As failure, and all participants are @Compendium[pf2e.conditionitems.Stupefied]{Stupefied 1} for 24 hours and can't reduce their stupefied condition below 1 for 24 hours.</p>"
        },
        "duration": {
            "value": ""
        },
        "hasCounteractCheck": {
            "value": false
        },
        "level": {
            "value": 3
        },
        "location": {
            "value": ""
        },
        "materials": {
            "value": ""
        },
        "prepared": {
            "value": ""
        },
        "primarycheck": {
            "value": "Arcana or Occultism"
        },
        "range": {
            "value": ""
        },
        "rules": [],
        "save": {
            "basic": "",
            "value": ""
        },
        "school": {
            "value": "divination"
        },
        "secondarycasters": {
            "value": "1"
        },
        "secondarycheck": {
            "value": "Arcana, Crafting, or Occultism"
        },
        "source": {
            "value": "Pathfinder #169: Kindled Magic"
        },
        "spellType": {
            "value": "attack"
        },
        "sustained": {
            "value": false
        },
        "target": {
            "value": ""
        },
        "time": {
            "value": "1 day"
        },
        "traditions": {
            "value": []
        },
        "traits": {
            "custom": "",
            "rarity": {
                "value": "uncommon"
            },
            "value": []
        }
    },
    "effects": [],
    "flags": {},
    "img": "systems/pf2e/icons/default-icons/spell.svg",
    "name": "Arcane Weaving",
    "type": "spell"
}
