{
    "_id": "B4dDkYsHFo1H0CIF",
    "data": {
        "ability": {
            "value": ""
        },
        "area": {
            "areaType": "",
            "value": null
        },
        "areasize": {
            "value": ""
        },
        "category": {
            "value": "ritual"
        },
        "components": {
            "material": false,
            "somatic": false,
            "verbal": false
        },
        "cost": {
            "value": "herbs, 1/5 the value on Table 7-1"
        },
        "damage": {
            "value": {}
        },
        "description": {
            "value": "<p>You grant intelligence to the target, transforming it into a beast. If it was previously an animal companion or minion, it can no longer serve as one.</p>\n<h2>Table 7-1: Creatures Creation Rituals</h2>\n<table class=\"pf2-table\">\n<thead>\n<tr>\n<th>Creature Level</th>\n<th>Spell Level Required</th>\n<th>Cost</th>\n</tr>\n</thead>\n<tbody>\n<tr>\n<td>-1 or 0</td>\n<td>2</td>\n<td>15 gp</td>\n</tr>\n<tr>\n<td>1</td>\n<td>2</td>\n<td>60 gp</td>\n</tr>\n<tr>\n<td>2</td>\n<td>3</td>\n<td>105 gp</td>\n</tr>\n<tr>\n<td>3</td>\n<td>3</td>\n<td>180 gp</td>\n</tr>\n<tr>\n<td>4</td>\n<td>4</td>\n<td>300 gp</td>\n</tr>\n<tr>\n<td>5</td>\n<td>4</td>\n<td>480 gp</td>\n</tr>\n<tr>\n<td>6</td>\n<td>5</td>\n<td>750 gp</td>\n</tr>\n<tr>\n<td>7</td>\n<td>5</td>\n<td>1,080 gp</td>\n</tr>\n<tr>\n<td>8</td>\n<td>6</td>\n<td>1,500 gp</td>\n</tr>\n<tr>\n<td>9</td>\n<td>6</td>\n<td>2,100 gp</td>\n</tr>\n<tr>\n<td>10</td>\n<td>7</td>\n<td>3,000 gp</td>\n</tr>\n<tr>\n<td>11</td>\n<td>7</td>\n<td>4,200 gp</td>\n</tr>\n<tr>\n<td>12</td>\n<td>8</td>\n<td>6,000 gp</td>\n</tr>\n<tr>\n<td>13</td>\n<td>8</td>\n<td>9,000 gp</td>\n</tr>\n<tr>\n<td>14</td>\n<td>9</td>\n<td>13,500 gp</td>\n</tr>\n<tr>\n<td>15</td>\n<td>9</td>\n<td>19,500 gp</td>\n</tr>\n<tr>\n<td>16</td>\n<td>10</td>\n<td>30,000 gp</td>\n</tr>\n<tr>\n<td>17</td>\n<td>10</td>\n<td>45,000 gp</td>\n</tr>\n</tbody>\n</table>\n<p><strong>Critical Success</strong> The target's Intelligence, Wisdom, and Charisma modifiers each increase to +2 if they were lower, and it becomes helpful to you for awakening it.</p>\n<p><strong>Success</strong> The target's Intelligence, Wisdom, and Charisma modifiers increase to +0 if they were worse and it becomes friendly to you for awakening it.</p>\n<p><strong>Failure</strong> You fail to awaken the target.</p>\n<p><strong>Critical Failure</strong> You accidentally awaken the target with a pure bestial hatred toward you. The target's Intelligence, Wisdom, and Charisma modifiers increase to -2 if they were worse. It becomes hostile to you, attempting to destroy you.</p>"
        },
        "duration": {
            "value": ""
        },
        "hasCounteractCheck": {
            "value": false
        },
        "level": {
            "value": 6
        },
        "location": {
            "value": ""
        },
        "materials": {
            "value": ""
        },
        "prepared": {
            "value": ""
        },
        "primarycheck": {
            "value": "Nature (master)"
        },
        "range": {
            "value": "10 feet"
        },
        "rules": [],
        "save": {
            "basic": "",
            "value": ""
        },
        "school": {
            "value": "divination"
        },
        "secondarycasters": {
            "value": "3"
        },
        "secondarycheck": {
            "value": "Lore (any), Society, Survival"
        },
        "source": {
            "value": "Pathfinder Secrets of Magic"
        },
        "spellType": {
            "value": "utility"
        },
        "sustained": {
            "value": false
        },
        "target": {
            "value": "1 animal up to the level on Table 7-1"
        },
        "time": {
            "value": "1 day"
        },
        "traditions": {
            "custom": "",
            "value": []
        },
        "traits": {
            "custom": "",
            "rarity": {
                "value": "uncommon"
            },
            "value": [
                "mental"
            ]
        }
    },
    "effects": [],
    "flags": {},
    "img": "systems/pf2e/icons/spells/awaken-animal.webp",
    "name": "Awaken Animal",
    "type": "spell"
}
