{
    "_id": "nQS4vPm5zprqkzFZ",
    "data": {
        "ability": {
            "value": ""
        },
        "area": {
            "value": ""
        },
        "areasize": {
            "value": ""
        },
        "category": {
            "value": "focus"
        },
        "components": {
            "material": false,
            "somatic": true,
            "verbal": true
        },
        "cost": {
            "value": ""
        },
        "damage": {
            "value": {}
        },
        "description": {
            "value": "<p>You focus your malevolent gaze on a target, causing their heart to seize in dread. The target must attempt a Fortitude saving throw. Regardless of the result, the target is temporarily immune to further castings of curse of death for 1 day.</p>\n<hr />\n<p><strong>Critical Success</strong> The target is unaffected.</p>\n<p><strong>Success</strong> The target is afflicted with the curse of death at stage 1, and the stage of the curse can't increase beyond stage 1.</p>\n<p><strong>Failure</strong> The target is afflicted with the curse of death at stage 1.</p>\n<p><strong>Critical Failure</strong> The target is afflicted with the curse of death at stage 2</p>\n<hr />\n<p><strong>Curse of Death</strong> (curse) This curse ends immediately when the spell ends;</p>\n<p><strong>Stage 1</strong>: [[/r {4d6}[negative]]]{4d6 negative damage} and @Compendium[pf2e.conditionitems.Fatigued]{Fatigued} (1 round);</p>\n<p><strong>Stage 2</strong>: [[/r {8d6}[negative]]]{8d6 negative damage} and fatigued (1 round);</p>\n<p><strong>Stage 3</strong>: [[/r {12d6}[negative]]]{12d6 negative damage} and fatigued (1 round);</p>\n<p><strong>Stage 4</strong>: death</p>\n<hr />\n<p><strong>Heightened (+1)</strong> Increase the negative damage taken on a success and during the first three stages of the curse by [[/r {1d6}[negative]]].</p>"
        },
        "duration": {
            "value": "sustained, up to 1 minute"
        },
        "hasCounteractCheck": {
            "value": false
        },
        "level": {
            "value": 5
        },
        "location": {
            "value": ""
        },
        "materials": {
            "value": ""
        },
        "prepared": {
            "value": ""
        },
        "primarycheck": {
            "value": ""
        },
        "range": {
            "value": "30 feet"
        },
        "rules": [],
        "save": {
            "basic": "",
            "value": "fortitude"
        },
        "school": {
            "value": "necromancy"
        },
        "secondarycasters": {
            "value": ""
        },
        "secondarycheck": {
            "value": ""
        },
        "source": {
            "value": "Pathfinder Advanced Player's Guide"
        },
        "spellType": {
            "value": "save"
        },
        "sustained": {
            "value": false
        },
        "target": {
            "value": "1 creature"
        },
        "time": {
            "value": "2"
        },
        "traditions": {
            "value": []
        },
        "traits": {
            "custom": "",
            "rarity": {
                "value": "uncommon"
            },
            "value": [
                "curse",
                "death",
                "witch"
            ]
        }
    },
    "effects": [],
    "flags": {},
    "img": "systems/pf2e/icons/spells/curse-of-death.webp",
    "name": "Curse of Death",
    "type": "spell"
}
