{
    "_id": "JHntYF0SbaWKq7wR",
    "data": {
        "ability": {
            "value": ""
        },
        "area": {
            "areaType": "",
            "value": ""
        },
        "autoHeightenLevel": {
            "value": null
        },
        "category": {
            "value": "spell"
        },
        "components": {
            "focus": false,
            "material": false,
            "somatic": true,
            "verbal": true
        },
        "cost": {
            "value": ""
        },
        "damage": {
            "value": {}
        },
        "description": {
            "value": "<p>You bombard a target with distracting auditory illusions, surrounding them with a tumultuous cacophony of overlapping speech, whispers, screams, and muttering. The target is @Compendium[pf2e.conditionitems.Flat-Footed]{Flat-Footed}, takes a -2 status penalty to purely auditory Perception checks, and must succeed at a <span data-pf2-check=\"flat\" data-pf2-dc=\"5\">DC 5 flat check</span> to use auditory abilities or verbal spell components. Similarly, a creature who attempts to affect the target with an auditory effect must succeed at a DC 5 flat check or the attempt fails. The duration depends on the target's Will save.</p>\n<hr />\n<p><strong>Critical Success</strong> The creature is unaffected.</p>\n<p><strong>Success</strong> The duration is 1 round.</p>\n<p><strong>Failure</strong> The duration is 3 rounds.</p>\n<p><strong>Critical Failure</strong> The duration is 1 minute.</p>\n<hr />\n<p><strong>Heightened (7th)</strong> You can target up to five creatures.</p>"
        },
        "duration": {
            "value": "varies"
        },
        "hasCounteractCheck": {
            "value": false
        },
        "level": {
            "value": 3
        },
        "location": {
            "value": ""
        },
        "materials": {
            "value": ""
        },
        "prepared": {
            "value": ""
        },
        "range": {
            "value": "30 feet"
        },
        "rules": [],
        "save": {
            "basic": "",
            "value": "will"
        },
        "school": {
            "value": "illusion"
        },
        "source": {
            "value": "Pathfinder Secrets of Magic"
        },
        "spellType": {
            "value": "save"
        },
        "sustained": {
            "value": false
        },
        "target": {
            "value": "1 creature"
        },
        "time": {
            "value": "2"
        },
        "traditions": {
            "custom": "",
            "value": [
                "arcane",
                "occult"
            ]
        },
        "traits": {
            "custom": "",
            "rarity": {
                "value": "common"
            },
            "value": [
                "auditory"
            ]
        }
    },
    "effects": [],
    "flags": {},
    "img": "systems/pf2e/icons/spells/distracting-chatter.webp",
    "name": "Distracting Chatter",
    "type": "spell"
}
