{
    "_id": "XULNb8ItUsfupxqH",
    "data": {
        "ability": {
            "value": ""
        },
        "area": {
            "areaType": "",
            "value": ""
        },
        "areasize": {
            "value": ""
        },
        "category": {
            "value": "focus"
        },
        "components": {
            "material": true,
            "somatic": true,
            "verbal": false
        },
        "cost": {
            "value": ""
        },
        "damage": {
            "value": {}
        },
        "description": {
            "value": "<p>You utter a powerful secret at odds with the fundamental</p>\n<p>nature of the target creatures. Choose a specific resistance or weakness that you believe one or more of the targets have due to @Compendium[pf2e.actionspf2e.Recall Knowledge (Lore)]{Recall Knowledge} or previous experience with the targets, such as resistance to fire or weakness to silver. If the information is incorrect for a given target, the spell has no effect on that target. Affected targets must attempt a Will saving throw.</p>\n<hr />\n<p><strong>Critical Success</strong> The creature is unaffected.</p>\n<p><strong>Success</strong> The creature takes 1 damage of the type of weakness you chose (thus triggering the creature's weakness), or loses its resistance until the end of your next turn if you chose a resistance.</p>\n<p><strong>Failure</strong> As success, and the creature becomes @Compendium[pf2e.conditionitems.Frightened]{Frightened 1} from the revelation of its dread secret.</p>\n<p><strong>Critical Failure</strong> As failure, except the creature is @Compendium[pf2e.conditionitems.Frightened]{Frightened 3}.</p>"
        },
        "duration": {
            "value": ""
        },
        "hasCounteractCheck": {
            "value": false
        },
        "level": {
            "value": 6
        },
        "location": {
            "value": ""
        },
        "materials": {
            "value": ""
        },
        "prepared": {
            "value": ""
        },
        "primarycheck": {
            "value": ""
        },
        "range": {
            "value": "60 feet"
        },
        "rules": [],
        "save": {
            "basic": "",
            "value": "will"
        },
        "school": {
            "value": "divination"
        },
        "secondarycasters": {
            "value": ""
        },
        "secondarycheck": {
            "value": ""
        },
        "source": {
            "value": "Pathfinder Advanced Player's Guide"
        },
        "spellType": {
            "value": "save"
        },
        "sustained": {
            "value": false
        },
        "target": {
            "value": "up to 6 creatures"
        },
        "time": {
            "value": "2"
        },
        "traditions": {
            "custom": "",
            "value": []
        },
        "traits": {
            "custom": "",
            "rarity": {
                "value": "uncommon"
            },
            "value": [
                "emotion",
                "fear",
                "mental",
                "oracle",
                "cursebound"
            ]
        }
    },
    "effects": [],
    "flags": {},
    "img": "systems/pf2e/icons/spells/dread-secret.webp",
    "name": "Dread Secret",
    "type": "spell"
}
