{
    "_id": "PgDFDvX64eswapSS",
    "data": {
        "ability": {
            "value": ""
        },
        "area": {
            "value": ""
        },
        "areasize": {
            "value": ""
        },
        "category": {
            "value": "spell"
        },
        "components": {
            "material": true,
            "somatic": true,
            "verbal": true
        },
        "cost": {
            "value": ""
        },
        "damage": {
            "value": {}
        },
        "description": {
            "value": "<p>You call upon tendrils of ephemeral ectoplasm to pass through the target and carry away a harmful psychic affliction. You immediately attempt to counteract a single effect on the target with the emotion or possession trait, or an effect giving the target the @Compendium[pf2e.conditionitems.Controlled]{Controlled} or @Compendium[pf2e.conditionitems.Fascinated]{Fascinated} condition. If you fail to counteract the effect, you nevertheless set up a resonance that allows the target to more ably escape the effect on its own; for the next hour, the target gains a +2 status bonus to Will saves to shrug off the effect you failed to counteract (such as Will saves to shake off control by the <em>@Compendium[pf2e.spells-srd.Possession]{Possession}</em> spell).</p>"
        },
        "duration": {
            "value": ""
        },
        "hasCounteractCheck": {
            "value": false
        },
        "level": {
            "value": 5
        },
        "location": {
            "value": ""
        },
        "materials": {
            "value": ""
        },
        "prepared": {
            "value": ""
        },
        "range": {
            "value": "30 feet"
        },
        "rules": [],
        "save": {
            "basic": "",
            "value": ""
        },
        "school": {
            "value": "necromancy"
        },
        "source": {
            "value": "Pathfinder #165: Eyes of Empty Death"
        },
        "spellType": {
            "value": "utility"
        },
        "sustained": {
            "value": false
        },
        "target": {
            "value": "1 creature"
        },
        "time": {
            "value": "3"
        },
        "traditions": {
            "custom": "",
            "value": [
                "occult"
            ]
        },
        "traits": {
            "custom": "",
            "rarity": {
                "value": "uncommon"
            },
            "value": [
                "mental"
            ]
        }
    },
    "effects": [],
    "flags": {},
    "img": "systems/pf2e/icons/spells/ectoplasmic-expulsion.webp",
    "name": "Ectoplasmic Expulsion",
    "type": "spell"
}
