{
    "_id": "BA143r8fCqmSjdRf",
    "data": {
        "ability": {
            "value": ""
        },
        "area": {
            "areaType": "",
            "value": ""
        },
        "autoHeightenLevel": {
            "value": null
        },
        "category": {
            "value": "spell"
        },
        "components": {
            "focus": false,
            "material": false,
            "somatic": true,
            "verbal": true
        },
        "cost": {
            "value": ""
        },
        "damage": {
            "value": {
                "u1tz6yrszljlkr1m": {
                    "applyMod": false,
                    "type": {
                        "categories": [],
                        "subtype": "",
                        "value": "piercing"
                    },
                    "value": "1d4"
                }
            }
        },
        "description": {
            "value": "<p>Thorns sprout from your body; they pass through and don't damage any clothing or armor you wear.</p>\n<p>Adjacent creatures that hit you with a melee or unarmed attack take 1d4 piercing damage as the nettles jab them and break off. Each time a creature takes damage in this way, <em>nettleskin</em>'s duration decreases by 1 round.</p>\n<hr />\n<p><strong>Heightened (+1)</strong> The damage increases by 1d4.</p>"
        },
        "duration": {
            "value": "1 minute"
        },
        "hasCounteractCheck": {
            "value": false
        },
        "level": {
            "value": 1
        },
        "location": {
            "value": ""
        },
        "materials": {
            "value": ""
        },
        "range": {
            "value": "self"
        },
        "rules": [],
        "save": {
            "basic": "",
            "value": ""
        },
        "scaling": {
            "damage": {
                "u1tz6yrszljlkr1m": "1d4"
            },
            "interval": 1
        },
        "school": {
            "value": "transmutation"
        },
        "source": {
            "value": "Pathfinder Adventure: Threshold of Knowledge"
        },
        "spellType": {
            "value": "utility"
        },
        "sustained": {
            "value": false
        },
        "target": {
            "value": "self"
        },
        "time": {
            "value": "2"
        },
        "traditions": {
            "custom": "",
            "value": [
                "primal"
            ]
        },
        "traits": {
            "custom": "",
            "rarity": {
                "value": "uncommon"
            },
            "value": [
                "plant"
            ]
        }
    },
    "effects": [],
    "flags": {},
    "img": "systems/pf2e/icons/default-icons/spell.svg",
    "name": "Nettleskin",
    "type": "spell"
}
