{
    "_id": "7PJSqUeKxTqOVrPk",
    "data": {
        "ability": {
            "value": ""
        },
        "area": {
            "areaType": "",
            "value": null
        },
        "areasize": {
            "value": ""
        },
        "category": {
            "value": "spell"
        },
        "components": {
            "material": false,
            "somatic": false,
            "verbal": true
        },
        "cost": {
            "value": ""
        },
        "damage": {
            "value": {}
        },
        "description": {
            "value": "<p>You stun the target with an arcane word of power. Once targeted, the target is then temporarily immune for 10 minutes.</p>\n<p>The effect of the spell depends on the target's level.</p>\n<ul>\n<li><strong>13th or Lower</strong> The target is @Compendium[pf2e.conditionitems.Stunned]{Stunned} for [[/r 1d6 #rounds]]{1d6 rounds}.</li>\n<li><strong>14th-15th</strong> The target is Stunned for 1 round.</li>\n<li><strong>16th or Higher</strong> The target is @Compendium[pf2e.conditionitems.Stunned]{Stunned 1}.</li>\n</ul>\n<hr />\n<p><strong>Heightened (+1)</strong> The levels at which each outcome applies increase by 2.</p>"
        },
        "duration": {
            "value": "varies"
        },
        "hasCounteractCheck": {
            "value": false
        },
        "level": {
            "value": 8
        },
        "location": {
            "value": ""
        },
        "materials": {
            "value": ""
        },
        "prepared": {
            "value": ""
        },
        "primarycheck": {
            "value": ""
        },
        "range": {
            "value": "30 feet"
        },
        "rules": [],
        "save": {
            "basic": "",
            "value": ""
        },
        "school": {
            "value": "enchantment"
        },
        "secondarycasters": {
            "value": ""
        },
        "secondarycheck": {
            "value": ""
        },
        "source": {
            "value": "Pathfinder Core Rulebook"
        },
        "spellType": {
            "value": "utility"
        },
        "sustained": {
            "value": false
        },
        "target": {
            "value": "1 creature"
        },
        "time": {
            "value": "1"
        },
        "traditions": {
            "value": [
                "arcane"
            ]
        },
        "traits": {
            "custom": "",
            "rarity": {
                "value": "uncommon"
            },
            "value": [
                "auditory",
                "mental"
            ]
        }
    },
    "effects": [],
    "flags": {},
    "img": "systems/pf2e/icons/spells/power-word-stun.webp",
    "name": "Power Word Stun",
    "type": "spell"
}
