{
    "_id": "X3dYByf3YmkcdwG0",
    "data": {
        "ability": {
            "value": ""
        },
        "area": {
            "areaType": "",
            "value": null
        },
        "areasize": {
            "value": ""
        },
        "category": {
            "value": "spell"
        },
        "components": {
            "material": false,
            "somatic": true,
            "verbal": true
        },
        "cost": {
            "value": ""
        },
        "damage": {
            "value": {}
        },
        "description": {
            "value": "<p>You continually and harmlessly slough off the top layer of your skin while new skin regenerates immediately, quickly moving damaging substances away from your body. The flat check to remove @Compendium[pf2e.conditionitems.Persistent Damage]{Persistent Damage} from effects that coat your skin (such as most persistent acid damage) is reduced to 5, and you gain a +2 status bonus to your initial save against contact poison (but not to further saves, since by that point, the toxin has already entered your system). If you're suffering from an effect other than Persistent Damage that depends on continuous contact with your skin, if that effect allows a saving throw, you receive a new saving throw against that effect at the end of each turn when you attempt your flat checks against Persistent Damage, and you also receive a +2 status bonus to those saving throws.</p>\n<p>While affected by this spell, your continually shedding skin makes you much easier to @Compendium[pf2e.actionspf2e.Track]{Track}. Anyone Tracking you gains a +2 circumstance bonus to do so, and you cannot Hide Your Tracks.</p>"
        },
        "duration": {
            "value": "1 hour"
        },
        "hasCounteractCheck": {
            "value": false
        },
        "level": {
            "value": 2
        },
        "location": {
            "value": ""
        },
        "materials": {
            "value": ""
        },
        "prepared": {
            "value": ""
        },
        "primarycheck": {
            "value": ""
        },
        "range": {
            "value": ""
        },
        "rules": [],
        "save": {
            "basic": "",
            "value": ""
        },
        "school": {
            "value": "necromancy"
        },
        "secondarycasters": {
            "value": ""
        },
        "secondarycheck": {
            "value": ""
        },
        "source": {
            "value": "Pathfinder Lost Omens: Gods & Magic"
        },
        "spellType": {
            "value": "utility"
        },
        "sustained": {
            "value": false
        },
        "target": {
            "value": ""
        },
        "time": {
            "value": "2"
        },
        "traditions": {
            "custom": "",
            "value": [
                "arcane",
                "primal"
            ]
        },
        "traits": {
            "custom": "",
            "rarity": {
                "value": "common"
            },
            "value": []
        }
    },
    "effects": [],
    "flags": {},
    "img": "systems/pf2e/icons/spells/slough-skin.webp",
    "name": "Slough Skin",
    "type": "spell"
}
