{
    "_id": "zaZieDHguhahmM2z",
    "data": {
        "ability": {
            "value": ""
        },
        "area": {
            "value": ""
        },
        "areasize": {
            "value": ""
        },
        "category": {
            "value": "ritual"
        },
        "components": {
            "material": false,
            "somatic": false,
            "verbal": false
        },
        "cost": {
            "value": "rare incense and herbs worth a total value of 300 gp"
        },
        "damage": {
            "value": {}
        },
        "description": {
            "value": "<p>You and the secondary casters peer into the still waters of a natural pool or lake to divine your collective future. Over the course of the minute following the ritual's end, the waters display a scene of one possible future involving the primary caster and as many secondary casters as feasible. This scene is usually, but not necessarily, set within the next few days. The future is unwritten, so the casters would be wise to not read guarantees into the cryptic nature of the visions shown in the water.</p>\n<hr />\n<p><strong>Critical Success</strong> The scene gives hints as to at least one danger the casters are likely to face, as well as at least one method of effectively addressing the danger (showing the group examining an area of a wall containing a secret hatch to bypass a trap, for example).</p>\n<p><strong>Success</strong> The scene gives a hint as to at least one danger the casters are likely to face, or some cryptic method to effectively address or bypass a danger (such as a scene of lurking trolls, or a scene of the casters lighting several torches and passing them out, but not both).</p>\n<p><strong>Failure</strong> The scene consists of so many contradictory details that it's impossible to identify a single danger or effective course of action from them.</p>\n<p><strong>Critical Failure</strong> The scene is wrong; it shows the casters facing a danger they're unlikely to come across, or encourages actions that hinder a likely upcoming encounter (such as encouraging chopping down several trees before meeting an arboreal or a dryad).</p>"
        },
        "duration": {
            "value": ""
        },
        "hasCounteractCheck": {
            "value": false
        },
        "level": {
            "value": 5
        },
        "location": {
            "value": ""
        },
        "materials": {
            "value": ""
        },
        "prepared": {
            "value": ""
        },
        "primarycheck": {
            "value": "Nature or Religion (master, the check has the secret trait)"
        },
        "range": {
            "value": "20 ft"
        },
        "rules": [],
        "save": {
            "basic": "",
            "value": ""
        },
        "school": {
            "value": "divination"
        },
        "secondarycasters": {
            "value": "3"
        },
        "secondarycheck": {
            "value": "Nature, Occultism, Religion, or Survival"
        },
        "source": {
            "value": "Pathfinder Secrets of Magic"
        },
        "spellType": {
            "value": "utility"
        },
        "sustained": {
            "value": false
        },
        "target": {
            "value": "1 pool of water"
        },
        "time": {
            "value": "4 Hours"
        },
        "traditions": {
            "custom": "",
            "value": []
        },
        "traits": {
            "custom": "",
            "rarity": {
                "value": "rare"
            },
            "value": []
        }
    },
    "effects": [],
    "flags": {},
    "img": "systems/pf2e/icons/spells/waters-of-prediction.webp",
    "name": "Waters of Prediction",
    "type": "spell"
}
