{
    "_id": "q2omqJ9t0skGTYki",
    "data": {
        "actionCategory": {
            "value": ""
        },
        "actionType": {
            "value": "passive"
        },
        "actions": {
            "value": null
        },
        "description": {
            "value": "<p>Your woven exoskeleton rivals the hardest armors that can be found. Your exoskeleton is medium armor in the plate armor group that grants a +4 item bonus to AC, a Dex cap of +1, a check penalty of –2, a speed penalty of –5 feet, and a Strength value of 16, and has the comfort trait. You can never wear other armor or remove your exoskeleton. You can etch armor runes onto your exoskeleton as normal.</p>\n<p>@Compendium[pf2e.equipment-srd.Rite of Reinforcement Exoskeleton]{Rite of Reinforcement Exoskeleton}</p>"
        },
        "featType": {
            "value": "heritage"
        },
        "level": {
            "value": 0
        },
        "location": "",
        "prerequisites": {
            "value": []
        },
        "rules": [],
        "source": {
            "value": ""
        },
        "traits": {
            "custom": "",
            "rarity": {
                "value": "common"
            },
            "value": [
                "conrasu",
                "heritage"
            ]
        }
    },
    "effects": [],
    "flags": {},
    "img": "systems/pf2e/icons/default-icons/feat.svg",
    "name": "Rite of Reinforcement",
    "type": "feat"
}
