{
    "_id": "ivGiUp0EC5nWT9Hb",
    "data": {
        "description": {
            "value": "<p>Granted by @Compendium[pf2e.feats-srd.Read Shibboleths]{Read Shibboleths}</p>\n<p>Once you've gleaned one or more true minor facts about a person, you can then incorporate these mannerisms into your speech to present yourself in a way that they find familiar. This grants you a +1 circumstance bonus to your Diplomacy and Deception checks with them</p>"
        },
        "duration": {
            "expiry": "turn-start",
            "sustained": false,
            "unit": "unlimited",
            "value": -1
        },
        "level": {
            "value": 1
        },
        "rules": [
            {
                "key": "FlatModifier",
                "selector": "diplomacy",
                "type": "circumstance",
                "value": 1
            },
            {
                "key": "FlatModifier",
                "selector": "deception",
                "type": "circumstance",
                "value": 1
            }
        ],
        "source": {
            "value": "Pathfinder Advanced Player's Guide"
        },
        "start": {
            "initiative": null,
            "value": 0
        },
        "target": null,
        "tokenIcon": {
            "show": true
        },
        "traits": {
            "custom": "",
            "rarity": {
                "value": "common"
            },
            "value": []
        }
    },
    "effects": [],
    "flags": {},
    "img": "systems/pf2e/icons/default-icons/effect.svg",
    "name": "Effect: Read Shibboleths",
    "type": "effect"
}
