{
    "_id": "fh8TgCfiifVk0eqU",
    "data": {
        "description": {
            "value": "<p><strong>Effect</strong>: While working with less experienced Pathfinder allies, you provide key spellcasting insights that augment your colleagues' magic. Any PCs benefiting from a Level Bump and whose levels are lower than yours can prepare one additional spell of their highest-level spell slot or cast one additional spell of their highest-level spell slot. When casting spells of a magical tradition that is the same as the tradition you use for spellcasting, the affected PC also increases the Level Bump's modifier to spell DCs to 2.</p>\n<p><strong>Normal</strong>: A Level Bump increases a PC's spell DCs by 1, and it does not grant any additional spells prepared or spell slots.</p>\n<p><strong>Special</strong>: A PC can only benefit from two mentor boons.</p>\n<p><strong>**Spell-DC not implemented yet. The rule is in place for when it is but all DCs must be increased manually for now**</strong></p>"
        },
        "duration": {
            "expiry": "turn-start",
            "sustained": false,
            "unit": "unlimited",
            "value": -1
        },
        "level": {
            "value": 1
        },
        "rules": [
            {
                "key": "FlatModifier",
                "label": "Magical Mentor",
                "selector": "spell-dc",
                "value": 1
            }
        ],
        "source": {
            "value": ""
        },
        "start": {
            "initiative": null,
            "value": 0
        },
        "target": null,
        "tokenIcon": {
            "show": false
        },
        "traits": {
            "custom": "",
            "rarity": {
                "value": "common"
            },
            "value": []
        }
    },
    "effects": [],
    "flags": {},
    "img": "systems/pf2e/icons/default-icons/effect.svg",
    "name": "Effect: Magical Mentor Boon (PFS)",
    "type": "effect"
}
