{
    "_id": "v54mj5jknAynlCM9",
    "data": {
        "description": {
            "value": "<p>The creature gains a +2 status bonus to attack rolls against @Compendium[pf2e.conditionitems.Flat-Footed]{Flat-Footed} creatures.</p>"
        },
        "duration": {
            "expiry": "turn-start",
            "sustained": false,
            "unit": "minutes",
            "value": 1
        },
        "level": {
            "value": 3
        },
        "rules": [
            {
                "key": "FlatModifier",
                "predicate": {
                    "all": [
                        "target:flatFooted"
                    ]
                },
                "selector": "attack",
                "type": "status",
                "value": 2
            }
        ],
        "source": {
            "value": "Pathfinder Bestiary 2"
        },
        "start": {
            "initiative": null,
            "value": 0
        },
        "target": null,
        "tokenIcon": {
            "show": true
        },
        "traits": {
            "custom": "",
            "rarity": {
                "value": "common"
            },
            "value": []
        }
    },
    "effects": [],
    "flags": {},
    "img": "systems/pf2e/icons/spells/bloodspray-curse.webp",
    "name": "Effect: Call to Blood",
    "type": "effect"
}
