{
    "_id": "5roCV7EbPx1G5xOd",
    "data": {
        "description": {
            "value": "<p>The target takes a -20-foot status penalty to all Speeds until the end of its next turn.</p>"
        },
        "duration": {
            "expiry": "turn-end",
            "sustained": false,
            "unit": "rounds",
            "value": 1
        },
        "level": {
            "value": 8
        },
        "rules": [
            {
                "key": "FlatModifier",
                "selector": "speed",
                "type": "circumstance",
                "value": -20
            }
        ],
        "source": {
            "value": "Pathfinder Bestiary"
        },
        "start": {
            "initiative": null,
            "value": 0
        },
        "target": null,
        "tokenIcon": {
            "show": true
        },
        "traits": {
            "custom": "",
            "rarity": {
                "value": "common"
            },
            "value": []
        }
    },
    "effects": [],
    "flags": {},
    "img": "systems/pf2e/icons/spells/forceful-hand.webp",
    "name": "Effect: Mangling Rend",
    "type": "effect"
}
