{
    "_id": "WjOkOaWOGkLmuSq5",
    "data": {
        "attributes": {
            "ac": {
                "check": 0,
                "details": "",
                "value": 19
            },
            "collisionDC": {
                "value": 20
            },
            "collisionDamage": {
                "value": "3d10"
            },
            "hardness": 5,
            "hp": {
                "brokenThreshold": 5,
                "details": "",
                "max": 70,
                "temp": 0,
                "value": 70
            }
        },
        "details": {
            "AC": 0,
            "crew": "1 pilot",
            "description": "<p>Slow but steady, an armored carriage combines clockwork with a protective hull for a safe and comfortable ride.</p>",
            "level": {
                "value": 1
            },
            "passengers": "3",
            "pilotingCheck": "Driving Lore (DC 20) or Crafting (DC 22)",
            "price": 400,
            "space": {
                "high": 10,
                "long": 10,
                "wide": 10
            },
            "speed": "25 feet (clockwork)"
        },
        "saves": {
            "fortitude": {
                "item": 0,
                "rank": 0,
                "saveDetail": "",
                "value": 12
            }
        },
        "source": {
            "value": "Pathfinder Guns & Gears"
        },
        "traits": {
            "ci": [],
            "di": {
                "custom": "",
                "value": [
                    "critical-hits",
                    "object-immunities",
                    "precision"
                ]
            },
            "dr": [],
            "dv": [],
            "rarity": {
                "value": "uncommon"
            },
            "size": {
                "value": "lg"
            },
            "traits": {
                "custom": "",
                "value": []
            }
        }
    },
    "effects": [],
    "flags": {},
    "img": "systems/pf2e/icons/default-icons/vehicle.svg",
    "items": [
        {
            "_id": "oWlyE6XYOLX2gBB6",
            "data": {
                "actionCategory": {
                    "value": ""
                },
                "actionType": {
                    "value": "passive"
                },
                "actions": {
                    "value": null
                },
                "description": {
                    "value": "<p>This vehicle has one rear weapon mount that can be equipped with a ranged weapon. At purchase, this weapon mount is empty. Installing or uninstalling a weapon into this mount requires 10 minutes, a successful <span data-pf2-check=\"crafting\" data-pf2-traits=\"\" data-pf2-label=\"Attach weapon DC\" data-pf2-dc=\"20\" data-pf2-show-dc=\"gm\">Crafting</span>, as well as an appropriate weapon to install.</p>"
                },
                "requirements": {
                    "value": ""
                },
                "rules": [],
                "slug": null,
                "source": {
                    "value": ""
                },
                "traits": {
                    "custom": "",
                    "rarity": {
                        "value": "common"
                    },
                    "value": []
                },
                "trigger": {
                    "value": ""
                }
            },
            "effects": [],
            "flags": {},
            "img": "systems/pf2e/icons/actions/Passive.webp",
            "name": "Weapon Mount",
            "sort": 0,
            "type": "action"
        },
        {
            "_id": "eMf9xcynjFjF5ma8",
            "data": {
                "actionCategory": {
                    "value": ""
                },
                "actionType": {
                    "value": "passive"
                },
                "actions": {
                    "value": null
                },
                "description": {
                    "value": "<p>10 minutes of wind-up, 1 hour of operational time, DC 20, standby</p>"
                },
                "requirements": {
                    "value": ""
                },
                "rules": [],
                "slug": null,
                "source": {
                    "value": ""
                },
                "traits": {
                    "custom": "",
                    "rarity": {
                        "value": "common"
                    },
                    "value": []
                },
                "trigger": {
                    "value": ""
                }
            },
            "effects": [],
            "flags": {},
            "img": "systems/pf2e/icons/actions/Passive.webp",
            "name": "Wind-Up",
            "sort": 0,
            "type": "action"
        }
    ],
    "name": "Armored Carriage",
    "token": {
        "disposition": 0,
        "height": 2,
        "img": "systems/pf2e/icons/default-icons/vehicle.svg",
        "name": "Armored Carriage",
        "width": 2
    },
    "type": "vehicle"
}
