{
    "_id": "stqY18rymB2XUSHq",
    "data": {
        "attributes": {
            "ac": {
                "value": 24
            },
            "hardness": 15,
            "hasHealth": true,
            "hp": {
                "details": "",
                "max": 62,
                "temp": 0,
                "value": 62
            },
            "stealth": {
                "details": "",
                "value": 0
            }
        },
        "creatureType": "",
        "details": {
            "description": "<p>A magical pipe organ for controlling and bolstering the undead. Creatures that are trained in Performance can spend one action to attempt to play a tune.</p>",
            "disable": "<p><span data-pf2-check=\"thievery\" data-pf2-traits=\"magical,necromancy\" data-pf2-label=\"Stopper the Pipes SC\" data-pf2-dc=\"28\" data-pf2-show-dc=\"gm\">Thievery</span> (expert) to stopper the pipes. Each pipe stoppered imparts a stacking -1 circumstance penalty to Performance checks with the organ. <span data-visibility=\"gm\">Once four pipes have been stoppered, the organ ceases to function.</span></p>",
            "isComplex": false,
            "level": {
                "value": 8
            },
            "reset": "",
            "routine": ""
        },
        "saves": {
            "fortitude": {
                "saveDetail": "",
                "value": 21
            },
            "reflex": {
                "saveDetail": "",
                "value": 13
            },
            "will": {
                "saveDetail": "",
                "value": 0
            }
        },
        "source": {
            "value": "Pathfinder Society Scenario 1-25: Grim Symphony"
        },
        "statusEffects": [],
        "traits": {
            "ci": [],
            "di": {
                "custom": "",
                "selected": {},
                "value": [
                    "critical-hits",
                    "object-immunities",
                    "precision"
                ]
            },
            "dr": [
                {
                    "exceptions": "",
                    "label": "Sonic",
                    "type": "sonic",
                    "value": "5"
                }
            ],
            "dv": [
                {
                    "label": "Fire",
                    "type": "fire",
                    "value": "5"
                }
            ],
            "rarity": {
                "value": "rare"
            },
            "size": {
                "value": "med"
            },
            "traits": {
                "custom": "",
                "value": [
                    "magical",
                    "necromancy"
                ]
            }
        }
    },
    "effects": [],
    "flags": {},
    "img": "systems/pf2e/icons/default-icons/hazard.svg",
    "items": [
        {
            "_id": "FtgfbaOjF5fTPtAP",
            "data": {
                "actionCategory": {
                    "value": "interaction"
                },
                "actionType": {
                    "value": "free"
                },
                "actions": {
                    "value": null
                },
                "description": {
                    "value": "<p data-visibility=\"gm\"><strong>Trigger</strong> An adjacent creature attempts to play the organ;</p>\n<p><strong>Effect</strong> The performer makes a <span data-pf2-check=\"performance\" data-pf2-traits=\"magical,necromancy,keyboard\" data-pf2-label=\"Play the Dead Organ Keyboard DC\" data-pf2-dc=\"24\" data-pf2-show-dc=\"gm\">Performance</span> check.</p>\n<hr />\n<p><strong>Critical Success</strong> As success, and all other creatures who attempt to perform on the dead organ suffer a -1 status penalty to Play a Tune for 1 round.</p>\n<p><strong>Success</strong> Creatures within 100 feet of the organ are subjected to one of the following effects, as chosen by the performer:</p>\n<ul>\n<li><strong>Bolster</strong> (auditory, necromancy): Mindless undead within range gain a +1 status bonus to attack and damage rolls for 1 round.</li>\n<li><strong>Dance</strong> (auditory, move, necromancy): Mindless undead within range Stride up to 15 feet in the same cardinal direction. All targets move the same distance. If impeded, they move as far as possible, then stop.</li>\n<li><strong>Discordant Blast</strong> (auditory, evocation, sonic): All living creatures within 10 feet of the organ except the performer suffer [[/r {2d8+9}[sonic]]]{2d8+9 sonic damage} (<span data-pf2-check=\"fortitude\" data-pf2-traits=\"auditory,evocation,magical,sonic,necromancy\" data-pf2-label=\"Discordant Blast DC\" data-pf2-dc=\"24\" data-pf2-show-dc=\"gm\">basic Fortitude</span> save). On a failure or critical failure, a creature is also pushed 15 feet away from the organ.</li>\n<li>Swing (attack, auditory, flourish, necromancy): Mindless undead within range make a Strike in the same relative cardinal direction. This Strike doesn't count toward the undead creatures' multiple attack penalty, and their multiple attack penalty doesn't apply to this Strike.</li>\n<li>Weaken (auditory, necromancy): Mindless undead within range suffer a -1 status penalty to attack and damage rolls for 1 round.</li>\n</ul>\n<p><strong>Critical Failure</strong> The player alone experiences the effects of a discordant blast.</p>"
                },
                "requirements": {
                    "value": ""
                },
                "rules": [],
                "slug": null,
                "source": {
                    "value": ""
                },
                "traits": {
                    "custom": "",
                    "rarity": {
                        "value": "common"
                    },
                    "value": []
                },
                "trigger": {
                    "value": ""
                },
                "weapon": {
                    "value": ""
                }
            },
            "effects": [],
            "flags": {},
            "img": "systems/pf2e/icons/actions/FreeAction.webp",
            "name": "Play a Tune",
            "sort": 0,
            "type": "action"
        }
    ],
    "name": "Dead Organ (7-8)",
    "token": {
        "disposition": 0,
        "height": 1,
        "img": "systems/pf2e/icons/default-icons/hazard.svg",
        "name": "Dead Organ",
        "width": 1
    },
    "type": "hazard"
}
